<?xml version="1.0" standalone="no"?>
<!DOCTYPE svg PUBLIC "-//W3C//DTD SVG 1.1//EN" "http://www.w3.org/Graphics/SVG/1.1/DTD/svg11.dtd" >
<svg xmlns="http://www.w3.org/2000/svg" xmlns:xlink="http://www.w3.org/1999/xlink" version="1.1">
<metadata></metadata>
<defs>
<font id="proxima_nova_extra_condensSBd" horiz-adv-x="823" >
<font-face units-per-em="2048" ascent="1618" descent="-430" />
<missing-glyph horiz-adv-x="342" />
<glyph unicode="&#xfb01;" horiz-adv-x="886" d="M39 821v168h94v129q0 126 60.5 197t162.5 71q73 0 125 -28l-37 -156q-12 15 -41 15q-35 0 -56 -26.5t-21 -72.5v-129h129v-168h-129v-821h-193v821h-94zM565 1274q0 51 36.5 87t86.5 36q51 0 87 -36t36 -87t-36 -86t-87 -35q-50 0 -86.5 35.5t-36.5 85.5zM592 0v989h192 v-989h-192z" />
<glyph unicode="&#xfb02;" horiz-adv-x="886" d="M39 821v168h94v129q0 126 60.5 197t162.5 71q73 0 125 -28l-37 -156q-12 15 -41 15q-35 0 -56 -26.5t-21 -72.5v-129h129v-168h-129v-821h-193v821h-94zM592 0v1366h192v-1366h-192z" />
<glyph unicode="&#xfb03;" horiz-adv-x="1376" d="M39 821v168h94v129q0 126 60.5 197t162.5 71q70 0 125 -24l-35 -156q-19 8 -40 8q-37 0 -58.5 -25.5t-21.5 -70.5v-129h129v-168h-129v-821h-193v821h-94zM528 821v168h95v129q0 126 60.5 197t162.5 71q73 0 125 -28l-37 -156q-12 15 -41 15q-35 0 -56.5 -26.5 t-21.5 -72.5v-129h129v-168h-129v-821h-192v821h-95zM1055 1274q0 51 36.5 87t86.5 36q51 0 86.5 -36t35.5 -87t-35.5 -86t-86.5 -35q-50 0 -86.5 35.5t-36.5 85.5zM1081 0v989h193v-989h-193z" />
<glyph unicode="&#xfb04;" horiz-adv-x="1376" d="M39 821v168h94v129q0 126 60.5 197t162.5 71q70 0 125 -24l-35 -156q-19 8 -40 8q-37 0 -58.5 -25.5t-21.5 -70.5v-129h129v-168h-129v-821h-193v821h-94zM528 821v168h95v129q0 126 60.5 197t162.5 71q73 0 125 -28l-37 -156q-12 15 -41 15q-35 0 -56.5 -26.5 t-21.5 -72.5v-129h129v-168h-129v-821h-192v821h-95zM1081 0v1366h193v-1366h-193z" />
<glyph horiz-adv-x="0" />
<glyph horiz-adv-x="682" />
<glyph horiz-adv-x="0" />
<glyph horiz-adv-x="0" />
<glyph unicode="&#xd;" horiz-adv-x="0" />
<glyph unicode=" "  horiz-adv-x="342" />
<glyph unicode="&#x09;" horiz-adv-x="342" />
<glyph unicode="&#xa0;" horiz-adv-x="342" />
<glyph unicode="!" horiz-adv-x="489" d="M113 111q0 54 38.5 92.5t92.5 38.5q55 0 94 -38.5t39 -92.5t-39 -94t-94 -40q-54 0 -92.5 40t-38.5 94zM127 1366h235l-34 -960h-164z" />
<glyph unicode="&#x22;" horiz-adv-x="749" d="M102 1276q0 45 33 77.5t78 32.5t78 -32.5t33 -77.5q0 -15 -16.5 -129.5t-33.5 -222.5l-16 -107h-90q-66 426 -66 459zM426 1276q0 46 32.5 78t78.5 32t78 -32t32 -78q0 -15 -16.5 -129.5t-32.5 -222.5l-16 -107h-90q-66 426 -66 459z" />
<glyph unicode="#" horiz-adv-x="903" d="M33 362l28 130h132l88 382h-131l26 127h133l86 365h148l-84 -365h135l84 365h147l-84 -365h129l-26 -127h-133l-88 -382h135l-29 -130h-137l-84 -362h-150l88 362h-137l-84 -362h-147l84 362h-129zM342 492h131l90 382h-135z" />
<glyph unicode="$" horiz-adv-x="755" d="M33 106l96 168q39 -51 98 -79.5t119 -28.5q67 0 110.5 49.5t43.5 126.5q0 44 -13 80.5t-44.5 72t-54 55t-71.5 58.5q-39 31 -60 48.5t-55 50t-53 62t-40 69.5t-30 87t-9 101q0 128 68 224t186 126v197h149v-187q137 -16 223 -102l-86 -164q-75 78 -182 78q-61 0 -101 -45 t-40 -117q0 -30 10 -58t23 -49t39.5 -47.5t45 -42t54.5 -44.5q47 -37 74.5 -61.5t67 -68t61.5 -84.5t38.5 -100.5t16.5 -126.5q0 -134 -65 -230.5t-179 -131.5v-197h-149v180q-178 12 -291 131z" />
<glyph unicode="%" horiz-adv-x="1187" d="M49 1047q0 147 70.5 243t187.5 96t187.5 -96t70.5 -243q0 -145 -71 -240.5t-187 -95.5t-187 95.5t-71 240.5zM184 1047q0 -94 33 -153.5t90 -59.5t90 59.5t33 153.5q0 97 -32.5 156t-90.5 59t-90.5 -59t-32.5 -156zM264 0l565 1366h97l-568 -1366h-94zM623 311 q0 147 71 243.5t187 96.5t187 -96.5t71 -243.5q0 -145 -71 -240.5t-187 -95.5t-187 95.5t-71 240.5zM758 311q0 -94 33 -152.5t90 -58.5t90 58.5t33 152.5q0 97 -33 157t-90 60t-90 -60t-33 -157z" />
<glyph unicode="&#x26;" horiz-adv-x="872" d="M63 346q0 138 53.5 232.5t147.5 177.5q-74 191 -74 295q0 149 69.5 242t180.5 93q99 0 168.5 -79.5t69.5 -198.5q0 -41 -7.5 -79t-16 -65.5t-30.5 -61t-33 -50t-43.5 -49.5t-42.5 -42.5t-48 -43.5q57 -119 78 -158q36 -71 71 -133q31 96 66 254l155 -70 q-53 -219 -120 -352q66 -109 165 -258h-206q-2 3 -26 42t-36 60q-108 -127 -252 -127q-128 0 -208.5 99t-80.5 272zM258 356q0 -101 37 -163t94 -62q72 0 135 107q-71 128 -106 194l-82 160q-78 -106 -78 -236zM362 1051q0 -63 35 -179q55 53 85 107.5t30 122.5t-21 104.5 t-51 36.5q-78 0 -78 -192z" />
<glyph unicode="'" horiz-adv-x="425" d="M102 1276q0 45 33 77.5t78 32.5t78 -32.5t33 -77.5q0 -15 -16.5 -129.5t-33.5 -222.5l-16 -107h-90q-66 426 -66 459z" />
<glyph unicode="(" horiz-adv-x="485" d="M96 498q0 479 209 905l139 -60q-67 -206 -102 -408t-35 -437q0 -430 137 -844l-139 -62q-209 426 -209 906z" />
<glyph unicode=")" horiz-adv-x="485" d="M41 -346q137 414 137 844q0 235 -35 437t-102 408l137 60q211 -424 211 -905q0 -482 -211 -906z" />
<glyph unicode="*" horiz-adv-x="641" d="M31 979l205 104l-205 105l53 92l195 -125l-11 231h105l-11 -231l195 125l53 -92l-207 -105l207 -104l-53 -92l-195 125l11 -232h-105l11 232l-195 -125z" />
<glyph unicode="+" horiz-adv-x="780" d="M59 627v127h263v293h137v-293h262v-127h-262v-305h-137v305h-263z" />
<glyph unicode="," horiz-adv-x="489" d="M113 115q0 53 37.5 90t91.5 37q61 0 103 -47t42 -129q0 -98 -50 -186.5t-132 -145.5l-88 71q51 31 91.5 86t49.5 107q-8 -4 -31 -4q-49 0 -81.5 34t-32.5 87z" />
<glyph unicode="-" horiz-adv-x="487" d="M61 412v166h365v-166h-365z" />
<glyph unicode="." horiz-adv-x="489" d="M113 111q0 54 39.5 92.5t93.5 38.5t92.5 -38.5t38.5 -92.5t-38.5 -92.5t-92.5 -38.5t-93.5 38.5t-39.5 92.5z" />
<glyph unicode="/" horiz-adv-x="442" d="M0 -41l301 1448h141l-301 -1448h-141z" />
<glyph unicode="0" horiz-adv-x="892" d="M74 682q0 107 11.5 204.5t39.5 190t69.5 160t106 108.5t145.5 41t145.5 -41t106.5 -108.5t70 -160t39.5 -190t11.5 -204.5q0 -106 -11.5 -203.5t-39 -191t-69.5 -161.5t-107 -109.5t-146 -41.5t-145.5 41.5t-106 109.5t-69.5 161.5t-39.5 191t-11.5 203.5zM293 682 q0 -76 2 -132.5t7 -120.5t15.5 -107.5t27 -81t42 -56t59.5 -18.5t59.5 18.5t42 56t27.5 81.5t16 107t7 120t2 133q0 77 -2 133.5t-7 119.5t-16 106.5t-27.5 80.5t-42 55.5t-59.5 18.5q-40 0 -68.5 -28.5t-44.5 -73t-25.5 -115.5t-12 -138t-2.5 -159z" />
<glyph unicode="1" horiz-adv-x="663" d="M14 1012l346 354h187v-1366h-213v1087l-195 -206z" />
<glyph unicode="2" horiz-adv-x="858" d="M61 1161q67 112 152 168.5t209 56.5q162 0 259 -101.5t97 -268.5q0 -135 -78.5 -295t-326.5 -533h409v-188h-688v178q219 308 312 453t124 222.5t31 158.5q0 78 -40.5 131t-106.5 53q-131 0 -211 -160z" />
<glyph unicode="3" horiz-adv-x="856" d="M49 201l150 123q79 -158 207 -158q165 0 165 221q0 61 -16 106t-43 67.5t-55.5 33t-59.5 10.5q-62 0 -80 -4v195q16 -2 72 -2q77 0 122.5 50t45.5 146q0 207 -151 207q-64 0 -114.5 -38t-82.5 -105l-143 112q56 107 148.5 164t201.5 57q160 0 256 -91.5t96 -274.5 q0 -109 -57 -199t-150 -114q96 -20 159.5 -114.5t63.5 -219.5q0 -179 -97.5 -288.5t-270.5 -109.5q-123 0 -218.5 63t-148.5 163z" />
<glyph unicode="4" horiz-adv-x="825" d="M31 324v190l407 852h252v-854h105v-188h-105v-324h-213v324h-446zM207 512h270v598z" />
<glyph unicode="5" horiz-adv-x="866" d="M66 201l145 123q71 -158 203 -158q76 0 121 76.5t45 183.5q0 129 -38.5 194.5t-111.5 65.5q-53 0 -92 -27t-78 -92l-160 45v754h637v-188h-424v-416q30 50 81 80t112 30q134 0 213.5 -115t79.5 -327q0 -194 -102 -324.5t-271 -130.5q-128 0 -213.5 56.5t-146.5 169.5z " />
<glyph unicode="6" horiz-adv-x="862" d="M74 682q0 148 25 273t74.5 222.5t131 153t187.5 55.5q88 0 162.5 -43.5t117.5 -119.5l-117 -150q-27 62 -64.5 92.5t-92.5 30.5q-54 0 -95.5 -42.5t-65 -113.5t-35 -153.5t-11.5 -173.5v-23q29 78 88 128t135 50q125 0 206 -114t81 -324q0 -125 -40 -227.5t-119.5 -165 t-184.5 -62.5q-85 0 -152 39t-109.5 104t-70.5 157t-39.5 192t-11.5 215zM291 508q10 -342 153 -342q48 0 80.5 38.5t45 94t12.5 123.5q0 140 -38.5 201t-99.5 61q-96 0 -153 -176z" />
<glyph unicode="7" horiz-adv-x="745" d="M39 1178v188h668v-147l-328 -1219h-227l321 1178h-434z" />
<glyph unicode="8" horiz-adv-x="858" d="M68 336q0 122 67.5 225t155.5 144q-84 38 -145.5 127t-61.5 208q0 86 28 154t77 109t110 62t131 21q69 0 130 -21t110 -62t77.5 -109t28.5 -154q0 -119 -62.5 -208t-146.5 -127q89 -42 157.5 -144.5t68.5 -222.5q0 -170 -95 -266.5t-268 -96.5q-176 0 -269 95.5 t-93 265.5zM283 367q0 -97 40 -149t107 -52q64 0 106 52.5t42 148.5q0 105 -56 178.5t-92 81.5q-13 -3 -36 -21.5t-48.5 -49.5t-44 -81.5t-18.5 -107.5zM295 1004q0 -51 17 -95t42.5 -71t44 -41.5t31.5 -20.5q12 6 30 20t43.5 41.5t42.5 71.5t17 95q0 91 -34 141.5t-99 50.5 q-66 0 -100.5 -50.5t-34.5 -141.5z" />
<glyph unicode="9" horiz-adv-x="862" d="M61 934q0 125 40 227.5t120 165t185 62.5t181.5 -57.5t119 -159.5t62 -223t19.5 -267q0 -148 -25 -273.5t-75 -223t-131.5 -153t-187.5 -55.5q-89 0 -163 44t-116 120l117 150q27 -62 65 -92.5t93 -30.5q51 0 91.5 41t65 110t37 153.5t12.5 176.5v25q-31 -78 -89 -128 t-134 -50q-126 0 -206.5 114t-80.5 324zM279 942q0 -139 38.5 -200.5t98.5 -61.5q96 0 153 176q-5 342 -149 342q-72 0 -106.5 -74.5t-34.5 -181.5z" />
<glyph unicode=":" horiz-adv-x="489" d="M113 111q0 54 39.5 92.5t93.5 38.5t92.5 -38.5t38.5 -92.5t-38.5 -92.5t-92.5 -38.5t-93.5 38.5t-39.5 92.5zM113 872q0 54 39.5 93t93.5 39t92.5 -39t38.5 -93t-38.5 -92.5t-92.5 -38.5t-93.5 38.5t-39.5 92.5z" />
<glyph unicode=";" horiz-adv-x="489" d="M113 119q0 53 37.5 91t91.5 38q61 0 103 -48t42 -128q0 -98 -50 -186.5t-132 -147.5l-88 74q50 30 91 84.5t50 105.5q-8 -4 -31 -4q-50 0 -82 33.5t-32 87.5zM113 872q0 54 39.5 93t93.5 39t92.5 -39t38.5 -93q0 -53 -38.5 -92t-92.5 -39t-93.5 39t-39.5 92z" />
<glyph unicode="&#x3c;" horiz-adv-x="780" d="M59 616v138l662 293v-150l-510 -213l510 -209v-151z" />
<glyph unicode="=" horiz-adv-x="780" d="M59 424v127h662v-127h-662zM59 817v127h662v-127h-662z" />
<glyph unicode="&#x3e;" horiz-adv-x="780" d="M59 324v151l510 209l-510 213v150l662 -293v-138z" />
<glyph unicode="?" horiz-adv-x="655" d="M63 1272q105 117 261 117q131 0 211.5 -83.5t80.5 -209.5q0 -49 -9.5 -91.5t-32.5 -84t-38 -64t-47 -65.5q-27 -37 -40 -55.5t-31 -51t-25.5 -62.5t-7.5 -63q0 -55 35 -100l-164 -66q-51 68 -51 176q0 57 17 109t36.5 83t52.5 75q32 42 48.5 67t31.5 66.5t15 85.5 q0 57 -36.5 102t-93.5 45q-69 0 -122 -65zM201 111q0 54 39.5 92.5t93.5 38.5t92.5 -38.5t38.5 -92.5t-38.5 -92.5t-92.5 -38.5t-93.5 38.5t-39.5 92.5z" />
<glyph unicode="@" horiz-adv-x="1269" d="M72 440q0 164 56 322.5t149.5 278.5t223.5 194t269 74q191 0 309.5 -134t118.5 -364q0 -173 -46 -320.5t-121.5 -232t-160.5 -84.5q-67 0 -111 38t-52 101l-2 17q-99 -156 -228 -156q-80 0 -135 60.5t-55 197.5q0 141 46.5 275t136.5 224.5t200 90.5q59 0 96 -38.5 t51 -102.5l23 108h172l-115 -538q-6 -30 -6 -52q0 -49 13.5 -69.5t45.5 -20.5q22 0 50.5 34.5t55.5 95t45.5 159t18.5 211.5q0 203 -96 314.5t-258 111.5q-123 0 -238 -69t-197 -180.5t-131.5 -255t-49.5 -288.5q0 -232 106 -373t301 -141q83 0 152.5 29t140.5 86l37 -57 q-164 -129 -340 -129q-222 0 -348.5 156.5t-126.5 426.5zM467 459q0 -146 90 -146q28 0 53.5 12t47 36.5t35 44t32.5 51.5l66 303q-25 121 -97 121q-52 0 -97 -42t-72 -107t-42.5 -137t-15.5 -136z" />
<glyph unicode="A" horiz-adv-x="815" d="M6 0l279 1366h245l279 -1366h-209l-47 279h-291l-47 -279h-209zM287 467h241l-120 696z" />
<glyph unicode="B" horiz-adv-x="882" d="M117 0v1366h360q154 0 234 -96.5t80 -251.5q0 -125 -51 -204.5t-140 -108.5q92 -15 150.5 -112t58.5 -224q0 -170 -78.5 -269.5t-238.5 -99.5h-375zM330 188h104q156 0 156 207q0 92 -39 149.5t-117 57.5h-104v-414zM330 791h96q145 0 145 192q0 195 -145 195h-96v-387z " />
<glyph unicode="C" horiz-adv-x="843" d="M74 682q0 123 14 228.5t45 194.5t77 151.5t112 97.5t149 35q58 0 106 -18t80 -45.5t58.5 -69.5t42 -79t30.5 -85l-172 -64q-26 87 -57.5 128.5t-87.5 41.5q-178 0 -178 -516t178 -516q63 0 96.5 53.5t50.5 149.5l175 -64q-79 -330 -322 -330q-103 0 -180.5 53.5 t-124 150.5t-69.5 223t-23 280z" />
<glyph unicode="D" horiz-adv-x="931" d="M117 0v1366h305q113 0 198 -51.5t136.5 -144.5t76.5 -215.5t25 -272.5q0 -152 -25 -274t-76 -214.5t-135.5 -143t-197.5 -50.5h-307zM330 188h92q74 0 123.5 61t71.5 169.5t22 263.5q0 238 -53.5 367t-163.5 129h-92v-990z" />
<glyph unicode="E" horiz-adv-x="751" d="M117 0v1366h559v-188h-346v-387h332v-189h-332v-414h346v-188h-559z" />
<glyph unicode="F" horiz-adv-x="747" d="M117 0v1366h559v-188h-346v-387h332v-189h-332v-602h-213z" />
<glyph unicode="G" horiz-adv-x="890" d="M74 682q0 215 41.5 370.5t131.5 246t224 90.5q125 0 203.5 -82t113.5 -215l-172 -64q-23 84 -55 127t-90 43q-87 0 -132.5 -132.5t-45.5 -383.5q0 -250 45.5 -383t132.5 -133t133 72v294h-166v189h357v-574q-127 -172 -324 -172q-101 0 -177.5 51.5t-124 146t-71.5 222.5 t-24 287z" />
<glyph unicode="H" horiz-adv-x="948" d="M117 0v1366h213v-569h288v569h216v-1366h-216v608h-288v-608h-213z" />
<glyph unicode="I" horiz-adv-x="446" d="M117 0v1366h213v-1366h-213z" />
<glyph unicode="J" horiz-adv-x="690" d="M14 57l66 174q54 -65 133 -65q149 0 149 164v1036h213v-1047q0 -174 -90 -259t-249 -85q-130 0 -222 82z" />
<glyph unicode="K" horiz-adv-x="917" d="M117 0v1366h213v-666l313 666h236l-338 -645l364 -721h-243l-244 551l-88 -174v-377h-213z" />
<glyph unicode="L" horiz-adv-x="718" d="M117 0v1366h213v-1178h346v-188h-559z" />
<glyph unicode="M" horiz-adv-x="1210" d="M117 0v1366h276l213 -846l217 846h273v-1366h-211v952l-242 -952h-76l-237 952v-952h-213z" />
<glyph unicode="N" horiz-adv-x="948" d="M117 0v1366h213l288 -850v850h216v-1366h-203l-301 893v-893h-213z" />
<glyph unicode="O" horiz-adv-x="940" d="M74 682q0 153 22.5 278t68.5 223t123.5 152t180.5 54q83 0 150 -36t112.5 -99t76 -152.5t44.5 -194t14 -225.5q0 -153 -22.5 -278.5t-69 -223t-124.5 -151.5t-181 -54t-180.5 54t-123.5 151.5t-68.5 223t-22.5 278.5zM293 682q0 -233 42 -374.5t134 -141.5q48 0 83.5 40 t55.5 112t29.5 162t9.5 202q0 516 -178 516q-48 0 -82.5 -39t-54.5 -111t-29.5 -162.5t-9.5 -203.5z" />
<glyph unicode="P" horiz-adv-x="856" d="M117 0v1366h329q120 0 203.5 -59.5t120.5 -152.5t37 -210t-37 -210t-120.5 -152.5t-203.5 -59.5h-116v-522h-213zM330 711h96q78 0 120 63.5t42 169.5q0 107 -42 170.5t-120 63.5h-96v-467z" />
<glyph unicode="Q" horiz-adv-x="940" d="M74 682q0 153 22.5 278t68.5 223t123.5 152t180.5 54q83 0 150 -36t112.5 -99t76 -152.5t44.5 -194t14 -225.5q0 -420 -155 -598l37 -96l-152 -60l-25 64q-53 -17 -102 -17q-103 0 -180.5 54t-123.5 151.5t-68.5 223t-22.5 278.5zM293 682q0 -233 42 -374.5t134 -141.5 q18 0 33 6l-103 268l152 60l63 -164q33 132 33 346q0 516 -178 516q-48 0 -82.5 -39t-54.5 -111t-29.5 -162.5t-9.5 -203.5z" />
<glyph unicode="R" horiz-adv-x="897" d="M117 0v1366h340q154 0 252 -115t98 -301q0 -84 -16.5 -152t-45 -112t-58 -71t-62.5 -42l194 -573h-229l-162 522h-98v-522h-213zM330 711h96q78 0 120 63.5t42 169.5q0 107 -42 170.5t-120 63.5h-96v-467z" />
<glyph unicode="S" horiz-adv-x="774" d="M33 106l96 168q39 -51 98 -79.5t119 -28.5q67 0 110.5 49.5t43.5 126.5q0 44 -13 80.5t-44.5 72t-54 55t-71.5 58.5q-39 31 -60 48.5t-55 50t-53 62t-40 69.5t-30 87t-9 101q0 155 96.5 259t255.5 104q166 0 274 -105l-86 -164q-75 78 -182 78q-61 0 -101 -45t-40 -117 q0 -30 10 -58t23 -49t39.5 -47.5t45 -42t54.5 -44.5q47 -37 74.5 -61.5t67 -68t61.5 -84.5t38.5 -100.5t16.5 -126.5q0 -166 -99 -272.5t-260 -106.5q-203 0 -325 131z" />
<glyph unicode="T" horiz-adv-x="708" d="M37 1178v188h635v-188h-211v-1178h-213v1178h-211z" />
<glyph unicode="U" horiz-adv-x="950" d="M117 377v989h213v-999q0 -203 145 -203q146 0 146 203v999h213v-989q0 -102 -28.5 -181t-79 -126t-114 -71t-137.5 -24t-137.5 24t-113.5 71t-78.5 126t-28.5 181z" />
<glyph unicode="V" horiz-adv-x="815" d="M6 1366h219l183 -1090l182 1090h219l-279 -1366h-245z" />
<glyph unicode="W" horiz-adv-x="1202" d="M29 1366h219l127 -989l139 989h174l141 -989l125 989h220l-228 -1366h-219l-127 954l-125 -954h-219z" />
<glyph unicode="X" horiz-adv-x="835" d="M2 0l293 696l-277 670h236l164 -481l164 481h237l-278 -670l295 -696h-238l-180 504l-180 -504h-236z" />
<glyph unicode="Y" horiz-adv-x="829" d="M-6 1366h229l193 -584l194 584h226l-314 -795v-571h-213v571z" />
<glyph unicode="Z" horiz-adv-x="737" d="M63 0v182l359 996h-359v188h599v-174l-365 -1004h379v-188h-613z" />
<glyph unicode="[" horiz-adv-x="399" d="M72 -389v1778h290v-136h-147v-1507h147v-135h-290z" />
<glyph unicode="\" horiz-adv-x="442" d="M2 1407h139l301 -1448h-139z" />
<glyph unicode="]" horiz-adv-x="399" d="M35 -254h147v1507h-147v136h293v-1778h-293v135z" />
<glyph unicode="^" horiz-adv-x="684" d="M39 682l231 684h144l231 -684h-143l-160 526l-160 -526h-143z" />
<glyph unicode="_" horiz-adv-x="571" d="M-6 -82h584v-135h-584v135z" />
<glyph unicode="`" horiz-adv-x="335" d="M0 1434h174l162 -295h-125z" />
<glyph unicode="a" horiz-adv-x="815" d="M57 305q0 148 72 236t190 88q56 0 113 -29t88 -82v137q0 195 -151 195q-105 0 -199 -100l-74 135q60 66 144.5 97.5t165.5 31.5q149 0 228 -79t79 -239v-696h-193v92q-32 -56 -88.5 -86.5t-112.5 -30.5q-118 0 -190 90t-72 240zM250 301q0 -83 34.5 -137.5t98.5 -54.5 q41 0 78 31.5t59 84.5v150q-22 53 -59 86t-78 33q-65 0 -99 -54.5t-34 -138.5z" />
<glyph unicode="b" horiz-adv-x="831" d="M102 0v1366h193v-506q29 76 81.5 115t108.5 39q138 0 210.5 -141.5t72.5 -378.5q0 -240 -72 -379.5t-211 -139.5q-54 0 -106.5 40.5t-83.5 111.5v-127h-193zM295 285q18 -59 54.5 -99.5t76.5 -40.5q143 0 143 349q0 350 -143 350q-40 0 -76.5 -41.5t-54.5 -100.5v-417z " />
<glyph unicode="c" horiz-adv-x="681" d="M63 496q0 229 95.5 373.5t261.5 144.5q140 0 223 -90l-68 -148q-59 68 -124 68q-63 0 -106.5 -49.5t-63 -126t-19.5 -172.5t19.5 -173t63 -127.5t106.5 -50.5q65 0 124 68l68 -147q-78 -91 -223 -91q-166 0 -261.5 146t-95.5 375z" />
<glyph unicode="d" horiz-adv-x="831" d="M63 494q0 237 72.5 378.5t210.5 141.5q56 0 109 -39.5t82 -114.5v506h192v-1366h-192v127q-31 -71 -84 -111.5t-107 -40.5q-139 0 -211 139.5t-72 379.5zM262 494q0 -349 144 -349q40 0 78 41.5t53 98.5v420q-15 57 -53 98t-78 41q-144 0 -144 -350z" />
<glyph unicode="e" horiz-adv-x="800" d="M63 496q0 147 37 262t117.5 185.5t194.5 70.5q87 0 152 -39.5t104 -110.5t58 -162t19 -202v-68h-493q2 -136 53.5 -217.5t149.5 -81.5q43 0 86 28t77 79l101 -105q-55 -76 -128.5 -118t-154.5 -42q-180 0 -276.5 143.5t-96.5 377.5zM252 569h305q0 54 -6.5 100.5 t-22.5 90.5t-47 70t-75 26t-75.5 -27.5t-48 -72.5t-23.5 -91t-7 -96z" />
<glyph unicode="f" horiz-adv-x="489" d="M39 821v168h94v129q0 126 60.5 197t162.5 71q70 0 125 -24l-35 -156q-19 8 -40 8q-37 0 -58.5 -25.5t-21.5 -70.5v-129h129v-168h-129v-821h-193v821h-94z" />
<glyph unicode="g" horiz-adv-x="831" d="M63 506q0 236 72 372t211 136q56 0 109 -39.5t82 -114.5v129h192v-971q0 -95 -18.5 -168.5t-50 -120t-76.5 -76.5t-94 -42t-107 -12q-180 0 -287 104l70 160q87 -94 199 -94q80 0 126 55.5t46 169.5v162q-31 -73 -84 -114.5t-107 -41.5q-140 0 -211.5 133.5t-71.5 372.5z M262 506q0 -336 144 -336q40 0 78 41t53 98v396q-15 57 -53 98t-78 41q-144 0 -144 -338z" />
<glyph unicode="h" d="M102 0v1366h193v-510q32 64 97 111t130 47q104 0 151.5 -54.5t47.5 -164.5v-795h-193v731q0 113 -84 113q-46 0 -86.5 -42.5t-62.5 -101.5v-700h-193z" />
<glyph unicode="i" horiz-adv-x="397" d="M76 1274q0 51 36.5 87t86.5 36q51 0 87 -36t36 -87t-36 -86t-87 -35q-50 0 -86.5 35.5t-36.5 85.5zM102 0v989h193v-989h-193z" />
<glyph unicode="j" horiz-adv-x="397" d="M-20 -387l26 166q12 -4 29 -4q67 0 67 92v1122h193v-1124q0 -266 -225 -266q-49 0 -90 14zM76 1274q0 51 36.5 87t86.5 36q51 0 87 -36t36 -87t-36 -86t-87 -35q-50 0 -86.5 35.5t-36.5 85.5z" />
<glyph unicode="k" horiz-adv-x="788" d="M102 0v1366h193v-872l260 495h209l-242 -440l246 -549h-209l-164 418l-100 -178v-240h-193z" />
<glyph unicode="l" horiz-adv-x="397" d="M102 0v1366h193v-1366h-193z" />
<glyph unicode="m" horiz-adv-x="1249" d="M102 0v989h193v-133q29 62 94.5 110t132.5 48q80 0 132 -42.5t61 -123.5q30 67 96.5 116.5t136.5 49.5q199 0 199 -221v-793h-193v729q0 115 -84 115q-47 0 -87.5 -43t-61.5 -101v-700h-193v729q0 115 -84 115q-47 0 -87.5 -43t-61.5 -101v-700h-193z" />
<glyph unicode="n" d="M102 0v989h193v-133q32 64 97 111t130 47q199 0 199 -221v-793h-193v729q0 115 -84 115q-46 0 -86.5 -42.5t-62.5 -101.5v-700h-193z" />
<glyph unicode="o" d="M63 496q0 105 20.5 196t61.5 164.5t109.5 115.5t157.5 42q72 0 130.5 -28t98 -76t66.5 -114.5t39 -141t12 -158.5t-12 -159t-39 -142t-66.5 -115.5t-98 -76.5t-130.5 -28q-89 0 -157.5 42.5t-109.5 116.5t-61.5 165.5t-20.5 196.5zM264 496q0 -351 148 -351 q147 0 147 351q0 348 -147 348q-148 0 -148 -348z" />
<glyph unicode="p" horiz-adv-x="831" d="M102 -377v1366h193v-127q31 71 83.5 111.5t106.5 40.5q139 0 211 -139t72 -379q0 -238 -72.5 -379.5t-210.5 -141.5q-56 0 -108.5 39t-81.5 115v-506h-193zM295 285q18 -58 54.5 -99t76.5 -41q143 0 143 351q0 348 -143 348q-40 0 -76.5 -39.5t-54.5 -97.5v-422z" />
<glyph unicode="q" horiz-adv-x="831" d="M63 496q0 240 72 379t211 139q54 0 107 -40.5t84 -111.5v127h192v-1366h-192v506q-29 -75 -82 -114.5t-109 -39.5q-138 0 -210.5 141.5t-72.5 379.5zM262 496q0 -351 144 -351q40 0 78 41.5t53 98.5v422q-15 58 -52.5 97.5t-78.5 39.5q-144 0 -144 -348z" />
<glyph unicode="r" horiz-adv-x="548" d="M102 0v989h193v-145q33 74 94.5 121t130.5 47v-193q-21 6 -41 6q-54 0 -103.5 -40.5t-80.5 -102.5v-682h-193z" />
<glyph unicode="s" horiz-adv-x="675" d="M33 102l84 134q89 -107 198 -107q58 0 96 33.5t38 89.5q0 29 -10.5 52.5t-36 45t-45 34.5t-58.5 36q-33 20 -47 28.5t-44.5 30t-45.5 37t-37 42t-32.5 52.5t-18.5 62t-8 76q0 114 79 190t213 76q158 0 267 -115l-82 -129q-30 40 -78.5 65t-102.5 25q-52 0 -84 -30.5 t-32 -75.5q0 -49 35.5 -82.5t107.5 -75.5q37 -21 57.5 -34t53.5 -37t52.5 -48t39.5 -56.5t29.5 -73.5t9.5 -89q0 -125 -85 -204t-214 -79q-199 0 -299 127z" />
<glyph unicode="t" horiz-adv-x="505" d="M37 821v168h96v271h193v-271h129v-168h-129v-575q0 -53 13 -77t44 -24q37 0 61 31l45 -147q-54 -54 -151 -54q-108 0 -156.5 57.5t-48.5 178.5v610h-96z" />
<glyph unicode="u" d="M102 195v794h193v-731q0 -113 84 -113q47 0 87 40.5t62 99.5v704h193v-989h-193v129q-32 -65 -95 -109.5t-132 -44.5q-104 0 -151.5 55t-47.5 165z" />
<glyph unicode="v" horiz-adv-x="731" d="M10 989h205l150 -749l153 749h203l-252 -989h-209z" />
<glyph unicode="w" horiz-adv-x="1185" d="M18 989h199l135 -725l142 725h188l149 -725l138 725h200l-223 -989h-201l-151 727l-154 -727h-200z" />
<glyph unicode="x" horiz-adv-x="720" d="M14 0l228 500l-217 489h204l131 -344l132 344h202l-215 -489l228 -500h-207l-140 354l-141 -354h-205z" />
<glyph unicode="y" horiz-adv-x="731" d="M10 989h205l150 -745l153 745h203l-303 -1182q-33 -119 -88.5 -163.5t-153.5 -44.5q-65 0 -100 14l28 168q21 -12 48 -12q34 0 53 18t31 61l32 125z" />
<glyph unicode="z" horiz-adv-x="657" d="M61 0v147l299 674h-299v168h527v-141l-299 -680h307v-168h-535z" />
<glyph unicode="{" horiz-adv-x="434" d="M10 440v119q52 0 79.5 39.5t27.5 99.5v459q0 100 67 166t156 66h59v-136h-59q-33 0 -56.5 -27t-23.5 -69v-475q0 -143 -92 -182q92 -39 92 -183v-477q0 -41 23.5 -68.5t56.5 -27.5h59v-133h-59q-90 0 -156.5 64.5t-66.5 164.5v461q0 60 -27.5 99.5t-79.5 39.5z" />
<glyph unicode="|" horiz-adv-x="366" d="M117 -41v1448h133v-1448h-133z" />
<glyph unicode="}" horiz-adv-x="434" d="M35 -256h59q33 0 56.5 27.5t23.5 68.5v477q0 144 92 183q-92 39 -92 182v475q0 42 -23.5 69t-56.5 27h-59v136h59q89 0 156 -66t67 -166v-459q0 -60 27.5 -99.5t79.5 -39.5v-119q-52 0 -79.5 -39.5t-27.5 -99.5v-461q0 -100 -66.5 -164.5t-156.5 -64.5h-59v133z" />
<glyph unicode="~" horiz-adv-x="833" d="M55 870q3 51 6 91.5t10.5 94t18.5 94t29 82.5t41.5 69.5t57.5 45t75 17.5q23 0 42.5 -5t35 -18.5t27 -24.5t22 -34t16.5 -36t14 -43t11 -40.5t10 -42.5q7 -34 12.5 -53.5t13.5 -41.5t19 -32t25 -10q47 0 65.5 79.5t34.5 303.5l137 -12q-3 -52 -6 -91.5t-10.5 -94 t-18 -94.5t-28.5 -83t-41 -70.5t-57 -45t-76 -17.5q-35 0 -63.5 16t-45 36.5t-31 58.5t-21 63t-15.5 68q-7 34 -12.5 53.5t-14 41.5t-19.5 32t-26 10q-47 0 -65.5 -79.5t-34.5 -301.5z" />
<glyph unicode="&#xa1;" horiz-adv-x="489" d="M113 879q0 54 39.5 92.5t93.5 38.5t93.5 -38.5t39.5 -92.5t-39.5 -92.5t-93.5 -38.5t-93.5 38.5t-39.5 92.5zM127 -377l37 961h164l37 -961h-238z" />
<glyph unicode="&#xa2;" horiz-adv-x="681" d="M63 496q0 135 34 243.5t101.5 179.5t159.5 89v149h146v-153q86 -20 139 -80l-68 -148q-39 45 -71 58v-678q33 13 71 57l68 -147q-52 -61 -139 -82v-189h-146v187q-138 27 -216.5 168t-78.5 346zM262 496q0 -105 24 -190t72 -126v629q-48 -41 -72 -124.5t-24 -188.5z" />
<glyph unicode="&#xa3;" horiz-adv-x="829" d="M61 561v129h113q-38 75 -58 142.5t-20 154.5q0 166 105 282.5t254 116.5q121 0 205 -65.5t108 -187.5l-170 -74q-19 74 -49 112.5t-84 38.5q-66 0 -102.5 -59t-36.5 -168q0 -54 10 -102.5t21 -77t32 -72.5l19 -41h151v-129h-113q7 -44 7 -80q0 -83 -34 -156.5t-89 -119.5 q37 18 76 18q22 0 41.5 -4.5t31 -9t35.5 -16.5q60 -27 92 -27q42 0 78.5 18.5t56.5 46.5l64 -168q-27 -36 -89 -62t-128 -26q-35 0 -67 8t-48.5 16.5t-42.5 23.5q-32 20 -53 28t-51 8q-73 0 -168 -73l-68 149q77 51 123.5 131.5t46.5 163.5q0 61 -24 131h-175z" />
<glyph unicode="&#xa4;" horiz-adv-x="858" d="M0 238l143 143q-61 125 -61 301q0 179 63 305l-145 143l117 117l135 -137q71 53 178 53q102 0 178 -51l135 135l117 -117l-145 -145q61 -119 61 -303q0 -177 -61 -305l145 -146l-117 -116l-135 135q-76 -51 -178 -51q-105 0 -182 55l-131 -133zM268 682q0 -86 15 -153 t52.5 -112.5t94.5 -45.5t94.5 45.5t52.5 112.5t15 153q0 133 -39.5 221t-122.5 88t-122.5 -88t-39.5 -221z" />
<glyph unicode="&#xa5;" horiz-adv-x="829" d="M-6 1366h229l193 -584l194 584h226l-265 -668h207v-127h-256v-198h256v-127h-256v-246h-213v246h-262v127h262v198h-262v127h211z" />
<glyph unicode="&#xa6;" horiz-adv-x="366" d="M117 -41v647h133v-647h-133zM117 760v647h133v-647h-133z" />
<glyph unicode="&#xa7;" horiz-adv-x="677" d="M33 -39l84 129q31 -41 85 -75.5t113 -34.5q61 0 97.5 39t36.5 94q0 27 -10 51t-21 39.5t-37.5 36.5t-40.5 30t-49 31q-42 25 -65 40t-58.5 45.5t-54 59.5t-33 73.5t-14.5 96.5q0 80 44.5 144.5t122.5 87.5q-91 62 -129 130.5t-38 151.5q0 113 79.5 184.5t196.5 71.5 q98 0 163 -29t118 -87l-82 -117q-45 51 -87.5 72.5t-93.5 21.5q-52 0 -83 -32.5t-31 -84.5q0 -24 9.5 -46.5t20 -37t36.5 -34.5t40 -29t49 -31q37 -23 55 -35t51 -37t50 -46.5t37 -53t28.5 -69t8.5 -80.5q0 -74 -37 -140t-109 -104q76 -57 111 -121.5t35 -148.5 q0 -119 -85 -201t-214 -82q-190 0 -299 127zM236 647q0 -58 30.5 -105t102.5 -93q92 49 92 141q0 118 -105 192q-65 -14 -92.5 -51.5t-27.5 -83.5z" />
<glyph unicode="&#xa8;" horiz-adv-x="630" d="M47 1272q0 45 33 77.5t78 32.5q46 0 78 -32t32 -78q0 -44 -32 -76.5t-78 -32.5q-44 0 -77.5 32.5t-33.5 76.5zM362 1272q0 46 32 78t77 32q46 0 79.5 -32.5t33.5 -77.5q0 -44 -33.5 -76.5t-79.5 -32.5q-44 0 -76.5 32.5t-32.5 76.5z" />
<glyph unicode="&#xa9;" horiz-adv-x="1593" d="M90 682q0 191 95 354t258 258t354 95q143 0 274 -56t225.5 -151t150.5 -226t56 -274t-56 -274t-150.5 -226t-225.5 -151t-274 -56q-191 0 -354 95t-258 258t-95 354zM158 682q0 -129 51 -247t137 -204t204 -137t247 -51t247 51t204 137t137 204t51 247t-51 247t-137 204 t-204 137t-247 51t-247 -51t-204 -137t-137 -204t-51 -247zM377 682q0 188 123.5 312t304.5 124q183 0 299 -135l-55 -55q-40 54 -106 86.5t-138 32.5q-142 0 -244 -102.5t-102 -262.5q0 -154 102.5 -258.5t243.5 -104.5q73 0 138.5 32.5t105.5 86.5l57 -53 q-118 -137 -301 -137q-179 0 -303.5 125t-124.5 309z" />
<glyph unicode="&#xaa;" horiz-adv-x="598" d="M45 862q0 98 51.5 154.5t130.5 56.5q97 0 144 -76v93q0 124 -107 124q-72 0 -137 -73l-55 96q43 45 103.5 67.5t117.5 22.5q221 0 221 -231v-428h-143v65q-49 -82 -144 -82q-79 0 -130.5 57t-51.5 154zM188 866q0 -53 23 -85.5t65 -32.5q68 0 95 67v103q-27 69 -95 69 q-41 0 -64.5 -34t-23.5 -87z" />
<glyph unicode="&#xab;" horiz-adv-x="735" d="M61 498l185 362h153l-184 -362l184 -369h-153zM336 498l184 362h154l-185 -362l185 -369h-154z" />
<glyph unicode="&#xac;" horiz-adv-x="780" d="M59 817v127h662v-520h-133v393h-529z" />
<glyph unicode="&#xad;" horiz-adv-x="487" d="M61 412v166h365v-166h-365z" />
<glyph unicode="&#xae;" horiz-adv-x="1011" d="M72 952q0 181 127 307.5t307 126.5q119 0 219 -57.5t157.5 -157.5t57.5 -219q0 -180 -126.5 -307t-307.5 -127q-180 0 -307 127t-127 307zM133 952q0 -154 109 -263t264 -109t264 109t109 263q0 156 -108.5 264.5t-264.5 108.5t-264.5 -108.5t-108.5 -264.5zM340 702v498 h203q65 0 112 -42t47 -109q0 -72 -46 -110t-81 -38l134 -199h-84l-129 197h-88v-197h-68zM408 961h135q34 0 62 25.5t28 62.5q0 39 -28 65.5t-62 26.5h-135v-180z" />
<glyph unicode="&#xaf;" horiz-adv-x="520" d="M41 1163v117h438v-117h-438z" />
<glyph unicode="&#xb0;" horiz-adv-x="610" d="M45 1126q0 107 75.5 183.5t182.5 76.5t183.5 -76.5t76.5 -183.5t-76.5 -182.5t-183.5 -75.5t-182.5 75.5t-75.5 182.5zM160 1126q0 -60 41.5 -101.5t101.5 -41.5t104 41.5t44 101.5t-44 103t-104 43t-101.5 -43t-41.5 -103z" />
<glyph unicode="&#xb1;" horiz-adv-x="780" d="M59 70v127h662v-127h-662zM59 627v127h263v293h137v-293h262v-127h-262v-305h-137v305h-263z" />
<glyph unicode="&#xb2;" horiz-adv-x="575" d="M41 1559q89 135 246 135q110 0 176.5 -61t66.5 -167q0 -86 -57.5 -180.5t-226.5 -302.5h289v-121h-476v111q210 247 267 332t57 157q0 49 -29 80t-75 31q-43 0 -81.5 -26.5t-64.5 -73.5z" />
<glyph unicode="&#xb3;" horiz-adv-x="575" d="M35 981l98 88q56 -100 146 -100q56 0 83 34t27 93q0 67 -35 97t-84 30q-45 0 -57 -2v120q10 -2 51 -2q54 0 84.5 29t30.5 86q0 119 -103 119q-86 0 -139 -92l-94 82q40 63 103.5 97t138.5 34q109 0 174 -56t65 -165q0 -66 -39.5 -120.5t-97.5 -66.5q62 -11 106 -67 t44 -132q0 -108 -68 -173.5t-184 -65.5q-84 0 -149.5 36.5t-100.5 96.5z" />
<glyph unicode="&#xb4;" horiz-adv-x="335" d="M0 1139l162 295h174l-211 -295h-125z" />
<glyph unicode="&#xb5;" horiz-adv-x="845" d="M102 -377v1366h193v-731q0 -56 23 -85.5t65 -29.5q47 0 84.5 40.5t60.5 101.5v704h193v-753q0 -46 12.5 -68.5t44.5 -22.5q4 0 29 5l14 -162q-39 -13 -90 -13q-90 0 -137 42.5t-59 132.5q-24 -78 -68 -126.5t-96 -48.5q-50 0 -76 33v-385h-193z" />
<glyph unicode="&#xb6;" horiz-adv-x="919" d="M55 1014q0 146 103.5 249t249.5 103h385v-1571h-107v1467h-174v-1467h-104v867q-146 0 -249.5 103t-103.5 249z" />
<glyph unicode="&#xb7;" horiz-adv-x="489" d="M113 502q0 53 38.5 92t92.5 39q55 0 94 -39t39 -92q0 -54 -39 -93.5t-94 -39.5q-54 0 -92.5 39.5t-38.5 93.5z" />
<glyph unicode="&#xb8;" horiz-adv-x="358" d="M0 -332l41 84q64 -55 123 -55q38 0 64 22.5t26 59.5q0 25 -14.5 41t-38.5 16q-33 0 -56 -26l-75 43l63 170h105l-54 -134q27 21 60 21q48 0 81 -37.5t33 -95.5q0 -77 -53.5 -124.5t-136.5 -47.5q-94 0 -168 63z" />
<glyph unicode="&#xb9;" horiz-adv-x="475" d="M23 1454l225 227h129v-819h-150v627l-118 -123z" />
<glyph unicode="&#xba;" horiz-adv-x="614" d="M55 989q0 143 65.5 240.5t186.5 97.5q122 0 187 -97.5t65 -240.5t-65 -240.5t-187 -97.5q-121 0 -186.5 97.5t-65.5 240.5zM203 989q0 -221 104 -221q103 0 103 221q0 219 -103 219q-104 0 -104 -219z" />
<glyph unicode="&#xbb;" horiz-adv-x="735" d="M61 129l185 369l-185 362h154l184 -362l-184 -369h-154zM336 129l184 369l-184 362h153l185 -362l-185 -369h-153z" />
<glyph unicode="&#xbc;" horiz-adv-x="1247" d="M23 1139l225 227h129v-819h-150v627l-118 -123zM272 0l566 1366h96l-567 -1366h-95zM702 195v118l265 506h180v-506h72v-118h-72v-195h-148v195h-297zM829 313h170v340z" />
<glyph unicode="&#xbd;" horiz-adv-x="1306" d="M23 1139l225 227h129v-819h-150v627l-118 -123zM272 0l566 1366h96l-567 -1366h-95zM772 696q89 135 246 135q110 0 177 -60.5t67 -166.5q0 -85 -57.5 -179.5t-227.5 -303.5h289v-121h-475v111q209 246 266 331.5t57 157.5q0 49 -29 80t-75 31q-43 0 -81.5 -27t-64.5 -74 z" />
<glyph unicode="&#xbe;" horiz-adv-x="1347" d="M35 666l98 88q56 -101 146 -101q56 0 83 34t27 93q0 67 -35 97t-84 30q-45 0 -57 -2v121q10 -2 51 -2q54 0 84.5 29t30.5 86q0 118 -103 118q-86 0 -139 -92l-94 82q40 63 103.5 97t138.5 34q109 0 174 -56t65 -165q0 -66 -39.5 -120t-97.5 -66q62 -11 106 -67t44 -132 q0 -108 -68 -174t-184 -66q-84 0 -149 37t-101 97zM373 0l565 1366h96l-567 -1366h-94zM803 195v118l264 506h180v-506h72v-118h-72v-195h-147v195h-297zM930 313h170v340z" />
<glyph unicode="&#xbf;" horiz-adv-x="573" d="M39 -111q0 63 21 123t43 94t63 89q37 49 54.5 75.5t33.5 69.5t16 86q0 57 -34 100l161 66q54 -69 54 -176q0 -43 -8.5 -80.5t-26.5 -72t-32 -56t-40 -55.5q-31 -41 -47 -66.5t-31.5 -68.5t-15.5 -87q0 -57 36 -102t93 -45q70 0 123 65l90 -135q-105 -114 -260 -114 q-131 0 -212 82.5t-81 207.5zM190 879q0 54 39 92.5t93 38.5t93.5 -38.5t39.5 -92.5t-39.5 -92.5t-93.5 -38.5t-93 38.5t-39 92.5z" />
<glyph unicode="&#xc0;" horiz-adv-x="815" d="M6 0l279 1366h245l279 -1366h-209l-47 279h-291l-47 -279h-209zM137 1776h174l162 -295h-125zM287 467h241l-120 696z" />
<glyph unicode="&#xc1;" horiz-adv-x="815" d="M6 0l279 1366h245l279 -1366h-209l-47 279h-291l-47 -279h-209zM287 467h241l-120 696zM342 1481l162 295h174l-211 -295h-125z" />
<glyph unicode="&#xc2;" horiz-adv-x="815" d="M6 0l279 1366h245l279 -1366h-209l-47 279h-291l-47 -279h-209zM188 1481l131 295h179l135 -295h-109l-116 200l-109 -200h-111zM287 467h241l-120 696z" />
<glyph unicode="&#xc3;" horiz-adv-x="815" d="M6 0l279 1366h245l279 -1366h-209l-47 279h-291l-47 -279h-209zM160 1489q0 122 42.5 198t121.5 76q23 0 42 -8.5t34 -27t23 -32t21 -38.5q16 -32 29 -48t29 -16q23 0 38 39.5t15 118.5h102q0 -123 -41.5 -198.5t-121.5 -75.5q-22 0 -40.5 8.5t-34 27.5t-24 32t-22.5 38 q-12 23 -18 33.5t-16.5 20.5t-21.5 10q-24 0 -39.5 -39.5t-15.5 -118.5h-102zM287 467h241l-120 696z" />
<glyph unicode="&#xc4;" horiz-adv-x="815" d="M6 0l279 1366h245l279 -1366h-209l-47 279h-291l-47 -279h-209zM139 1614q0 45 33 77.5t78 32.5q46 0 78 -32t32 -78q0 -44 -32 -76.5t-78 -32.5q-44 0 -77.5 32.5t-33.5 76.5zM287 467h241l-120 696zM455 1614q0 46 32 78t76 32q46 0 79.5 -32.5t33.5 -77.5 q0 -44 -33.5 -76.5t-79.5 -32.5q-44 0 -76 32.5t-32 76.5z" />
<glyph unicode="&#xc5;" horiz-adv-x="815" d="M6 0l279 1366h245l279 -1366h-209l-47 279h-291l-47 -279h-209zM231 1626q0 72 52.5 124t124.5 52q73 0 124.5 -52t51.5 -124q0 -74 -51.5 -126t-124.5 -52q-72 0 -124.5 52.5t-52.5 125.5zM287 467h241l-120 696zM322 1626q0 -37 25.5 -62.5t60.5 -25.5q37 0 62.5 25.5 t25.5 62.5q0 35 -25.5 60.5t-62.5 25.5q-35 0 -60.5 -25.5t-25.5 -60.5z" />
<glyph unicode="&#xc6;" horiz-adv-x="1196" d="M18 0l453 1366h651v-188h-344v-387h330v-189h-330v-414h344v-188h-559v279h-254l-84 -279h-207zM360 467h203v696z" />
<glyph unicode="&#xc7;" horiz-adv-x="843" d="M74 682q0 123 14 228.5t45 194.5t77 151.5t112 97.5t149 35q58 0 106 -18t80 -45.5t58.5 -69.5t42 -79t30.5 -85l-172 -64q-26 87 -57.5 128.5t-87.5 41.5q-178 0 -178 -516t178 -516q63 0 96.5 53.5t50.5 149.5l175 -64q-74 -301 -281 -328l-35 -88q27 21 60 21 q48 0 81 -37.5t33 -95.5q0 -77 -53.5 -124.5t-136.5 -47.5q-94 0 -168 63l41 84q64 -55 123 -55q38 0 64 22.5t26 59.5q0 25 -14.5 41t-38.5 16q-33 0 -56 -26l-76 43l48 129q-86 15 -151.5 74t-105.5 153t-59.5 212.5t-19.5 260.5z" />
<glyph unicode="&#xc8;" horiz-adv-x="751" d="M117 0v1366h559v-188h-346v-387h332v-189h-332v-414h346v-188h-559zM133 1776h174l162 -295h-125z" />
<glyph unicode="&#xc9;" horiz-adv-x="751" d="M117 0v1366h559v-188h-346v-387h332v-189h-332v-414h346v-188h-559zM338 1481l162 295h174l-211 -295h-125z" />
<glyph unicode="&#xca;" horiz-adv-x="751" d="M117 0v1366h559v-188h-346v-387h332v-189h-332v-414h346v-188h-559zM184 1481l131 295h179l135 -295h-109l-117 200l-108 -200h-111z" />
<glyph unicode="&#xcb;" horiz-adv-x="751" d="M117 0v1366h559v-188h-346v-387h332v-189h-332v-414h346v-188h-559zM135 1614q0 45 33 77.5t78 32.5q46 0 78 -32t32 -78q0 -44 -32 -76.5t-78 -32.5q-44 0 -77.5 32.5t-33.5 76.5zM451 1614q0 46 32 78t76 32q46 0 79.5 -32.5t33.5 -77.5q0 -44 -33.5 -76.5t-79.5 -32.5 q-44 0 -76 32.5t-32 76.5z" />
<glyph unicode="&#xcc;" horiz-adv-x="446" d="M-47 1776h174l162 -295h-125zM117 0v1366h213v-1366h-213z" />
<glyph unicode="&#xcd;" horiz-adv-x="446" d="M117 0v1366h213v-1366h-213zM158 1481l161 295h175l-211 -295h-125z" />
<glyph unicode="&#xce;" horiz-adv-x="446" d="M4 1481l131 295h178l136 -295h-109l-117 200l-108 -200h-111zM117 0v1366h213v-1366h-213z" />
<glyph unicode="&#xcf;" horiz-adv-x="446" d="M-45 1614q0 45 33 77.5t78 32.5q46 0 78 -32t32 -78q0 -44 -32 -76.5t-78 -32.5q-44 0 -77.5 32.5t-33.5 76.5zM117 0v1366h213v-1366h-213zM270 1614q0 46 32 78t77 32q46 0 79.5 -32.5t33.5 -77.5q0 -44 -33.5 -76.5t-79.5 -32.5q-44 0 -76.5 32.5t-32.5 76.5z" />
<glyph unicode="&#xd0;" horiz-adv-x="974" d="M37 596v156h123v614h305q113 0 198 -51.5t136.5 -144.5t76.5 -215.5t25 -272.5q0 -152 -25 -274t-76 -214.5t-135.5 -143t-197.5 -50.5h-307v596h-123zM373 188h92q74 0 123.5 61t71.5 169.5t22 263.5q0 238 -53.5 367t-163.5 129h-92v-426h151v-156h-151v-408z" />
<glyph unicode="&#xd1;" horiz-adv-x="948" d="M117 0v1366h213l288 -850v850h216v-1366h-203l-301 893v-893h-213zM227 1489q0 122 42.5 198t121.5 76q23 0 42.5 -8.5t34.5 -27t23.5 -32.5t20.5 -38q11 -22 18 -33.5t17.5 -21t21.5 -9.5q23 0 38.5 39.5t15.5 118.5h102q0 -123 -42 -198.5t-122 -75.5q-22 0 -40.5 8.5 t-34 27.5t-24 32t-22.5 38q-12 24 -17.5 33.5t-16 20t-21.5 10.5q-24 0 -39.5 -39.5t-15.5 -118.5h-103z" />
<glyph unicode="&#xd2;" horiz-adv-x="940" d="M74 682q0 153 22.5 278t68.5 223t123.5 152t180.5 54q83 0 150 -36t112.5 -99t76 -152.5t44.5 -194t14 -225.5q0 -153 -22.5 -278.5t-69 -223t-124.5 -151.5t-181 -54t-180.5 54t-123.5 151.5t-68.5 223t-22.5 278.5zM199 1776h174l162 -295h-125zM293 682 q0 -233 42 -374.5t134 -141.5q48 0 83.5 40t55.5 112t29.5 162t9.5 202q0 516 -178 516q-48 0 -82.5 -39t-54.5 -111t-29.5 -162.5t-9.5 -203.5z" />
<glyph unicode="&#xd3;" horiz-adv-x="940" d="M74 682q0 153 22.5 278t68.5 223t123.5 152t180.5 54q83 0 150 -36t112.5 -99t76 -152.5t44.5 -194t14 -225.5q0 -153 -22.5 -278.5t-69 -223t-124.5 -151.5t-181 -54t-180.5 54t-123.5 151.5t-68.5 223t-22.5 278.5zM293 682q0 -233 42 -374.5t134 -141.5q48 0 83.5 40 t55.5 112t29.5 162t9.5 202q0 516 -178 516q-48 0 -82.5 -39t-54.5 -111t-29.5 -162.5t-9.5 -203.5zM403 1481l162 295h174l-211 -295h-125z" />
<glyph unicode="&#xd4;" horiz-adv-x="940" d="M74 682q0 153 22.5 278t68.5 223t123.5 152t180.5 54q83 0 150 -36t112.5 -99t76 -152.5t44.5 -194t14 -225.5q0 -153 -22.5 -278.5t-69 -223t-124.5 -151.5t-181 -54t-180.5 54t-123.5 151.5t-68.5 223t-22.5 278.5zM250 1481l131 295h178l135 -295h-108l-117 200 l-109 -200h-110zM293 682q0 -233 42 -374.5t134 -141.5q48 0 83.5 40t55.5 112t29.5 162t9.5 202q0 516 -178 516q-48 0 -82.5 -39t-54.5 -111t-29.5 -162.5t-9.5 -203.5z" />
<glyph unicode="&#xd5;" horiz-adv-x="940" d="M74 682q0 153 22.5 278t68.5 223t123.5 152t180.5 54q83 0 150 -36t112.5 -99t76 -152.5t44.5 -194t14 -225.5q0 -153 -22.5 -278.5t-69 -223t-124.5 -151.5t-181 -54t-180.5 54t-123.5 151.5t-68.5 223t-22.5 278.5zM221 1489q0 122 42.5 198t121.5 76q23 0 42.5 -8.5 t34.5 -27t23.5 -32.5t20.5 -38q11 -22 18 -33.5t17.5 -21t21.5 -9.5q23 0 38 39.5t15 118.5h103q0 -123 -42 -198.5t-122 -75.5q-22 0 -40.5 8.5t-34 27.5t-24 32t-22.5 38q-12 24 -17.5 33.5t-16 20t-21.5 10.5q-24 0 -39.5 -39.5t-15.5 -118.5h-103zM293 682 q0 -233 42 -374.5t134 -141.5q48 0 83.5 40t55.5 112t29.5 162t9.5 202q0 516 -178 516q-48 0 -82.5 -39t-54.5 -111t-29.5 -162.5t-9.5 -203.5z" />
<glyph unicode="&#xd6;" horiz-adv-x="940" d="M74 682q0 153 22.5 278t68.5 223t123.5 152t180.5 54q83 0 150 -36t112.5 -99t76 -152.5t44.5 -194t14 -225.5q0 -153 -22.5 -278.5t-69 -223t-124.5 -151.5t-181 -54t-180.5 54t-123.5 151.5t-68.5 223t-22.5 278.5zM201 1614q0 45 32.5 77.5t77.5 32.5q46 0 78.5 -32 t32.5 -78q0 -44 -32.5 -76.5t-78.5 -32.5q-44 0 -77 32.5t-33 76.5zM293 682q0 -233 42 -374.5t134 -141.5q48 0 83.5 40t55.5 112t29.5 162t9.5 202q0 516 -178 516q-48 0 -82.5 -39t-54.5 -111t-29.5 -162.5t-9.5 -203.5zM516 1614q0 46 32 78t77 32q46 0 79 -32t33 -78 q0 -44 -33 -76.5t-79 -32.5q-44 0 -76.5 32.5t-32.5 76.5z" />
<glyph unicode="&#xd7;" horiz-adv-x="780" d="M88 473l213 211l-213 211l90 90l211 -211l213 211l90 -90l-213 -211l213 -211l-90 -90l-213 211l-211 -211z" />
<glyph unicode="&#xd8;" horiz-adv-x="940" d="M74 682q0 153 22.5 278t68.5 223t123.5 152t180.5 54q127 0 217 -84l29 61h131l-78 -172q98 -183 98 -512q0 -153 -22.5 -278.5t-69 -223t-124.5 -151.5t-181 -54q-130 0 -215 82l-27 -57h-131l76 168q-98 183 -98 514zM293 682q0 -121 12 -223l287 635q-46 104 -123 104 q-48 0 -82.5 -39t-54.5 -111t-29.5 -162.5t-9.5 -203.5zM348 268q47 -102 121 -102q48 0 83.5 40t55.5 112t29.5 162t9.5 202q0 108 -10 221z" />
<glyph unicode="&#xd9;" horiz-adv-x="950" d="M117 377v989h213v-999q0 -203 145 -203q146 0 146 203v999h213v-989q0 -102 -28.5 -181t-79 -126t-114 -71t-137.5 -24t-137.5 24t-113.5 71t-78.5 126t-28.5 181zM205 1776h174l162 -295h-125z" />
<glyph unicode="&#xda;" horiz-adv-x="950" d="M117 377v989h213v-999q0 -203 145 -203q146 0 146 203v999h213v-989q0 -102 -28.5 -181t-79 -126t-114 -71t-137.5 -24t-137.5 24t-113.5 71t-78.5 126t-28.5 181zM410 1481l161 295h174l-210 -295h-125z" />
<glyph unicode="&#xdb;" horiz-adv-x="950" d="M117 377v989h213v-999q0 -203 145 -203q146 0 146 203v999h213v-989q0 -102 -28.5 -181t-79 -126t-114 -71t-137.5 -24t-137.5 24t-113.5 71t-78.5 126t-28.5 181zM256 1481l131 295h178l135 -295h-108l-117 200l-108 -200h-111z" />
<glyph unicode="&#xdc;" horiz-adv-x="950" d="M117 377v989h213v-999q0 -203 145 -203q146 0 146 203v999h213v-989q0 -102 -28.5 -181t-79 -126t-114 -71t-137.5 -24t-137.5 24t-113.5 71t-78.5 126t-28.5 181zM207 1614q0 45 32.5 77.5t77.5 32.5q46 0 78.5 -32t32.5 -78q0 -44 -32.5 -76.5t-78.5 -32.5 q-44 0 -77 32.5t-33 76.5zM522 1614q0 46 32 78t77 32q46 0 79 -32t33 -78q0 -44 -33 -76.5t-79 -32.5q-44 0 -76.5 32.5t-32.5 76.5z" />
<glyph unicode="&#xdd;" horiz-adv-x="829" d="M-6 1366h229l193 -584l194 584h226l-314 -795v-571h-213v571zM350 1481l162 295h174l-211 -295h-125z" />
<glyph unicode="&#xde;" horiz-adv-x="856" d="M117 0v1366h213v-236h116q91 0 161.5 -34t113.5 -93.5t64.5 -134.5t21.5 -161t-21.5 -160t-64.5 -133t-113.5 -93t-161.5 -34h-116v-287h-213zM330 475h96q78 0 120 63.5t42 168.5q0 107 -42 171t-120 64h-96v-467z" />
<glyph unicode="&#xdf;" horiz-adv-x="1001" d="M119 0v1028q0 155 96 256.5t256 101.5q141 0 240.5 -80t99.5 -196q0 -44 -10 -81t-32.5 -68t-37.5 -47t-45 -44q-28 -26 -40 -39t-24 -35.5t-12 -45.5q0 -27 10 -49t33.5 -43t42 -33.5t54.5 -34.5q30 -18 45 -28t43 -31t43 -37t35.5 -43t31 -53.5t18 -62.5t7.5 -77 q0 -114 -83 -198.5t-208 -84.5q-93 0 -160 31.5t-123 95.5l74 136q82 -107 174 -107q51 0 87 34t36 89q0 30 -10 54.5t-35 48t-42 36.5t-56 39q-40 26 -59.5 40t-52.5 44t-49.5 57t-30 69.5t-13.5 90.5q0 36 8.5 66t27.5 57.5t32.5 42.5t39.5 41q30 30 44.5 46t29 45.5 t14.5 58.5q0 53 -41.5 90t-105.5 37q-72 0 -117 -47t-45 -142v-1028h-190z" />
<glyph unicode="&#xe0;" horiz-adv-x="815" d="M57 305q0 148 72 236t190 88q56 0 113 -29t88 -82v137q0 195 -151 195q-105 0 -199 -100l-74 135q60 66 144.5 97.5t165.5 31.5q149 0 228 -79t79 -239v-696h-193v92q-32 -56 -88.5 -86.5t-112.5 -30.5q-118 0 -190 90t-72 240zM150 1434h174l161 -295h-125zM250 301 q0 -83 34.5 -137.5t98.5 -54.5q41 0 78 31.5t59 84.5v150q-22 53 -59 86t-78 33q-65 0 -99 -54.5t-34 -138.5z" />
<glyph unicode="&#xe1;" horiz-adv-x="815" d="M57 305q0 148 72 236t190 88q56 0 113 -29t88 -82v137q0 195 -151 195q-105 0 -199 -100l-74 135q60 66 144.5 97.5t165.5 31.5q149 0 228 -79t79 -239v-696h-193v92q-32 -56 -88.5 -86.5t-112.5 -30.5q-118 0 -190 90t-72 240zM250 301q0 -83 34.5 -137.5t98.5 -54.5 q41 0 78 31.5t59 84.5v150q-22 53 -59 86t-78 33q-65 0 -99 -54.5t-34 -138.5zM354 1139l162 295h174l-211 -295h-125z" />
<glyph unicode="&#xe2;" horiz-adv-x="815" d="M57 305q0 148 72 236t190 88q56 0 113 -29t88 -82v137q0 195 -151 195q-105 0 -199 -100l-74 135q60 66 144.5 97.5t165.5 31.5q149 0 228 -79t79 -239v-696h-193v92q-32 -56 -88.5 -86.5t-112.5 -30.5q-118 0 -190 90t-72 240zM201 1139l131 295h178l135 -295h-108 l-117 200l-109 -200h-110zM250 301q0 -83 34.5 -137.5t98.5 -54.5q41 0 78 31.5t59 84.5v150q-22 53 -59 86t-78 33q-65 0 -99 -54.5t-34 -138.5z" />
<glyph unicode="&#xe3;" horiz-adv-x="815" d="M57 305q0 148 72 236t190 88q56 0 113 -29t88 -82v137q0 195 -151 195q-105 0 -199 -100l-74 135q60 66 144.5 97.5t165.5 31.5q149 0 228 -79t79 -239v-696h-193v92q-32 -56 -88.5 -86.5t-112.5 -30.5q-118 0 -190 90t-72 240zM172 1147q0 122 42.5 198t121.5 76 q23 0 42.5 -8.5t34.5 -27t23.5 -32.5t20.5 -38q11 -22 18 -33.5t17.5 -21t21.5 -9.5q23 0 38 39.5t15 118.5h103q0 -123 -42 -198.5t-122 -75.5q-22 0 -40.5 8.5t-34 27.5t-24 32t-22.5 38q-12 24 -17.5 33.5t-16 20t-21.5 10.5q-24 0 -40 -40t-16 -118h-102zM250 301 q0 -83 34.5 -137.5t98.5 -54.5q41 0 78 31.5t59 84.5v150q-22 53 -59 86t-78 33q-65 0 -99 -54.5t-34 -138.5z" />
<glyph unicode="&#xe4;" horiz-adv-x="815" d="M57 305q0 148 72 236t190 88q56 0 113 -29t88 -82v137q0 195 -151 195q-105 0 -199 -100l-74 135q60 66 144.5 97.5t165.5 31.5q149 0 228 -79t79 -239v-696h-193v92q-32 -56 -88.5 -86.5t-112.5 -30.5q-118 0 -190 90t-72 240zM152 1272q0 45 32.5 77.5t77.5 32.5 q46 0 78.5 -32t32.5 -78q0 -44 -32.5 -76.5t-78.5 -32.5q-44 0 -77 32.5t-33 76.5zM250 301q0 -83 34.5 -137.5t98.5 -54.5q41 0 78 31.5t59 84.5v150q-22 53 -59 86t-78 33q-65 0 -99 -54.5t-34 -138.5zM467 1272q0 46 32 78t76 32q46 0 79.5 -32.5t33.5 -77.5 q0 -44 -33.5 -76.5t-79.5 -32.5q-44 0 -76 32.5t-32 76.5z" />
<glyph unicode="&#xe5;" horiz-adv-x="815" d="M57 305q0 148 72 236t190 88q56 0 113 -29t88 -82v137q0 195 -151 195q-105 0 -199 -100l-74 135q60 66 144.5 97.5t165.5 31.5q149 0 228 -79t79 -239v-696h-193v92q-32 -56 -88.5 -86.5t-112.5 -30.5q-118 0 -190 90t-72 240zM244 1284q0 72 52 124t124 52 q73 0 124.5 -52t51.5 -124q0 -74 -51.5 -126t-124.5 -52q-72 0 -124 52.5t-52 125.5zM250 301q0 -83 34.5 -137.5t98.5 -54.5q41 0 78 31.5t59 84.5v150q-22 53 -59 86t-78 33q-65 0 -99 -54.5t-34 -138.5zM334 1284q0 -37 25.5 -62.5t60.5 -25.5q37 0 62.5 25.5t25.5 62.5 q0 35 -25.5 60.5t-62.5 25.5q-35 0 -60.5 -25.5t-25.5 -60.5z" />
<glyph unicode="&#xe6;" horiz-adv-x="1251" d="M57 299q0 150 73.5 240t193.5 90q58 0 116 -29t90 -82v137q0 195 -155 195q-108 0 -205 -100l-74 135q60 65 142.5 97t154.5 32q89 0 150.5 -46t83.5 -112q17 33 35 57t46.5 49t69 38.5t90.5 13.5q83 0 147 -40t103 -111.5t58.5 -164t19.5 -202.5v-64h-481 q2 -137 51.5 -218t144.5 -81q42 0 85 28.5t75 78.5l98 -105q-53 -76 -126 -118t-154 -42q-99 0 -156 39.5t-106 118.5q-42 -68 -112.5 -113t-166.5 -45q-139 0 -215 86.5t-76 237.5zM250 309q0 -88 36.5 -136t100.5 -48q62 0 102.5 59t40.5 140v51q-24 53 -62.5 86t-80.5 33 q-62 0 -99.5 -51t-37.5 -134zM715 569h295q0 54 -6.5 100.5t-21.5 90.5t-45.5 70t-72.5 26q-43 0 -74 -27t-46.5 -72.5t-22 -91.5t-6.5 -96z" />
<glyph unicode="&#xe7;" horiz-adv-x="681" d="M63 496q0 229 95.5 373.5t261.5 144.5q140 0 223 -90l-68 -148q-59 68 -124 68q-63 0 -106.5 -49.5t-63 -126t-19.5 -172.5t19.5 -173t63 -127.5t106.5 -50.5q65 0 124 68l68 -147q-75 -85 -205 -91l-35 -86q27 21 60 21q48 0 81.5 -37.5t33.5 -95.5q0 -77 -54 -124.5 t-137 -47.5q-94 0 -168 63l41 84q64 -55 123 -55q38 0 64 22.5t26 59.5q0 25 -14.5 41t-38.5 16q-32 0 -55 -26l-76 43l49 133q-130 35 -202.5 173t-72.5 337z" />
<glyph unicode="&#xe8;" horiz-adv-x="800" d="M63 496q0 147 37 262t117.5 185.5t194.5 70.5q87 0 152 -39.5t104 -110.5t58 -162t19 -202v-68h-493q2 -136 53.5 -217.5t149.5 -81.5q43 0 86 28t77 79l101 -105q-55 -76 -128.5 -118t-154.5 -42q-180 0 -276.5 143.5t-96.5 377.5zM141 1434h174l162 -295h-125zM252 569 h305q0 54 -6.5 100.5t-22.5 90.5t-47 70t-75 26t-75.5 -27.5t-48 -72.5t-23.5 -91t-7 -96z" />
<glyph unicode="&#xe9;" horiz-adv-x="800" d="M63 496q0 147 37 262t117.5 185.5t194.5 70.5q87 0 152 -39.5t104 -110.5t58 -162t19 -202v-68h-493q2 -136 53.5 -217.5t149.5 -81.5q43 0 86 28t77 79l101 -105q-55 -76 -128.5 -118t-154.5 -42q-180 0 -276.5 143.5t-96.5 377.5zM252 569h305q0 54 -6.5 100.5 t-22.5 90.5t-47 70t-75 26t-75.5 -27.5t-48 -72.5t-23.5 -91t-7 -96zM346 1139l162 295h174l-211 -295h-125z" />
<glyph unicode="&#xea;" horiz-adv-x="800" d="M63 496q0 147 37 262t117.5 185.5t194.5 70.5q87 0 152 -39.5t104 -110.5t58 -162t19 -202v-68h-493q2 -136 53.5 -217.5t149.5 -81.5q43 0 86 28t77 79l101 -105q-55 -76 -128.5 -118t-154.5 -42q-180 0 -276.5 143.5t-96.5 377.5zM193 1139l131 295h178l135 -295h-109 l-116 200l-109 -200h-110zM252 569h305q0 54 -6.5 100.5t-22.5 90.5t-47 70t-75 26t-75.5 -27.5t-48 -72.5t-23.5 -91t-7 -96z" />
<glyph unicode="&#xeb;" horiz-adv-x="800" d="M63 496q0 147 37 262t117.5 185.5t194.5 70.5q87 0 152 -39.5t104 -110.5t58 -162t19 -202v-68h-493q2 -136 53.5 -217.5t149.5 -81.5q43 0 86 28t77 79l101 -105q-55 -76 -128.5 -118t-154.5 -42q-180 0 -276.5 143.5t-96.5 377.5zM143 1272q0 45 33 77.5t78 32.5 q46 0 78.5 -32t32.5 -78q0 -44 -32.5 -76.5t-78.5 -32.5q-44 0 -77.5 32.5t-33.5 76.5zM252 569h305q0 54 -6.5 100.5t-22.5 90.5t-47 70t-75 26t-75.5 -27.5t-48 -72.5t-23.5 -91t-7 -96zM459 1272q0 46 32 78t76 32q46 0 79.5 -32.5t33.5 -77.5q0 -44 -33.5 -76.5 t-79.5 -32.5q-44 0 -76 32.5t-32 76.5z" />
<glyph unicode="&#xec;" horiz-adv-x="397" d="M-72 1434h174l162 -295h-125zM102 0v989h193v-989h-193z" />
<glyph unicode="&#xed;" horiz-adv-x="397" d="M102 0v989h193v-989h-193zM133 1139l162 295h174l-211 -295h-125z" />
<glyph unicode="&#xee;" horiz-adv-x="397" d="M-20 1139l131 295h178l135 -295h-109l-116 200l-109 -200h-110zM102 0v989h193v-989h-193z" />
<glyph unicode="&#xef;" horiz-adv-x="397" d="M-70 1272q0 45 33 77.5t78 32.5q46 0 78.5 -32t32.5 -78q0 -44 -32.5 -76.5t-78.5 -32.5q-44 0 -77.5 32.5t-33.5 76.5zM102 0v989h193v-989h-193zM246 1272q0 46 32 78t76 32q46 0 79.5 -32.5t33.5 -77.5q0 -44 -33.5 -76.5t-79.5 -32.5q-44 0 -76 32.5t-32 76.5z" />
<glyph unicode="&#xf0;" d="M63 473q0 135 31 244t100 179.5t166 70.5q124 0 183 -133q-24 135 -86 286l-195 -88l-43 96l197 86q-34 74 -72 132l170 79q45 -72 72 -135l137 62l41 -95l-135 -61q129 -315 129 -655q0 -260 -85 -413t-261 -153q-89 0 -157.5 40.5t-109.5 111.5t-61.5 158t-20.5 188z M264 473q0 -67 7 -122.5t23.5 -103.5t46.5 -75t71 -27t71 27t46 75t23 103.5t7 122.5q0 66 -7 120.5t-23 102t-46 74.5t-71 27t-71 -27t-46.5 -74.5t-23.5 -102t-7 -120.5z" />
<glyph unicode="&#xf1;" d="M102 0v989h193v-133q32 64 97 111t130 47q199 0 199 -221v-793h-193v729q0 115 -84 115q-46 0 -86.5 -42.5t-62.5 -101.5v-700h-193zM164 1147q0 122 42.5 198t121.5 76q23 0 42.5 -8.5t34.5 -27t23.5 -32.5t20.5 -38q11 -22 18 -33.5t17.5 -21t21.5 -9.5q23 0 38 39.5 t15 118.5h103q0 -123 -42 -198.5t-122 -75.5q-22 0 -40.5 8.5t-34 27.5t-24 32t-22.5 38q-12 24 -17.5 33.5t-16 20t-21.5 10.5q-24 0 -40 -40t-16 -118h-102z" />
<glyph unicode="&#xf2;" d="M63 496q0 105 20.5 196t61.5 164.5t109.5 115.5t157.5 42q72 0 130.5 -28t98 -76t66.5 -114.5t39 -141t12 -158.5t-12 -159t-39 -142t-66.5 -115.5t-98 -76.5t-130.5 -28q-89 0 -157.5 42.5t-109.5 116.5t-61.5 165.5t-20.5 196.5zM141 1434h174l162 -295h-125zM264 496 q0 -351 148 -351q147 0 147 351q0 348 -147 348q-148 0 -148 -348z" />
<glyph unicode="&#xf3;" d="M63 496q0 105 20.5 196t61.5 164.5t109.5 115.5t157.5 42q72 0 130.5 -28t98 -76t66.5 -114.5t39 -141t12 -158.5t-12 -159t-39 -142t-66.5 -115.5t-98 -76.5t-130.5 -28q-89 0 -157.5 42.5t-109.5 116.5t-61.5 165.5t-20.5 196.5zM264 496q0 -351 148 -351 q147 0 147 351q0 348 -147 348q-148 0 -148 -348zM346 1139l162 295h174l-211 -295h-125z" />
<glyph unicode="&#xf4;" d="M63 496q0 105 20.5 196t61.5 164.5t109.5 115.5t157.5 42q72 0 130.5 -28t98 -76t66.5 -114.5t39 -141t12 -158.5t-12 -159t-39 -142t-66.5 -115.5t-98 -76.5t-130.5 -28q-89 0 -157.5 42.5t-109.5 116.5t-61.5 165.5t-20.5 196.5zM193 1139l131 295h178l135 -295h-109 l-116 200l-109 -200h-110zM264 496q0 -351 148 -351q147 0 147 351q0 348 -147 348q-148 0 -148 -348z" />
<glyph unicode="&#xf5;" d="M63 496q0 105 20.5 196t61.5 164.5t109.5 115.5t157.5 42q72 0 130.5 -28t98 -76t66.5 -114.5t39 -141t12 -158.5t-12 -159t-39 -142t-66.5 -115.5t-98 -76.5t-130.5 -28q-89 0 -157.5 42.5t-109.5 116.5t-61.5 165.5t-20.5 196.5zM164 1147q0 122 42.5 198t121.5 76 q23 0 42.5 -8.5t34.5 -27t23.5 -32.5t20.5 -38q11 -22 18 -33.5t17.5 -21t21.5 -9.5q23 0 38 39.5t15 118.5h103q0 -123 -42 -198.5t-122 -75.5q-22 0 -40.5 8.5t-34 27.5t-24 32t-22.5 38q-12 24 -17.5 33.5t-16 20t-21.5 10.5q-24 0 -40 -40t-16 -118h-102zM264 496 q0 -351 148 -351q147 0 147 351q0 348 -147 348q-148 0 -148 -348z" />
<glyph unicode="&#xf6;" d="M63 496q0 105 20.5 196t61.5 164.5t109.5 115.5t157.5 42q72 0 130.5 -28t98 -76t66.5 -114.5t39 -141t12 -158.5t-12 -159t-39 -142t-66.5 -115.5t-98 -76.5t-130.5 -28q-89 0 -157.5 42.5t-109.5 116.5t-61.5 165.5t-20.5 196.5zM143 1272q0 45 33 77.5t78 32.5 q46 0 78.5 -32t32.5 -78q0 -44 -32.5 -76.5t-78.5 -32.5q-44 0 -77.5 32.5t-33.5 76.5zM264 496q0 -351 148 -351q147 0 147 351q0 348 -147 348q-148 0 -148 -348zM459 1272q0 46 32 78t76 32q46 0 79.5 -32.5t33.5 -77.5q0 -44 -33.5 -76.5t-79.5 -32.5q-44 0 -76 32.5 t-32 76.5z" />
<glyph unicode="&#xf7;" horiz-adv-x="765" d="M59 627v127h648v-127h-648zM281 391q0 43 31 75t73 32t73 -32t31 -75t-30.5 -73.5t-73.5 -30.5t-73.5 30.5t-30.5 73.5zM281 983q0 43 30.5 73.5t73.5 30.5t73.5 -30.5t30.5 -73.5t-30.5 -74.5t-73.5 -31.5t-73.5 31.5t-30.5 74.5z" />
<glyph unicode="&#xf8;" d="M63 496q0 105 20.5 196t61.5 164.5t109.5 115.5t157.5 42q111 0 194 -70l25 45h112l-69 -127q84 -139 84 -366q0 -84 -12 -159t-39 -142t-66.5 -115.5t-98 -76.5t-130.5 -28q-112 0 -195 70l-24 -45h-113l70 125q-87 145 -87 371zM264 496q0 -87 8 -150l240 430 q-36 68 -100 68q-148 0 -148 -348zM311 213q36 -68 101 -68q147 0 147 351q0 84 -8 147z" />
<glyph unicode="&#xf9;" d="M102 195v794h193v-731q0 -113 84 -113q47 0 87 40.5t62 99.5v704h193v-989h-193v129q-32 -65 -95 -109.5t-132 -44.5q-104 0 -151.5 55t-47.5 165zM141 1434h174l162 -295h-125z" />
<glyph unicode="&#xfa;" d="M102 195v794h193v-731q0 -113 84 -113q47 0 87 40.5t62 99.5v704h193v-989h-193v129q-32 -65 -95 -109.5t-132 -44.5q-104 0 -151.5 55t-47.5 165zM346 1139l162 295h174l-211 -295h-125z" />
<glyph unicode="&#xfb;" d="M102 195v794h193v-731q0 -113 84 -113q47 0 87 40.5t62 99.5v704h193v-989h-193v129q-32 -65 -95 -109.5t-132 -44.5q-104 0 -151.5 55t-47.5 165zM193 1139l131 295h178l135 -295h-109l-116 200l-109 -200h-110z" />
<glyph unicode="&#xfc;" d="M102 195v794h193v-731q0 -113 84 -113q47 0 87 40.5t62 99.5v704h193v-989h-193v129q-32 -65 -95 -109.5t-132 -44.5q-104 0 -151.5 55t-47.5 165zM143 1272q0 45 33 77.5t78 32.5q46 0 78.5 -32t32.5 -78q0 -44 -32.5 -76.5t-78.5 -32.5q-44 0 -77.5 32.5t-33.5 76.5z M459 1272q0 46 32 78t76 32q46 0 79.5 -32.5t33.5 -77.5q0 -44 -33.5 -76.5t-79.5 -32.5q-44 0 -76 32.5t-32 76.5z" />
<glyph unicode="&#xfd;" horiz-adv-x="731" d="M10 989h205l150 -745l153 745h203l-303 -1182q-33 -119 -88.5 -163.5t-153.5 -44.5q-65 0 -100 14l28 168q21 -12 48 -12q34 0 53 18t31 61l32 125zM299 1139l162 295h174l-211 -295h-125z" />
<glyph unicode="&#xfe;" horiz-adv-x="831" d="M102 -377v1743h193v-498q31 72 81 109t109 37q139 0 211 -139t72 -379q0 -238 -72.5 -379.5t-210.5 -141.5q-58 0 -109.5 36.5t-80.5 111.5v-500h-193zM295 285q18 -58 54.5 -99t76.5 -41q143 0 143 351q0 348 -143 348q-40 0 -76.5 -39.5t-54.5 -97.5v-422z" />
<glyph unicode="&#xff;" horiz-adv-x="731" d="M10 989h205l150 -745l153 745h203l-303 -1182q-33 -119 -88.5 -163.5t-153.5 -44.5q-65 0 -100 14l28 168q21 -12 48 -12q34 0 53 18t31 61l32 125zM96 1272q0 45 33 77.5t78 32.5q46 0 78 -32t32 -78q0 -44 -32.5 -76.5t-77.5 -32.5q-44 0 -77.5 32.5t-33.5 76.5z M412 1272q0 46 32 78t76 32q46 0 79.5 -32.5t33.5 -77.5q0 -44 -33.5 -76.5t-79.5 -32.5q-44 0 -76 32.5t-32 76.5z" />
<glyph unicode="&#x152;" horiz-adv-x="1261" d="M74 682q0 153 20 277.5t61 222t111 151t164 53.5q56 0 110.5 -32t88.5 -105v117h559v-188h-344v-387h330v-189h-330v-414h344v-188h-559v117q-34 -75 -88.5 -108.5t-110.5 -33.5q-94 0 -164 54t-111 152t-61 223t-20 278zM293 682q0 -516 178 -516q54 0 95 55.5t63 157.5 v606q-22 101 -63 156t-95 55q-178 0 -178 -514z" />
<glyph unicode="&#x153;" horiz-adv-x="1294" d="M63 496q0 105 20.5 196t61.5 164.5t109.5 115.5t157.5 42q167 0 247 -195q78 195 246 195q87 0 153 -40t104.5 -112t57.5 -163.5t19 -202.5v-64h-491q2 -136 52 -217.5t148 -81.5q45 0 88.5 28t75.5 79l100 -105q-53 -76 -126 -118t-154 -42q-100 0 -164 50.5t-106 150.5 q-81 -201 -250 -201q-89 0 -157.5 42.5t-109.5 116.5t-61.5 165.5t-20.5 196.5zM264 496q0 -351 148 -351q147 0 147 351q0 348 -147 348q-148 0 -148 -348zM748 569h305q0 53 -7 100t-22.5 91t-47 70t-75.5 26t-75.5 -27.5t-47.5 -72.5t-23 -91t-7 -96z" />
<glyph unicode="&#x178;" horiz-adv-x="829" d="M-6 1366h229l193 -584l194 584h226l-314 -795v-571h-213v571zM147 1614q0 45 33 77.5t78 32.5q46 0 78.5 -32t32.5 -78q0 -44 -32.5 -76.5t-78.5 -32.5q-44 0 -77.5 32.5t-33.5 76.5zM463 1614q0 46 32 78t76 32q46 0 79.5 -32.5t33.5 -77.5q0 -44 -33.5 -76.5 t-79.5 -32.5q-44 0 -76 32.5t-32 76.5z" />
<glyph unicode="&#x2c6;" horiz-adv-x="444" d="M0 1139l131 295h178l135 -295h-108l-117 200l-108 -200h-111z" />
<glyph unicode="&#x2dc;" horiz-adv-x="497" d="M0 1147q0 122 42.5 198t121.5 76q23 0 42.5 -8.5t34.5 -27t23.5 -32.5t20.5 -38q11 -22 18 -33.5t17.5 -21t21.5 -9.5q23 0 38 39.5t15 118.5h103q0 -123 -42 -198.5t-122 -75.5q-22 0 -40.5 8.5t-34 27.5t-24 32t-22.5 38q-12 24 -17.5 33.5t-16 20t-21.5 10.5 q-24 0 -40 -40t-16 -118h-102z" />
<glyph unicode="&#x2000;" horiz-adv-x="901" />
<glyph unicode="&#x2001;" horiz-adv-x="1802" />
<glyph unicode="&#x2002;" horiz-adv-x="901" />
<glyph unicode="&#x2003;" horiz-adv-x="1802" />
<glyph unicode="&#x2004;" horiz-adv-x="600" />
<glyph unicode="&#x2005;" horiz-adv-x="450" />
<glyph unicode="&#x2006;" horiz-adv-x="300" />
<glyph unicode="&#x2007;" horiz-adv-x="300" />
<glyph unicode="&#x2008;" horiz-adv-x="225" />
<glyph unicode="&#x2009;" horiz-adv-x="360" />
<glyph unicode="&#x200a;" horiz-adv-x="100" />
<glyph unicode="&#x2010;" horiz-adv-x="487" d="M61 412v166h365v-166h-365z" />
<glyph unicode="&#x2011;" horiz-adv-x="487" d="M61 412v166h365v-166h-365z" />
<glyph unicode="&#x2012;" horiz-adv-x="487" d="M61 412v166h365v-166h-365z" />
<glyph unicode="&#x2013;" horiz-adv-x="942" d="M61 412v166h820v-166h-820z" />
<glyph unicode="&#x2014;" horiz-adv-x="1310" d="M61 412v166h1188v-166h-1188z" />
<glyph unicode="&#x2018;" horiz-adv-x="493" d="M104 1055q0 98 50.5 185.5t132.5 145.5l90 -71q-51 -32 -93 -87t-51 -106q18 6 33 6q48 0 80.5 -34t32.5 -86q0 -53 -37.5 -91t-91.5 -38q-61 0 -103.5 47t-42.5 129z" />
<glyph unicode="&#x2019;" horiz-adv-x="493" d="M113 1257q0 53 37.5 91t91.5 38q61 0 103 -47t42 -129q0 -98 -50 -186t-132 -145l-88 71q51 31 91.5 86t49.5 107q-12 -6 -31 -6q-50 0 -82 34t-32 86z" />
<glyph unicode="&#x201a;" horiz-adv-x="489" d="M113 113q0 53 37.5 91t91.5 38q61 0 103 -47t42 -129q0 -98 -50 -186.5t-132 -145.5l-88 71q51 31 91.5 86t49.5 107q-8 -4 -31 -4q-50 0 -82 33.5t-32 85.5z" />
<glyph unicode="&#x201c;" horiz-adv-x="851" d="M106 1055q0 98 50 185.5t131 145.5l90 -71q-51 -31 -91.5 -86t-49.5 -107q12 6 30 6q48 0 80.5 -34t32.5 -86q0 -53 -37 -91t-90 -38q-61 0 -103.5 47t-42.5 129zM465 1055q0 98 50.5 185.5t131.5 145.5l90 -71q-51 -32 -92.5 -87t-48.5 -106q12 6 31 6q48 0 80 -34 t32 -86q0 -53 -37.5 -91t-89.5 -38q-62 0 -104.5 47.5t-42.5 128.5z" />
<glyph unicode="&#x201d;" horiz-adv-x="851" d="M113 1257q0 53 37.5 91t91.5 38q61 0 103 -47t42 -129q0 -98 -50 -186t-132 -145l-88 71q51 31 91.5 86t49.5 107q-12 -6 -31 -6q-50 0 -82 34t-32 86zM473 1257q0 53 37.5 91t91.5 38q61 0 103.5 -47t42.5 -129q0 -98 -50.5 -185.5t-132.5 -145.5l-90 71q51 32 92.5 87 t48.5 106q-12 -6 -30 -6q-48 0 -80.5 34t-32.5 86z" />
<glyph unicode="&#x201e;" horiz-adv-x="849" d="M113 113q0 53 37.5 91t91.5 38q61 0 103 -47t42 -129q0 -98 -50 -186.5t-132 -145.5l-88 71q51 31 91.5 86t49.5 107q-8 -4 -31 -4q-50 0 -82 33.5t-32 85.5zM473 113q0 53 37.5 91t91.5 38q61 0 103.5 -47t42.5 -129q0 -98 -51 -186t-132 -146l-90 71q51 32 92.5 87 t48.5 106q-8 -4 -30 -4q-48 0 -80.5 33.5t-32.5 85.5z" />
<glyph unicode="&#x2022;" horiz-adv-x="733" d="M139 496q0 95 67.5 162t162.5 67t162 -67t67 -162q0 -94 -67 -161t-162 -67t-162.5 67t-67.5 161z" />
<glyph unicode="&#x2026;" horiz-adv-x="1468" d="M113 111q0 54 38.5 92.5t92.5 38.5q55 0 94 -38.5t39 -92.5t-39 -94t-94 -40q-54 0 -92.5 40t-38.5 94zM602 111q0 54 38.5 92.5t92.5 38.5q55 0 94 -38.5t39 -92.5t-39 -94t-94 -40q-54 0 -92.5 40t-38.5 94zM1092 111q0 54 38.5 92.5t92.5 38.5q55 0 94 -38.5t39 -92.5 t-39 -94t-94 -40q-54 0 -92.5 40t-38.5 94z" />
<glyph unicode="&#x202f;" horiz-adv-x="360" />
<glyph unicode="&#x2039;" horiz-adv-x="460" d="M61 498l185 362h153l-184 -362l184 -369h-153z" />
<glyph unicode="&#x203a;" horiz-adv-x="460" d="M61 129l185 369l-185 362h154l184 -362l-184 -369h-154z" />
<glyph unicode="&#x205f;" horiz-adv-x="450" />
<glyph unicode="&#x20ac;" horiz-adv-x="874" d="M31 477v125h75q-2 27 -2 80q0 57 2 84h-75v127h86q29 231 124.5 363.5t260.5 132.5q58 0 106 -18t80 -45.5t58.5 -69.5t42 -79t30.5 -85l-172 -64q-26 87 -57.5 128.5t-87.5 41.5q-135 0 -168 -305h221v-127h-229q-2 -27 -2 -84q0 -53 2 -80h229v-125h-221 q30 -311 168 -311q63 0 96.5 53.5t50.5 149.5l174 -64q-79 -330 -321 -330q-166 0 -261.5 134.5t-123.5 367.5h-86z" />
<glyph unicode="&#x2122;" horiz-adv-x="765" d="M35 1313v53h229v-53h-86v-398h-57v398h-86zM338 915v451h88l90 -322l90 322h88v-451h-57v373l-113 -373h-16l-113 373v-373h-57z" />
<glyph unicode="&#x25fc;" horiz-adv-x="993" d="M0 0v993h993v-993h-993z" />
<hkern g1="seven" 	g2="comma,period,quotesinglbase,quotedblbase,ellipsis" 	k="141" />
<hkern g1="zero,nine" 	g2="comma,period,quotesinglbase,quotedblbase,ellipsis" 	k="41" />
<hkern g1="comma,period,quotesinglbase,quotedblbase,ellipsis" 	g2="one" 	k="184" />
<hkern g1="comma,period,quotesinglbase,quotedblbase,ellipsis" 	g2="quotedbl,quotesingle,registered,quoteleft,quoteright,quotedblleft,quotedblright,trademark" 	k="152" />
<hkern g1="comma,period,quotesinglbase,quotedblbase,ellipsis" 	g2="seven" 	k="70" />
<hkern g1="quotedbl,quotesingle,quoteleft,quoteright,quotedblleft,quotedblright" 	g2="comma,period,quotesinglbase,quotedblbase,ellipsis" 	k="152" />
<hkern g1="A,Agrave,Aacute,Acircumflex,Atilde,Adieresis,Aring" 	g2="C,G,O,Q,Ccedilla,Ograve,Oacute,Ocircumflex,Otilde,Odieresis,Oslash,OE" 	k="12" />
<hkern g1="A,Agrave,Aacute,Acircumflex,Atilde,Adieresis,Aring" 	g2="J" 	k="-8" />
<hkern g1="A,Agrave,Aacute,Acircumflex,Atilde,Adieresis,Aring" 	g2="T" 	k="59" />
<hkern g1="A,Agrave,Aacute,Acircumflex,Atilde,Adieresis,Aring" 	g2="U,Ugrave,Uacute,Ucircumflex,Udieresis" 	k="8" />
<hkern g1="A,Agrave,Aacute,Acircumflex,Atilde,Adieresis,Aring" 	g2="V" 	k="27" />
<hkern g1="A,Agrave,Aacute,Acircumflex,Atilde,Adieresis,Aring" 	g2="W" 	k="18" />
<hkern g1="A,Agrave,Aacute,Acircumflex,Atilde,Adieresis,Aring" 	g2="Y,Yacute,Ydieresis" 	k="47" />
<hkern g1="A,Agrave,Aacute,Acircumflex,Atilde,Adieresis,Aring" 	g2="asterisk" 	k="80" />
<hkern g1="A,Agrave,Aacute,Acircumflex,Atilde,Adieresis,Aring" 	g2="c,d,e,g,o,q,cent,ccedilla,egrave,eacute,ecircumflex,edieresis,oacute,oe" 	k="6" />
<hkern g1="A,Agrave,Aacute,Acircumflex,Atilde,Adieresis,Aring" 	g2="f,uniFB01,uniFB02,uniFB03,uniFB04" 	k="8" />
<hkern g1="A,Agrave,Aacute,Acircumflex,Atilde,Adieresis,Aring" 	g2="plus,divide" 	k="27" />
<hkern g1="A,Agrave,Aacute,Acircumflex,Atilde,Adieresis,Aring" 	g2="question" 	k="74" />
<hkern g1="A,Agrave,Aacute,Acircumflex,Atilde,Adieresis,Aring" 	g2="quotedbl,quotesingle,registered,quoteleft,quoteright,quotedblleft,quotedblright,trademark" 	k="76" />
<hkern g1="A,Agrave,Aacute,Acircumflex,Atilde,Adieresis,Aring" 	g2="t" 	k="12" />
<hkern g1="A,Agrave,Aacute,Acircumflex,Atilde,Adieresis,Aring" 	g2="v" 	k="18" />
<hkern g1="A,Agrave,Aacute,Acircumflex,Atilde,Adieresis,Aring" 	g2="w" 	k="8" />
<hkern g1="A,Agrave,Aacute,Acircumflex,Atilde,Adieresis,Aring" 	g2="y,yacute,ydieresis" 	k="18" />
<hkern g1="C,Ccedilla" 	g2="Y,Yacute,Ydieresis" 	k="29" />
<hkern g1="C,Ccedilla" 	g2="f,uniFB01,uniFB02,uniFB03,uniFB04" 	k="12" />
<hkern g1="C,Ccedilla" 	g2="plus,divide" 	k="8" />
<hkern g1="C,Ccedilla" 	g2="question" 	k="12" />
<hkern g1="C,Ccedilla" 	g2="t" 	k="25" />
<hkern g1="C,Ccedilla" 	g2="v" 	k="25" />
<hkern g1="C,Ccedilla" 	g2="w" 	k="25" />
<hkern g1="C,Ccedilla" 	g2="y,yacute,ydieresis" 	k="25" />
<hkern g1="C,Ccedilla" 	g2="comma,period,quotesinglbase,quotedblbase,ellipsis" 	k="20" />
<hkern g1="D,O,Q,Eth,Ograve,Oacute,Ocircumflex,Otilde,Odieresis,Oslash,Thorn" 	g2="J" 	k="41" />
<hkern g1="D,O,Q,Eth,Ograve,Oacute,Ocircumflex,Otilde,Odieresis,Oslash,Thorn" 	g2="T" 	k="20" />
<hkern g1="D,O,Q,Eth,Ograve,Oacute,Ocircumflex,Otilde,Odieresis,Oslash,Thorn" 	g2="V" 	k="8" />
<hkern g1="D,O,Q,Eth,Ograve,Oacute,Ocircumflex,Otilde,Odieresis,Oslash,Thorn" 	g2="W" 	k="8" />
<hkern g1="D,O,Q,Eth,Ograve,Oacute,Ocircumflex,Otilde,Odieresis,Oslash,Thorn" 	g2="Y,Yacute,Ydieresis" 	k="39" />
<hkern g1="D,O,Q,Eth,Ograve,Oacute,Ocircumflex,Otilde,Odieresis,Oslash,Thorn" 	g2="question" 	k="25" />
<hkern g1="D,O,Q,Eth,Ograve,Oacute,Ocircumflex,Otilde,Odieresis,Oslash,Thorn" 	g2="quotedbl,quotesingle,registered,quoteleft,quoteright,quotedblleft,quotedblright,trademark" 	k="29" />
<hkern g1="D,O,Q,Eth,Ograve,Oacute,Ocircumflex,Otilde,Odieresis,Oslash,Thorn" 	g2="comma,period,quotesinglbase,quotedblbase,ellipsis" 	k="41" />
<hkern g1="D,O,Q,Eth,Ograve,Oacute,Ocircumflex,Otilde,Odieresis,Oslash,Thorn" 	g2="A,Agrave,Aacute,Acircumflex,Atilde,Adieresis,Aring,AE" 	k="12" />
<hkern g1="D,O,Q,Eth,Ograve,Oacute,Ocircumflex,Otilde,Odieresis,Oslash,Thorn" 	g2="X" 	k="29" />
<hkern g1="D,O,Q,Eth,Ograve,Oacute,Ocircumflex,Otilde,Odieresis,Oslash,Thorn" 	g2="Z" 	k="20" />
<hkern g1="F" 	g2="J" 	k="131" />
<hkern g1="F" 	g2="comma,period,quotesinglbase,quotedblbase,ellipsis" 	k="123" />
<hkern g1="F" 	g2="A,Agrave,Aacute,Acircumflex,Atilde,Adieresis,Aring,AE" 	k="53" />
<hkern g1="F" 	g2="ampersand" 	k="53" />
<hkern g1="G" 	g2="T" 	k="20" />
<hkern g1="G" 	g2="V" 	k="8" />
<hkern g1="G" 	g2="W" 	k="8" />
<hkern g1="G" 	g2="Y,Yacute,Ydieresis" 	k="27" />
<hkern g1="G" 	g2="question" 	k="25" />
<hkern g1="G" 	g2="X" 	k="8" />
<hkern g1="K" 	g2="C,G,O,Q,Ccedilla,Ograve,Oacute,Ocircumflex,Otilde,Odieresis,Oslash,OE" 	k="49" />
<hkern g1="K" 	g2="c,d,e,g,o,q,cent,ccedilla,egrave,eacute,ecircumflex,edieresis,oacute,oe" 	k="61" />
<hkern g1="K" 	g2="f,uniFB01,uniFB02,uniFB03,uniFB04" 	k="41" />
<hkern g1="K" 	g2="plus,divide" 	k="94" />
<hkern g1="K" 	g2="t" 	k="49" />
<hkern g1="K" 	g2="v" 	k="82" />
<hkern g1="K" 	g2="w" 	k="82" />
<hkern g1="K" 	g2="y,yacute,ydieresis" 	k="82" />
<hkern g1="K" 	g2="hyphen,periodcentered,endash,emdash" 	k="49" />
<hkern g1="K" 	g2="u,mu,uacute" 	k="33" />
<hkern g1="K" 	g2="x" 	k="53" />
<hkern g1="L" 	g2="C,G,O,Q,Ccedilla,Ograve,Oacute,Ocircumflex,Otilde,Odieresis,Oslash,OE" 	k="53" />
<hkern g1="L" 	g2="T" 	k="80" />
<hkern g1="L" 	g2="U,Ugrave,Uacute,Ucircumflex,Udieresis" 	k="41" />
<hkern g1="L" 	g2="V" 	k="111" />
<hkern g1="L" 	g2="W" 	k="90" />
<hkern g1="L" 	g2="Y,Yacute,Ydieresis" 	k="150" />
<hkern g1="L" 	g2="asterisk" 	k="193" />
<hkern g1="L" 	g2="c,d,e,g,o,q,cent,ccedilla,egrave,eacute,ecircumflex,edieresis,oacute,oe" 	k="25" />
<hkern g1="L" 	g2="plus,divide" 	k="115" />
<hkern g1="L" 	g2="question" 	k="100" />
<hkern g1="L" 	g2="quotedbl,quotesingle,registered,quoteleft,quoteright,quotedblleft,quotedblright,trademark" 	k="223" />
<hkern g1="L" 	g2="t" 	k="41" />
<hkern g1="L" 	g2="v" 	k="90" />
<hkern g1="L" 	g2="w" 	k="61" />
<hkern g1="L" 	g2="y,yacute,ydieresis" 	k="90" />
<hkern g1="L" 	g2="ampersand" 	k="25" />
<hkern g1="L" 	g2="u,mu,uacute" 	k="25" />
<hkern g1="L" 	g2="a,agrave,aacute,acircumflex,atilde,adieresis,aring,ae" 	k="12" />
<hkern g1="P" 	g2="J" 	k="164" />
<hkern g1="P" 	g2="Y,Yacute,Ydieresis" 	k="18" />
<hkern g1="P" 	g2="c,d,e,g,o,q,cent,ccedilla,egrave,eacute,ecircumflex,edieresis,oacute,oe" 	k="41" />
<hkern g1="P" 	g2="comma,period,quotesinglbase,quotedblbase,ellipsis" 	k="184" />
<hkern g1="P" 	g2="A,Agrave,Aacute,Acircumflex,Atilde,Adieresis,Aring,AE" 	k="53" />
<hkern g1="P" 	g2="X" 	k="35" />
<hkern g1="P" 	g2="ampersand" 	k="41" />
<hkern g1="P" 	g2="hyphen,periodcentered,endash,emdash" 	k="53" />
<hkern g1="P" 	g2="a,agrave,aacute,acircumflex,atilde,adieresis,aring,ae" 	k="33" />
<hkern g1="R" 	g2="T" 	k="20" />
<hkern g1="R" 	g2="V" 	k="8" />
<hkern g1="R" 	g2="Y,Yacute,Ydieresis" 	k="18" />
<hkern g1="R" 	g2="c,d,e,g,o,q,cent,ccedilla,egrave,eacute,ecircumflex,edieresis,oacute,oe" 	k="41" />
<hkern g1="R" 	g2="quotedbl,quotesingle,registered,quoteleft,quoteright,quotedblleft,quotedblright,trademark" 	k="8" />
<hkern g1="R" 	g2="v" 	k="12" />
<hkern g1="R" 	g2="w" 	k="12" />
<hkern g1="R" 	g2="y,yacute,ydieresis" 	k="12" />
<hkern g1="R" 	g2="ampersand" 	k="18" />
<hkern g1="R" 	g2="x" 	k="12" />
<hkern g1="R" 	g2="a,agrave,aacute,acircumflex,atilde,adieresis,aring,ae" 	k="20" />
<hkern g1="R" 	g2="s" 	k="20" />
<hkern g1="T" 	g2="C,G,O,Q,Ccedilla,Ograve,Oacute,Ocircumflex,Otilde,Odieresis,Oslash,OE" 	k="20" />
<hkern g1="T" 	g2="J" 	k="111" />
<hkern g1="T" 	g2="c,d,e,g,o,q,cent,ccedilla,egrave,eacute,ecircumflex,edieresis,oacute,oe" 	k="102" />
<hkern g1="T" 	g2="f,uniFB01,uniFB02,uniFB03,uniFB04" 	k="29" />
<hkern g1="T" 	g2="plus,divide" 	k="70" />
<hkern g1="T" 	g2="v" 	k="47" />
<hkern g1="T" 	g2="w" 	k="47" />
<hkern g1="T" 	g2="y,yacute,ydieresis" 	k="47" />
<hkern g1="T" 	g2="comma,period,quotesinglbase,quotedblbase,ellipsis" 	k="121" />
<hkern g1="T" 	g2="A,Agrave,Aacute,Acircumflex,Atilde,Adieresis,Aring,AE" 	k="59" />
<hkern g1="T" 	g2="ampersand" 	k="70" />
<hkern g1="T" 	g2="hyphen,periodcentered,endash,emdash" 	k="90" />
<hkern g1="T" 	g2="u,mu,uacute" 	k="66" />
<hkern g1="T" 	g2="x" 	k="55" />
<hkern g1="T" 	g2="a,agrave,aacute,acircumflex,atilde,adieresis,aring,ae" 	k="90" />
<hkern g1="T" 	g2="s" 	k="82" />
<hkern g1="T" 	g2="dollar,three,five,eight,S" 	k="8" />
<hkern g1="T" 	g2="colon,semicolon" 	k="94" />
<hkern g1="T" 	g2="m,n,p,r,z,ntilde" 	k="66" />
<hkern g1="J,U,Ugrave,Uacute,Ucircumflex,Udieresis" 	g2="J" 	k="35" />
<hkern g1="J,U,Ugrave,Uacute,Ucircumflex,Udieresis" 	g2="comma,period,quotesinglbase,quotedblbase,ellipsis" 	k="45" />
<hkern g1="J,U,Ugrave,Uacute,Ucircumflex,Udieresis" 	g2="A,Agrave,Aacute,Acircumflex,Atilde,Adieresis,Aring,AE" 	k="8" />
<hkern g1="V" 	g2="C,G,O,Q,Ccedilla,Ograve,Oacute,Ocircumflex,Otilde,Odieresis,Oslash,OE" 	k="8" />
<hkern g1="V" 	g2="J" 	k="88" />
<hkern g1="V" 	g2="c,d,e,g,o,q,cent,ccedilla,egrave,eacute,ecircumflex,edieresis,oacute,oe" 	k="47" />
<hkern g1="V" 	g2="f,uniFB01,uniFB02,uniFB03,uniFB04" 	k="8" />
<hkern g1="V" 	g2="plus,divide" 	k="18" />
<hkern g1="V" 	g2="t" 	k="20" />
<hkern g1="V" 	g2="v" 	k="8" />
<hkern g1="V" 	g2="w" 	k="8" />
<hkern g1="V" 	g2="y,yacute,ydieresis" 	k="8" />
<hkern g1="V" 	g2="comma,period,quotesinglbase,quotedblbase,ellipsis" 	k="121" />
<hkern g1="V" 	g2="A,Agrave,Aacute,Acircumflex,Atilde,Adieresis,Aring,AE" 	k="27" />
<hkern g1="V" 	g2="ampersand" 	k="35" />
<hkern g1="V" 	g2="hyphen,periodcentered,endash,emdash" 	k="43" />
<hkern g1="V" 	g2="u,mu,uacute" 	k="27" />
<hkern g1="V" 	g2="x" 	k="18" />
<hkern g1="V" 	g2="a,agrave,aacute,acircumflex,atilde,adieresis,aring,ae" 	k="47" />
<hkern g1="V" 	g2="s" 	k="59" />
<hkern g1="V" 	g2="m,n,p,r,z,ntilde" 	k="27" />
<hkern g1="W" 	g2="C,G,O,Q,Ccedilla,Ograve,Oacute,Ocircumflex,Otilde,Odieresis,Oslash,OE" 	k="8" />
<hkern g1="W" 	g2="J" 	k="76" />
<hkern g1="W" 	g2="c,d,e,g,o,q,cent,ccedilla,egrave,eacute,ecircumflex,edieresis,oacute,oe" 	k="49" />
<hkern g1="W" 	g2="f,uniFB01,uniFB02,uniFB03,uniFB04" 	k="18" />
<hkern g1="W" 	g2="plus,divide" 	k="18" />
<hkern g1="W" 	g2="t" 	k="18" />
<hkern g1="W" 	g2="v" 	k="8" />
<hkern g1="W" 	g2="y,yacute,ydieresis" 	k="8" />
<hkern g1="W" 	g2="comma,period,quotesinglbase,quotedblbase,ellipsis" 	k="90" />
<hkern g1="W" 	g2="A,Agrave,Aacute,Acircumflex,Atilde,Adieresis,Aring,AE" 	k="18" />
<hkern g1="W" 	g2="ampersand" 	k="39" />
<hkern g1="W" 	g2="hyphen,periodcentered,endash,emdash" 	k="39" />
<hkern g1="W" 	g2="u,mu,uacute" 	k="29" />
<hkern g1="W" 	g2="x" 	k="18" />
<hkern g1="W" 	g2="a,agrave,aacute,acircumflex,atilde,adieresis,aring,ae" 	k="35" />
<hkern g1="W" 	g2="s" 	k="47" />
<hkern g1="W" 	g2="m,n,p,r,z,ntilde" 	k="29" />
<hkern g1="X" 	g2="C,G,O,Q,Ccedilla,Ograve,Oacute,Ocircumflex,Otilde,Odieresis,Oslash,OE" 	k="29" />
<hkern g1="X" 	g2="f,uniFB01,uniFB02,uniFB03,uniFB04" 	k="18" />
<hkern g1="X" 	g2="plus,divide" 	k="96" />
<hkern g1="X" 	g2="t" 	k="18" />
<hkern g1="X" 	g2="v" 	k="35" />
<hkern g1="X" 	g2="w" 	k="35" />
<hkern g1="X" 	g2="y,yacute,ydieresis" 	k="35" />
<hkern g1="X" 	g2="hyphen,periodcentered,endash,emdash" 	k="39" />
<hkern g1="Y,Yacute,Ydieresis" 	g2="C,G,O,Q,Ccedilla,Ograve,Oacute,Ocircumflex,Otilde,Odieresis,Oslash,OE" 	k="39" />
<hkern g1="Y,Yacute,Ydieresis" 	g2="J" 	k="117" />
<hkern g1="Y,Yacute,Ydieresis" 	g2="c,d,e,g,o,q,cent,ccedilla,egrave,eacute,ecircumflex,edieresis,oacute,oe" 	k="129" />
<hkern g1="Y,Yacute,Ydieresis" 	g2="f,uniFB01,uniFB02,uniFB03,uniFB04" 	k="47" />
<hkern g1="Y,Yacute,Ydieresis" 	g2="plus,divide" 	k="96" />
<hkern g1="Y,Yacute,Ydieresis" 	g2="t" 	k="39" />
<hkern g1="Y,Yacute,Ydieresis" 	g2="v" 	k="68" />
<hkern g1="Y,Yacute,Ydieresis" 	g2="w" 	k="59" />
<hkern g1="Y,Yacute,Ydieresis" 	g2="y,yacute,ydieresis" 	k="59" />
<hkern g1="Y,Yacute,Ydieresis" 	g2="comma,period,quotesinglbase,quotedblbase,ellipsis" 	k="145" />
<hkern g1="Y,Yacute,Ydieresis" 	g2="A,Agrave,Aacute,Acircumflex,Atilde,Adieresis,Aring,AE" 	k="47" />
<hkern g1="Y,Yacute,Ydieresis" 	g2="ampersand" 	k="68" />
<hkern g1="Y,Yacute,Ydieresis" 	g2="hyphen,periodcentered,endash,emdash" 	k="137" />
<hkern g1="Y,Yacute,Ydieresis" 	g2="u,mu,uacute" 	k="80" />
<hkern g1="Y,Yacute,Ydieresis" 	g2="x" 	k="59" />
<hkern g1="Y,Yacute,Ydieresis" 	g2="a,agrave,aacute,acircumflex,atilde,adieresis,aring,ae" 	k="121" />
<hkern g1="Y,Yacute,Ydieresis" 	g2="s" 	k="104" />
<hkern g1="Y,Yacute,Ydieresis" 	g2="dollar,three,five,eight,S" 	k="8" />
<hkern g1="Y,Yacute,Ydieresis" 	g2="colon,semicolon" 	k="80" />
<hkern g1="Y,Yacute,Ydieresis" 	g2="m,n,p,r,z,ntilde" 	k="80" />
<hkern g1="Z" 	g2="C,G,O,Q,Ccedilla,Ograve,Oacute,Ocircumflex,Otilde,Odieresis,Oslash,OE" 	k="20" />
<hkern g1="Z" 	g2="plus,divide" 	k="74" />
<hkern g1="three,eight,B" 	g2="T" 	k="12" />
<hkern g1="three,eight,B" 	g2="V" 	k="20" />
<hkern g1="three,eight,B" 	g2="W" 	k="10" />
<hkern g1="three,eight,B" 	g2="Y,Yacute,Ydieresis" 	k="41" />
<hkern g1="three,eight,B" 	g2="quotedbl,quotesingle,registered,quoteleft,quoteright,quotedblleft,quotedblright,trademark" 	k="4" />
<hkern g1="dollar,five,six,S" 	g2="T" 	k="18" />
<hkern g1="dollar,five,six,S" 	g2="Y,Yacute,Ydieresis" 	k="8" />
<hkern g1="dollar,five,six,S" 	g2="J" 	k="18" />
<hkern g1="dollar,five,six,S" 	g2="t" 	k="20" />
<hkern g1="dollar,five,six,S" 	g2="v" 	k="18" />
<hkern g1="dollar,five,six,S" 	g2="w" 	k="8" />
<hkern g1="dollar,five,six,S" 	g2="x" 	k="20" />
<hkern g1="dollar,five,six,S" 	g2="y,yacute,ydieresis" 	k="18" />
<hkern g1="a,h,m,n,agrave" 	g2="T" 	k="90" />
<hkern g1="a,h,m,n,agrave" 	g2="V" 	k="47" />
<hkern g1="a,h,m,n,agrave" 	g2="W" 	k="35" />
<hkern g1="a,h,m,n,agrave" 	g2="Y,Yacute,Ydieresis" 	k="100" />
<hkern g1="a,h,m,n,agrave" 	g2="question" 	k="74" />
<hkern g1="a,h,m,n,agrave" 	g2="quotedbl,quotesingle,registered,quoteleft,quoteright,quotedblleft,quotedblright,trademark" 	k="8" />
<hkern g1="b,o,p,ograve,oslash,thorn" 	g2="T" 	k="102" />
<hkern g1="b,o,p,ograve,oslash,thorn" 	g2="V" 	k="47" />
<hkern g1="b,o,p,ograve,oslash,thorn" 	g2="W" 	k="49" />
<hkern g1="b,o,p,ograve,oslash,thorn" 	g2="Y,Yacute,Ydieresis" 	k="129" />
<hkern g1="b,o,p,ograve,oslash,thorn" 	g2="question" 	k="76" />
<hkern g1="b,o,p,ograve,oslash,thorn" 	g2="quotedbl,quotesingle,registered,quoteleft,quoteright,quotedblleft,quotedblright,trademark" 	k="8" />
<hkern g1="b,o,p,ograve,oslash,thorn" 	g2="comma,period,quotesinglbase,quotedblbase,ellipsis" 	k="12" />
<hkern g1="b,o,p,ograve,oslash,thorn" 	g2="x" 	k="29" />
<hkern g1="c,cent,ccedilla" 	g2="T" 	k="49" />
<hkern g1="c,cent,ccedilla" 	g2="V" 	k="18" />
<hkern g1="c,cent,ccedilla" 	g2="W" 	k="29" />
<hkern g1="c,cent,ccedilla" 	g2="Y,Yacute,Ydieresis" 	k="70" />
<hkern g1="c,cent,ccedilla" 	g2="question" 	k="35" />
<hkern g1="c,cent,ccedilla" 	g2="quotedbl,quotesingle,registered,quoteleft,quoteright,quotedblleft,quotedblright,trademark" 	k="8" />
<hkern g1="e,ae,egrave,eacute,ecircumflex,edieresis,oe" 	g2="T" 	k="82" />
<hkern g1="e,ae,egrave,eacute,ecircumflex,edieresis,oe" 	g2="V" 	k="27" />
<hkern g1="e,ae,egrave,eacute,ecircumflex,edieresis,oe" 	g2="W" 	k="49" />
<hkern g1="e,ae,egrave,eacute,ecircumflex,edieresis,oe" 	g2="Y,Yacute,Ydieresis" 	k="109" />
<hkern g1="e,ae,egrave,eacute,ecircumflex,edieresis,oe" 	g2="question" 	k="53" />
<hkern g1="e,ae,egrave,eacute,ecircumflex,edieresis,oe" 	g2="quotedbl,quotesingle,registered,quoteleft,quoteright,quotedblleft,quotedblright,trademark" 	k="8" />
<hkern g1="e,ae,egrave,eacute,ecircumflex,edieresis,oe" 	g2="asterisk" 	k="20" />
<hkern g1="eth" 	g2="comma,period,quotesinglbase,quotedblbase,ellipsis" 	k="12" />
<hkern g1="f" 	g2="V" 	k="-20" />
<hkern g1="f" 	g2="Y,Yacute,Ydieresis" 	k="-20" />
<hkern g1="f" 	g2="quotedbl,quotesingle,registered,quoteleft,quoteright,quotedblleft,quotedblright,trademark" 	k="-27" />
<hkern g1="f" 	g2="comma,period,quotesinglbase,quotedblbase,ellipsis" 	k="61" />
<hkern g1="f" 	g2="asterisk" 	k="-70" />
<hkern g1="f" 	g2="ampersand" 	k="12" />
<hkern g1="f" 	g2="parenright,bracketright,braceright" 	k="-41" />
<hkern g1="g,j,q" 	g2="T" 	k="66" />
<hkern g1="g,j,q" 	g2="V" 	k="27" />
<hkern g1="g,j,q" 	g2="W" 	k="29" />
<hkern g1="g,j,q" 	g2="Y,Yacute,Ydieresis" 	k="80" />
<hkern g1="g,j,q" 	g2="question" 	k="47" />
<hkern g1="k" 	g2="T" 	k="55" />
<hkern g1="k" 	g2="V" 	k="18" />
<hkern g1="k" 	g2="W" 	k="18" />
<hkern g1="k" 	g2="Y,Yacute,Ydieresis" 	k="59" />
<hkern g1="k" 	g2="a,agrave,aacute,acircumflex,atilde,adieresis,aring,ae" 	k="20" />
<hkern g1="k" 	g2="bullet" 	k="41" />
<hkern g1="k" 	g2="c,d,e,g,o,q,cent,ccedilla,egrave,eacute,ecircumflex,edieresis,oacute,oe" 	k="18" />
<hkern g1="k" 	g2="hyphen,periodcentered,endash,emdash" 	k="20" />
<hkern g1="r" 	g2="T" 	k="33" />
<hkern g1="r" 	g2="V" 	k="8" />
<hkern g1="r" 	g2="W" 	k="18" />
<hkern g1="r" 	g2="Y,Yacute,Ydieresis" 	k="47" />
<hkern g1="r" 	g2="comma,period,quotesinglbase,quotedblbase,ellipsis" 	k="131" />
<hkern g1="r" 	g2="X" 	k="27" />
<hkern g1="s" 	g2="T" 	k="49" />
<hkern g1="s" 	g2="V" 	k="18" />
<hkern g1="s" 	g2="W" 	k="39" />
<hkern g1="s" 	g2="Y,Yacute,Ydieresis" 	k="68" />
<hkern g1="s" 	g2="question" 	k="55" />
<hkern g1="s" 	g2="quotedbl,quotesingle,registered,quoteleft,quoteright,quotedblleft,quotedblright,trademark" 	k="29" />
<hkern g1="s" 	g2="X" 	k="8" />
<hkern g1="t" 	g2="T" 	k="55" />
<hkern g1="t" 	g2="V" 	k="8" />
<hkern g1="t" 	g2="W" 	k="18" />
<hkern g1="t" 	g2="Y,Yacute,Ydieresis" 	k="49" />
<hkern g1="u,z,mu" 	g2="T" 	k="66" />
<hkern g1="u,z,mu" 	g2="V" 	k="27" />
<hkern g1="u,z,mu" 	g2="W" 	k="29" />
<hkern g1="u,z,mu" 	g2="Y,Yacute,Ydieresis" 	k="80" />
<hkern g1="u,z,mu" 	g2="question" 	k="53" />
<hkern g1="v" 	g2="T" 	k="47" />
<hkern g1="v" 	g2="V" 	k="8" />
<hkern g1="v" 	g2="W" 	k="8" />
<hkern g1="v" 	g2="Y,Yacute,Ydieresis" 	k="68" />
<hkern g1="v" 	g2="comma,period,quotesinglbase,quotedblbase,ellipsis" 	k="80" />
<hkern g1="v" 	g2="X" 	k="35" />
<hkern g1="v" 	g2="A,Agrave,Aacute,Acircumflex,Atilde,Adieresis,Aring,AE" 	k="18" />
<hkern g1="w" 	g2="T" 	k="47" />
<hkern g1="w" 	g2="V" 	k="8" />
<hkern g1="w" 	g2="Y,Yacute,Ydieresis" 	k="59" />
<hkern g1="w" 	g2="comma,period,quotesinglbase,quotedblbase,ellipsis" 	k="70" />
<hkern g1="w" 	g2="X" 	k="35" />
<hkern g1="w" 	g2="A,Agrave,Aacute,Acircumflex,Atilde,Adieresis,Aring,AE" 	k="8" />
<hkern g1="x" 	g2="T" 	k="55" />
<hkern g1="x" 	g2="V" 	k="18" />
<hkern g1="x" 	g2="W" 	k="18" />
<hkern g1="x" 	g2="Y,Yacute,Ydieresis" 	k="59" />
<hkern g1="x" 	g2="question" 	k="25" />
<hkern g1="x" 	g2="c,d,e,g,o,q,cent,ccedilla,egrave,eacute,ecircumflex,edieresis,oacute,oe" 	k="29" />
<hkern g1="y,yacute,ydieresis" 	g2="T" 	k="47" />
<hkern g1="y,yacute,ydieresis" 	g2="V" 	k="8" />
<hkern g1="y,yacute,ydieresis" 	g2="W" 	k="8" />
<hkern g1="y,yacute,ydieresis" 	g2="Y,Yacute,Ydieresis" 	k="59" />
<hkern g1="y,yacute,ydieresis" 	g2="question" 	k="25" />
<hkern g1="y,yacute,ydieresis" 	g2="comma,period,quotesinglbase,quotedblbase,ellipsis" 	k="90" />
<hkern g1="y,yacute,ydieresis" 	g2="X" 	k="35" />
<hkern g1="y,yacute,ydieresis" 	g2="A,Agrave,Aacute,Acircumflex,Atilde,Adieresis,Aring,AE" 	k="18" />
<hkern g1="ampersand" 	g2="T" 	k="49" />
<hkern g1="ampersand" 	g2="V" 	k="35" />
<hkern g1="ampersand" 	g2="W" 	k="18" />
<hkern g1="ampersand" 	g2="Y,Yacute,Ydieresis" 	k="76" />
<hkern g1="asterisk" 	g2="A,Agrave,Aacute,Acircumflex,Atilde,Adieresis,Aring,AE" 	k="80" />
<hkern g1="asterisk" 	g2="J" 	k="164" />
<hkern g1="parenleft,bracketleft,braceleft" 	g2="j" 	k="-20" />
<hkern g1="colon,semicolon" 	g2="T" 	k="94" />
<hkern g1="colon,semicolon" 	g2="Y,Yacute,Ydieresis" 	k="80" />
<hkern g1="plus,divide" 	g2="A,Agrave,Aacute,Acircumflex,Atilde,Adieresis,Aring,AE" 	k="27" />
<hkern g1="plus,divide" 	g2="J" 	k="121" />
<hkern g1="plus,divide" 	g2="T" 	k="70" />
<hkern g1="plus,divide" 	g2="V" 	k="18" />
<hkern g1="plus,divide" 	g2="W" 	k="18" />
<hkern g1="plus,divide" 	g2="X" 	k="96" />
<hkern g1="plus,divide" 	g2="Y,Yacute,Ydieresis" 	k="96" />
<hkern g1="plus,divide" 	g2="Z" 	k="74" />
<hkern g1="hyphen,periodcentered,endash,emdash" 	g2="V" 	k="43" />
<hkern g1="hyphen,periodcentered,endash,emdash" 	g2="W" 	k="39" />
<hkern g1="hyphen,periodcentered,endash,emdash" 	g2="X" 	k="39" />
<hkern g1="hyphen,periodcentered,endash,emdash" 	g2="Y,Yacute,Ydieresis" 	k="137" />
<hkern g1="comma,period,quotesinglbase,quotedblbase,ellipsis" 	g2="T" 	k="121" />
<hkern g1="comma,period,quotesinglbase,quotedblbase,ellipsis" 	g2="V" 	k="121" />
<hkern g1="comma,period,quotesinglbase,quotedblbase,ellipsis" 	g2="W" 	k="90" />
<hkern g1="comma,period,quotesinglbase,quotedblbase,ellipsis" 	g2="Y,Yacute,Ydieresis" 	k="145" />
<hkern g1="comma,period,quotesinglbase,quotedblbase,ellipsis" 	g2="U,Ugrave,Uacute,Ucircumflex,Udieresis" 	k="45" />
<hkern g1="comma,period,quotesinglbase,quotedblbase,ellipsis" 	g2="c,d,e,g,o,q,cent,ccedilla,egrave,eacute,ecircumflex,edieresis,oacute,oe" 	k="12" />
<hkern g1="comma,period,quotesinglbase,quotedblbase,ellipsis" 	g2="f,uniFB01,uniFB02,uniFB03,uniFB04" 	k="20" />
<hkern g1="comma,period,quotesinglbase,quotedblbase,ellipsis" 	g2="t" 	k="20" />
<hkern g1="comma,period,quotesinglbase,quotedblbase,ellipsis" 	g2="v" 	k="80" />
<hkern g1="comma,period,quotesinglbase,quotedblbase,ellipsis" 	g2="w" 	k="70" />
<hkern g1="comma,period,quotesinglbase,quotedblbase,ellipsis" 	g2="y,yacute,ydieresis" 	k="90" />
<hkern g1="questiondown" 	g2="j" 	k="-61" />
<hkern g1="quotedbl,quotesingle,quoteleft,quoteright,quotedblleft,quotedblright" 	g2="A,Agrave,Aacute,Acircumflex,Atilde,Adieresis,Aring,AE" 	k="76" />
<hkern g1="quotedbl,quotesingle,quoteleft,quoteright,quotedblleft,quotedblright" 	g2="J" 	k="172" />
<hkern g1="quotedbl,quotesingle,quoteleft,quoteright,quotedblleft,quotedblright" 	g2="C,G,O,Q,Ccedilla,Ograve,Oacute,Ocircumflex,Otilde,Odieresis,Oslash,OE" 	k="12" />
<hkern g1="quotedbl,quotesingle,quoteleft,quoteright,quotedblleft,quotedblright" 	g2="s" 	k="74" />
</font>
</defs></svg> 