<?xml version="1.0" standalone="no"?>
<!DOCTYPE svg PUBLIC "-//W3C//DTD SVG 1.1//EN" "http://www.w3.org/Graphics/SVG/1.1/DTD/svg11.dtd" >
<svg xmlns="http://www.w3.org/2000/svg">
<metadata></metadata>
<defs>
<font id="proxima_nova_rgbold" horiz-adv-x="1400" >
<font-face units-per-em="2048" ascent="1618" descent="-430" />
<missing-glyph horiz-adv-x="526" />
<glyph horiz-adv-x="0" />
<glyph horiz-adv-x="682" />
<glyph unicode=" "  horiz-adv-x="526" />
<glyph unicode="&#x09;" horiz-adv-x="526" />
<glyph unicode="&#xa0;" horiz-adv-x="526" />
<glyph unicode="!" horiz-adv-x="522" d="M98 143q0 68 48.5 117t115.5 49q68 0 117 -49.5t49 -116.5q0 -66 -49.5 -114.5t-116.5 -48.5t-115.5 48.5t-48.5 114.5zM104 1366h314l-41 -920h-230z" />
<glyph unicode="&#x22;" horiz-adv-x="831" d="M90 1245q0 59 41 100t100 41q57 0 99.5 -41.5t42.5 -99.5q0 -17 -21 -136.5t-42 -230.5l-21 -110h-115q-84 438 -84 477zM461 1245q0 59 41.5 100t99.5 41t99.5 -41t41.5 -100q0 -17 -21 -136.5t-42 -230.5l-21 -110h-114q-84 438 -84 477z" />
<glyph unicode="#" horiz-adv-x="1265" d="M35 348l53 166h201l110 338h-198l51 164h205l114 350h193l-115 -350h193l114 350h195l-119 -350h199l-47 -164h-207l-113 -338h207l-51 -166h-211l-115 -348h-194l118 348h-194l-117 -348h-192l116 348h-196zM481 514h191l112 338h-192z" />
<glyph unicode="$" horiz-adv-x="1257" d="M61 193l160 227q134 -141 326 -176v317q-61 15 -106.5 29t-100.5 37.5t-93.5 53.5t-72.5 70.5t-51 96t-17 123.5q0 159 119 274.5t322 136.5v191h192v-195q249 -27 418 -182l-162 -217q-103 95 -256 133v-283q53 -13 92.5 -25t89.5 -31.5t85.5 -41t72.5 -53t59.5 -68.5 t37 -87t14.5 -109q0 -176 -116 -293.5t-335 -140.5v-185h-192v185q-298 25 -486 213zM406 993q0 -41 35.5 -67t105.5 -49v247q-67 -9 -104 -43.5t-37 -87.5zM739 240q75 14 114.5 53.5t39.5 91.5q0 47 -38.5 75.5t-115.5 53.5v-274z" />
<glyph unicode="%" horiz-adv-x="1552" d="M53 1044q0 147 96 244.5t250 97.5q156 0 252.5 -97.5t96.5 -244.5q0 -145 -96.5 -241t-252.5 -96q-154 0 -250 96t-96 241zM238 1044q0 -80 45.5 -129t115.5 -49q72 0 118 48.5t46 129.5q0 83 -46 133t-118 50q-70 0 -115.5 -50t-45.5 -133zM266 0l873 1366h155 l-874 -1366h-154zM805 313q0 147 96 245.5t250 98.5t251 -98.5t97 -245.5q0 -145 -97 -241.5t-251 -96.5t-250 96.5t-96 241.5zM989 313q0 -82 45 -130t117 -48t118 48t46 130q0 83 -46 133t-118 50t-117 -49.5t-45 -133.5z" />
<glyph unicode="&#x26;" horiz-adv-x="1325" d="M49 371q0 75 23 137t66.5 109t92 81.5t113.5 67.5q-90 164 -90 293q0 139 110 233t279 94q151 0 254.5 -77.5t103.5 -210.5q0 -60 -19.5 -112t-48 -87.5t-77 -70.5t-88 -56t-100.5 -49q71 -96 116 -148q58 -73 117 -141q83 131 125 266l207 -96q-89 -198 -191 -328 q70 -77 265 -276h-332q-52 49 -103 102q-166 -127 -372 -127q-197 0 -324 103t-127 293zM326 395q0 -97 61.5 -156t149.5 -59q100 0 196 70q-107 119 -151 174q-91 112 -138 180q-118 -84 -118 -209zM512 1053q0 -80 59 -185q99 48 152 97t53 118q0 53 -34.5 84t-86.5 31 q-61 0 -102 -40.5t-41 -104.5z" />
<glyph unicode="'" horiz-adv-x="460" d="M90 1245q0 59 41 100t100 41q57 0 99.5 -41.5t42.5 -99.5q0 -17 -21 -136.5t-42 -230.5l-21 -110h-115q-84 438 -84 477z" />
<glyph unicode="(" horiz-adv-x="608" d="M84 498q0 248 88 493t238 412l161 -123q-107 -194 -156.5 -376.5t-49.5 -405.5t50 -406t156 -373l-161 -127q-150 167 -238 412t-88 494z" />
<glyph unicode=")" horiz-adv-x="610" d="M37 -281q107 189 157 372.5t50 406.5q0 224 -50 406.5t-157 375.5l162 123q150 -167 238.5 -412t88.5 -493t-88.5 -493.5t-238.5 -412.5z" />
<glyph unicode="*" horiz-adv-x="718" d="M51 965l199 104l-199 102l66 111l188 -121l-10 225h129l-10 -225l188 121l66 -111l-199 -102l199 -104l-66 -111l-188 121l10 -225h-129l10 225l-188 -121z" />
<glyph unicode="+" horiz-adv-x="1032" d="M59 610v162h369v402h178v-402h367v-162h-367v-415h-178v415h-369z" />
<glyph unicode="," horiz-adv-x="522" d="M96 145q0 67 48 115.5t114 48.5q76 0 129 -56.5t53 -152.5q0 -113 -56.5 -212.5t-154.5 -168.5l-112 93q51 27 98 83.5t59 108.5q-18 -6 -38 -6q-59 0 -99.5 41.5t-40.5 105.5z" />
<glyph unicode="-" horiz-adv-x="614" d="M61 385v221h492v-221h-492z" />
<glyph unicode="." horiz-adv-x="526" d="M96 143q0 67 49 116.5t117 49.5t117 -49.5t49 -116.5t-49 -116.5t-117 -49.5t-117 49.5t-49 116.5z" />
<glyph unicode="/" horiz-adv-x="673" d="M0 -41l485 1448h189l-486 -1448h-188z" />
<glyph unicode="0" horiz-adv-x="1269" d="M70 682q0 136 34 259t101 224t178 161t252 60t252 -60t178 -161t101 -224t34 -259t-34 -259.5t-101 -225t-178 -162t-252 -60.5t-252 60.5t-178 162t-101 225t-34 259.5zM367 682q0 -132 25.5 -229.5t87 -158.5t155.5 -61t155.5 61t87 158.5t25.5 229.5t-25 228.5 t-86.5 157t-156.5 60.5q-71 0 -124 -33.5t-83.5 -95.5t-45.5 -140.5t-15 -176.5z" />
<glyph unicode="1" horiz-adv-x="841" d="M23 934l430 432h254v-1366h-291v991l-228 -231z" />
<glyph unicode="2" horiz-adv-x="1228" d="M66 1163q96 111 236 167t290 56q147 0 265 -51.5t187.5 -151.5t69.5 -233q0 -167 -132.5 -328t-414.5 -366h557v-256h-1028v229q153 113 249 186t185.5 146.5t138 121t86 97t51 88.5t13.5 82q0 86 -64.5 132t-156.5 46q-217 0 -367 -157z" />
<glyph unicode="3" horiz-adv-x="1202" d="M41 195l154 194q68 -72 170 -114t204 -42q122 0 190 48.5t68 126.5q0 82 -65.5 119.5t-208.5 37.5q-130 0 -170 -4v262q25 -2 170 -2q118 0 186 36.5t68 109.5q0 78 -71 119.5t-183 41.5q-201 0 -348 -141l-146 182q193 217 523 217q239 0 377.5 -99.5t138.5 -270.5 q0 -122 -88 -205.5t-211 -105.5q54 -5 108.5 -28.5t102.5 -63t78 -101.5t30 -135q0 -179 -147 -290.5t-391 -111.5q-179 0 -319 61t-220 159z" />
<glyph unicode="4" horiz-adv-x="1222" d="M51 283v229l543 854h401v-827h176v-256h-176v-283h-290v283h-654zM336 539h369v569z" />
<glyph unicode="5" horiz-adv-x="1245" d="M100 180l162 203q144 -150 363 -150q118 0 186 58t68 145q0 92 -65.5 147.5t-180.5 55.5q-170 0 -287 -111l-203 56v782h938v-256h-647v-334q52 52 131 83.5t170 31.5q117 0 216 -52t161 -154.5t62 -235.5q0 -216 -149.5 -345t-397.5 -129q-338 0 -527 205z" />
<glyph unicode="6" horiz-adv-x="1245" d="M70 680q0 208 74.5 366.5t219.5 249t343 90.5q242 0 403 -141l-131 -223q-58 55 -121 80.5t-151 25.5q-149 0 -245.5 -111t-96.5 -276q0 -18 2 -28q50 73 146.5 124.5t203.5 51.5q126 0 230.5 -49.5t170.5 -152.5t66 -243q0 -202 -147 -335.5t-378 -133.5 q-151 0 -266.5 55.5t-184.5 153.5t-103.5 223t-34.5 273zM367 510q5 -52 22 -99t48.5 -88t84.5 -65.5t121 -24.5q111 0 177.5 62t66.5 139q0 101 -73 153t-179 52q-77 0 -148 -34t-120 -95z" />
<glyph unicode="7" horiz-adv-x="1116" d="M49 1110v256h1026v-203l-508 -1163h-319l489 1110h-688z" />
<glyph unicode="8" horiz-adv-x="1241" d="M72 354q0 120 82 213t211 138q-271 94 -271 321q0 93 46 164.5t123 113t168 62t190 20.5q78 0 151.5 -12.5t142 -40.5t120 -68.5t82 -102t30.5 -136.5q0 -226 -270 -321q128 -45 210 -138t82 -213q0 -122 -78.5 -210t-200 -128.5t-269.5 -40.5q-110 0 -207.5 24 t-174.5 69.5t-122 119.5t-45 166zM367 395q0 -72 72.5 -117t181.5 -45q107 0 180 45t73 117q0 40 -27 73.5t-69 54t-81.5 33t-75.5 17.5q-37 -5 -77 -17.5t-81.5 -33t-68.5 -54t-27 -73.5zM389 977q0 -35 23.5 -64t62 -47.5t74 -29.5t72.5 -17q37 6 72.5 17t73 29.5 t60.5 47.5t23 64q0 71 -63.5 111t-165.5 40q-104 0 -168 -40t-64 -111z" />
<glyph unicode="9" horiz-adv-x="1245" d="M63 920q0 202 146 335.5t377 133.5q151 0 266.5 -55.5t185 -153.5t104 -223t34.5 -273q0 -208 -74.5 -367t-219.5 -249.5t-343 -90.5q-243 0 -402 142l129 223q58 -54 121.5 -80t151.5 -26q108 0 187.5 56.5t117 142t37.5 186.5v30q-53 -74 -149.5 -125t-203.5 -51 q-126 0 -230 49.5t-169.5 152.5t-65.5 243zM358 930q0 -68 37.5 -116t92.5 -68.5t122 -20.5q78 0 149 34t120 95q-5 52 -22.5 99t-49 88t-84.5 65t-121 24q-111 0 -177.5 -61.5t-66.5 -138.5z" />
<glyph unicode=":" horiz-adv-x="503" d="M96 143q0 67 49 116.5t117 49.5t117 -49.5t49 -116.5t-49 -116.5t-117 -49.5t-117 49.5t-49 116.5zM96 838q0 68 49 117t117 49t117 -49t49 -117t-49 -117t-117 -49t-117 49t-49 117z" />
<glyph unicode=";" horiz-adv-x="522" d="M96 154q0 67 48 115t114 48q76 0 129 -57t53 -154q0 -111 -56.5 -210t-154.5 -168l-112 92q51 27 98 83.5t59 108.5q-18 -6 -38 -6q-59 0 -99.5 42t-40.5 106zM96 840q0 67 49 115.5t117 48.5t117 -48.5t49 -115.5q0 -68 -49.5 -118t-116.5 -50t-116.5 50t-49.5 118z" />
<glyph unicode="&#x3c;" horiz-adv-x="1032" d="M59 592v188l914 408v-193l-727 -311l727 -307v-193z" />
<glyph unicode="=" horiz-adv-x="1032" d="M59 412v159h914v-159h-914zM59 797v161h914v-161h-914z" />
<glyph unicode="&#x3e;" horiz-adv-x="1032" d="M59 184v193l727 307l-727 311v193l914 -408v-188z" />
<glyph unicode="?" horiz-adv-x="933" d="M18 1188q81 96 198.5 147t250.5 51q196 0 311 -89.5t115 -233.5q0 -61 -19 -112t-49 -87t-66.5 -66.5t-73 -56.5t-66.5 -51t-49 -55.5t-19 -65.5q0 -55 39 -86l-225 -65q-68 74 -68 182q0 67 31 121t75.5 89t88.5 65t75 64.5t31 72.5q0 51 -41 83.5t-121 32.5 q-149 0 -252 -127zM297 143q0 67 49.5 116.5t116.5 49.5t116.5 -49.5t49.5 -116.5t-49.5 -116.5t-116.5 -49.5t-116.5 49.5t-49.5 116.5z" />
<glyph unicode="@" horiz-adv-x="1603" d="M72 500q0 160 67.5 309.5t178.5 258t260.5 174t306.5 65.5q144 0 266 -50t204.5 -135t128.5 -199.5t46 -242.5q0 -123 -38 -223t-98.5 -160t-130.5 -91.5t-139 -31.5q-86 0 -136 43.5t-62 108.5l-2 12q-54 -76 -133 -120t-162 -44q-147 0 -232.5 96t-85.5 248 q0 133 66 250t172.5 184.5t224.5 67.5q90 0 156 -37.5t100 -99.5l23 108h231l-104 -499q-6 -30 -6 -50q0 -45 20.5 -68.5t54.5 -23.5q32 0 64.5 19.5t62 57.5t48 104t18.5 149q0 245 -154 396t-411 151q-142 0 -275.5 -59.5t-231.5 -158t-157 -231.5t-59 -274 q0 -159 74 -289.5t206.5 -205.5t296.5 -75q194 0 373 113l43 -61q-200 -129 -426 -129q-183 0 -332 85t-233 232t-84 326zM551 539q0 -81 45.5 -131t122.5 -50q130 0 227 136l51 237q-18 41 -60.5 73t-105.5 32q-119 0 -199.5 -90t-80.5 -207z" />
<glyph unicode="A" d="M-8 0l526 1366h365l526 -1366h-330l-86 231h-585l-86 -231h-330zM487 487h426l-213 588z" />
<glyph unicode="B" horiz-adv-x="1357" d="M135 0v1366h719q94 0 170.5 -28.5t124 -77.5t73 -111t25.5 -131q0 -123 -67 -207.5t-168 -105.5q111 -17 186.5 -112t75.5 -222q0 -162 -104 -266.5t-293 -104.5h-742zM426 256h377q82 0 128 41.5t46 114.5q0 67 -46 111t-128 44h-377v-311zM426 823h365q73 0 116 39 t43 105q0 64 -43 103.5t-116 39.5h-365v-287z" />
<glyph unicode="C" horiz-adv-x="1406" d="M70 682q0 207 96 369t262 250t371 88q108 0 200.5 -27.5t161 -76t119 -105t88.5 -125.5l-250 -123q-44 86 -131 142t-188 56q-187 0 -308.5 -127t-121.5 -321t121.5 -321.5t308.5 -127.5q101 0 188 56.5t131 142.5l250 -121q-39 -69 -88.5 -125.5t-118.5 -105.5 t-161.5 -77t-200.5 -28q-153 0 -287.5 52t-232 143.5t-153.5 224t-56 287.5z" />
<glyph unicode="D" horiz-adv-x="1470" d="M135 0v1366h539q322 0 523.5 -188t201.5 -494q0 -204 -91.5 -360t-255.5 -240t-376 -84h-541zM426 256h248q131 0 230 59t148.5 155t49.5 214q0 187 -112 306.5t-314 119.5h-250v-854z" />
<glyph unicode="E" horiz-adv-x="1193" d="M135 0v1366h967v-256h-676v-287h661v-256h-661v-311h676v-256h-967z" />
<glyph unicode="F" horiz-adv-x="1169" d="M135 0v1366h967v-256h-676v-287h661v-256h-661v-567h-291z" />
<glyph unicode="G" horiz-adv-x="1474" d="M70 682q0 210 99 373t264 248.5t366 85.5q102 0 192 -24.5t158.5 -68.5t120.5 -96.5t92 -116.5l-240 -131q-51 77 -136 127.5t-187 50.5q-187 0 -308.5 -127t-121.5 -321t121.5 -321.5t308.5 -127.5q85 0 163.5 31.5t124.5 73.5v164h-360v254h651v-525 q-228 -256 -579 -256q-201 0 -366 86t-264 248.5t-99 372.5z" />
<glyph unicode="H" horiz-adv-x="1497" d="M135 0v1366h291v-537h645v537h293v-1366h-293v575h-645v-575h-291z" />
<glyph unicode="I" horiz-adv-x="561" d="M135 0v1366h291v-1366h-291z" />
<glyph unicode="J" horiz-adv-x="995" d="M12 111l127 221q103 -99 217 -99q96 0 154.5 60.5t58.5 159.5v913h293v-917q0 -233 -131.5 -353.5t-349.5 -120.5q-230 0 -369 136z" />
<glyph unicode="K" horiz-adv-x="1302" d="M135 0v1366h291v-608l483 608h359l-543 -641l580 -725h-359l-414 549l-106 -129v-420h-291z" />
<glyph unicode="L" horiz-adv-x="1054" d="M123 0v1366h293v-1110h577v-256h-870z" />
<glyph unicode="M" horiz-adv-x="1751" d="M135 0v1366h408l331 -854l332 854h410v-1366h-293v985l-385 -985h-127l-385 985v-985h-291z" />
<glyph unicode="N" horiz-adv-x="1492" d="M135 0v1366h299l633 -858v858h291v-1366h-281l-651 891v-891h-291z" />
<glyph unicode="O" horiz-adv-x="1566" d="M70 682q0 152 53.5 284t147.5 224.5t227 145.5t286 53q204 0 366.5 -90t254.5 -252t92 -365t-92 -365t-254.5 -252t-366.5 -90q-153 0 -286 53t-227 145.5t-147.5 224.5t-53.5 284zM369 682q0 -194 114 -321.5t301 -127.5q186 0 300 127.5t114 321.5q0 195 -114 321.5 t-300 126.5q-188 0 -301.5 -126.5t-113.5 -321.5z" />
<glyph unicode="P" horiz-adv-x="1280" d="M135 0v1366h639q108 0 196.5 -35t145 -95t87 -139.5t30.5 -170.5q0 -90 -30.5 -169t-87.5 -139.5t-145 -95.5t-196 -35h-348v-487h-291zM426 743h307q88 0 145.5 50t57.5 133q0 84 -57.5 134t-145.5 50h-307v-367z" />
<glyph unicode="Q" horiz-adv-x="1566" d="M70 682q0 152 53.5 284t147.5 224.5t227 145.5t286 53q204 0 366.5 -90t254.5 -252t92 -365q0 -286 -178 -483l100 -117l-202 -166l-111 127q-149 -68 -322 -68q-153 0 -286 53t-227 145.5t-147.5 224.5t-53.5 284zM369 682q0 -194 114 -321.5t301 -127.5q71 0 142 23 l-150 176l203 166l149 -176q70 112 70 260q0 195 -114 321.5t-300 126.5q-188 0 -301.5 -126.5t-113.5 -321.5z" />
<glyph unicode="R" horiz-adv-x="1316" d="M135 0v1366h639q210 0 335.5 -123t125.5 -317q0 -86 -26 -159t-70 -121.5t-95.5 -80t-109.5 -45.5l309 -520h-336l-268 485h-213v-485h-291zM426 741h307q88 0 145.5 50.5t57.5 136.5q0 83 -57.5 132.5t-145.5 49.5h-307v-369z" />
<glyph unicode="S" horiz-adv-x="1228" d="M41 193l160 227q79 -83 190.5 -135t243.5 -52q115 0 176 43.5t61 108.5q0 42 -34 72.5t-89 47t-125.5 35t-144.5 35t-144.5 48t-125.5 73t-89 112.5t-34 163q0 176 141.5 295.5t376.5 119.5q328 0 533 -190l-162 -217q-81 74 -185 111.5t-212 37.5q-91 0 -142 -36.5 t-51 -98.5q0 -38 33.5 -66t89 -43.5t126 -34t143.5 -35.5t143.5 -49.5t126 -75t89 -113.5t33.5 -162q0 -196 -140.5 -317.5t-405.5 -121.5q-364 0 -582 218z" />
<glyph unicode="T" horiz-adv-x="1191" d="M51 1110v256h1090v-256h-398v-1110h-292v1110h-400z" />
<glyph unicode="U" horiz-adv-x="1503" d="M135 547v819h295v-811q0 -146 83.5 -234t238.5 -88q154 0 236.5 87.5t82.5 234.5v811h297v-819q0 -128 -38.5 -232t-113 -180.5t-193 -118t-271.5 -41.5q-303 0 -460 155t-157 417z" />
<glyph unicode="V" d="M-8 1366h330l378 -1049l379 1049h330l-526 -1366h-365z" />
<glyph unicode="W" horiz-adv-x="1880" d="M2 1366h326l239 -987l260 987h228l258 -987l239 987h326l-389 -1366h-309l-240 938l-238 -938h-309z" />
<glyph unicode="X" horiz-adv-x="1368" d="M-6 0l495 700l-464 666h346l313 -467l309 467h350l-464 -664l495 -702h-348l-342 500l-344 -500h-346z" />
<glyph unicode="Y" horiz-adv-x="1320" d="M-8 1366h332l338 -547l337 547h330l-522 -807v-559h-291v559z" />
<glyph unicode="Z" horiz-adv-x="1212" d="M86 0v236l645 874h-645v256h1026v-233l-645 -877h659v-256h-1040z" />
<glyph unicode="[" horiz-adv-x="573" d="M96 -389v1778h443v-175h-254v-1429h254v-174h-443z" />
<glyph unicode="\" horiz-adv-x="673" d="M0 1407h188l486 -1448h-189z" />
<glyph unicode="]" horiz-adv-x="573" d="M37 -215h254v1429h-254v175h440v-1778h-440v174z" />
<glyph unicode="^" horiz-adv-x="903" d="M39 682l319 684h191l315 -684h-192l-221 506l-220 -506h-192z" />
<glyph unicode="_" horiz-adv-x="1155" d="M-6 -82h1167v-174h-1167v174z" />
<glyph unicode="`" horiz-adv-x="514" d="M0 1434h240l274 -295h-182z" />
<glyph unicode="a" horiz-adv-x="1112" d="M68 303q0 67 20.5 122.5t54 91.5t79 60.5t92.5 35t96 10.5q100 0 182 -31.5t131 -89.5v125q0 75 -59.5 120.5t-157.5 45.5q-159 0 -285 -117l-102 182q173 156 432 156q90 0 164.5 -19t137 -61t97.5 -117t35 -178v-639h-262v104q-51 -61 -133.5 -95t-179.5 -34 q-61 0 -120.5 21t-109.5 60t-81 103.5t-31 143.5zM328 299q0 -68 53 -107.5t133 -39.5q65 0 121.5 22t87.5 64v122q-32 42 -88.5 65.5t-120.5 23.5q-79 0 -132.5 -41t-53.5 -109z" />
<glyph unicode="b" horiz-adv-x="1200" d="M129 0v1366h260v-504q57 75 136 113.5t169 38.5q193 0 316 -140.5t123 -377.5q0 -243 -123 -382t-316 -139q-184 0 -305 152v-127h-260zM389 317q34 -48 97.5 -79t127.5 -31q112 0 181 80t69 209q0 128 -69 207t-181 79q-64 0 -127.5 -32t-97.5 -82v-351z" />
<glyph unicode="c" horiz-adv-x="1021" d="M66 496q0 227 148 372.5t376 145.5q260 0 391 -178l-170 -160q-71 106 -209 106q-119 0 -193.5 -79t-74.5 -207q0 -129 74.5 -209t193.5 -80q134 0 209 108l170 -159q-57 -78 -154 -129.5t-237 -51.5q-228 0 -376 146.5t-148 374.5z" />
<glyph unicode="d" horiz-adv-x="1200" d="M66 496q0 237 122.5 377.5t315.5 140.5q90 0 169 -38.5t136 -113.5v504h262v-1366h-262v127q-121 -152 -305 -152q-192 0 -315 139t-123 382zM334 496q0 -129 70 -209t182 -80q65 0 128 31.5t95 80.5v351q-32 49 -95 80.5t-128 31.5q-112 0 -182 -79t-70 -207z" />
<glyph unicode="e" horiz-adv-x="1132" d="M66 496q0 143 65 261t183 187.5t264 69.5q222 0 358.5 -150.5t136.5 -392.5v-61h-735q14 -96 89 -159t196 -63q66 0 141.5 26.5t120.5 70.5l116 -172q-72 -66 -180.5 -102t-226.5 -36q-229 0 -378.5 143.5t-149.5 377.5zM336 590h487q-3 38 -18 73t-42.5 67t-75.5 51.5 t-109 19.5q-58 0 -104 -19t-74 -50.5t-44 -67t-20 -74.5z" />
<glyph unicode="f" horiz-adv-x="669" d="M25 762v227h163v41q0 166 90.5 261t241.5 95q176 0 258 -94l-98 -157q-42 39 -109 39q-57 0 -89.5 -37t-32.5 -107v-41h200v-227h-200v-762h-261v762h-163z" />
<glyph unicode="g" horiz-adv-x="1198" d="M66 510q0 237 121.5 370.5t314.5 133.5q188 0 307 -152v127h260v-923q0 -108 -32.5 -192t-84.5 -135t-124 -83.5t-143 -44.5t-150 -12q-131 0 -233 34t-193 113l116 186q112 -120 310 -120q51 0 96 12t87 39t66.5 79t24.5 124v96q-123 -154 -307 -154q-192 0 -314 131.5 t-122 370.5zM334 510q0 -126 69 -199t183 -73q62 0 125.5 32t97.5 80v322q-34 47 -97 78.5t-126 31.5q-114 0 -183 -73t-69 -199z" />
<glyph unicode="h" horiz-adv-x="1187" d="M129 0v1366h262v-504q54 63 144 107.5t202 44.5q160 0 241 -82t81 -230v-702h-260v602q0 98 -47 139t-136 41q-71 0 -130 -33t-95 -81v-668h-262z" />
<glyph unicode="i" horiz-adv-x="518" d="M104 1251q0 64 45.5 109t108.5 45q65 0 110.5 -45t45.5 -109t-45.5 -109.5t-110.5 -45.5q-63 0 -108.5 45.5t-45.5 109.5zM129 0v989h260v-989h-260z" />
<glyph unicode="j" horiz-adv-x="518" d="M-209 -330l70 193q60 -51 133 -51q62 0 98.5 40.5t36.5 120.5v1016h260v-1016q0 -174 -89 -274t-263 -100q-90 0 -139.5 15.5t-106.5 55.5zM104 1251q0 64 45.5 109t108.5 45q65 0 110.5 -45t45.5 -109t-45.5 -109.5t-110.5 -45.5q-63 0 -108.5 45.5t-45.5 109.5z" />
<glyph unicode="k" horiz-adv-x="1097" d="M129 0v1366h260v-817l375 440h319l-391 -448l404 -541h-326l-262 381l-119 -127v-254h-260z" />
<glyph unicode="l" horiz-adv-x="518" d="M129 0v1366h260v-1366h-260z" />
<glyph unicode="m" horiz-adv-x="1746" d="M129 0v989h260v-127q40 53 130.5 102.5t193.5 49.5q107 0 177 -46.5t97 -131.5q47 72 140 125t200 53q139 0 215 -75t76 -224v-715h-262v625q0 73 -36 115t-112 42q-63 0 -117.5 -34t-86.5 -80v-668h-263v625q0 157 -147 157q-62 0 -116.5 -34t-88.5 -80v-668h-260z" />
<glyph unicode="n" horiz-adv-x="1185" d="M129 0v989h260v-127q54 63 144.5 107.5t201.5 44.5q160 0 242 -83.5t82 -232.5v-698h-262v598q0 98 -47.5 141t-135.5 43q-71 0 -129 -32.5t-96 -81.5v-668h-260z" />
<glyph unicode="o" horiz-adv-x="1177" d="M66 496q0 142 61.5 258.5t182 188t278.5 71.5q159 0 280 -71.5t182.5 -188t61.5 -258.5t-61.5 -259.5t-182.5 -189.5t-280 -72q-158 0 -278.5 72t-182 189.5t-61.5 259.5zM336 496q0 -122 67.5 -205.5t184.5 -83.5q118 0 186 83t68 206q0 121 -68 203.5t-186 82.5 q-117 0 -184.5 -82.5t-67.5 -203.5z" />
<glyph unicode="p" horiz-adv-x="1193" d="M129 -377v1366h260v-125q119 150 305 150q195 0 317 -138t122 -380t-122 -381.5t-317 -139.5q-183 0 -305 152v-504h-260zM389 322q33 -48 97 -81.5t126 -33.5q112 0 182 80t70 209q0 128 -70 207t-182 79q-63 0 -126 -31.5t-97 -80.5v-348z" />
<glyph unicode="q" horiz-adv-x="1193" d="M63 496q0 242 121.5 380t315.5 138q186 0 305 -150v125h262v-1366h-262v504q-119 -152 -305 -152q-194 0 -315.5 139.5t-121.5 381.5zM332 496q0 -129 69.5 -209t180.5 -80q63 0 126.5 33.5t96.5 81.5v348q-32 49 -95 80.5t-128 31.5q-111 0 -180.5 -79.5t-69.5 -206.5z " />
<glyph unicode="r" horiz-adv-x="737" d="M129 0v989h260v-133q57 68 142.5 113t173.5 45v-254q-27 6 -72 6q-66 0 -139 -33.5t-105 -79.5v-653h-260z" />
<glyph unicode="s" horiz-adv-x="976" d="M43 129l113 188q58 -55 155.5 -96t186.5 -41q82 0 124 28.5t42 76.5q0 32 -32.5 53t-84 33t-114 23.5t-125 31.5t-114 51t-84 88.5t-32.5 136.5q0 131 108 221.5t297 90.5q228 0 398 -135l-105 -185q-47 49 -126.5 82t-166.5 33q-70 0 -112.5 -27t-42.5 -69 q0 -26 25 -43.5t66.5 -27t94 -21.5t108 -23.5t108 -36t94 -56.5t66.5 -87t25 -127q0 -140 -114.5 -228t-315.5 -88q-129 0 -246.5 41t-195.5 113z" />
<glyph unicode="t" horiz-adv-x="692" d="M18 762v227h164v271h260v-271h201v-227h-201v-445q0 -48 24 -79t66 -31q28 0 54 9t37 22l55 -199q-71 -64 -217 -64q-136 0 -207.5 69.5t-71.5 203.5v514h-164z" />
<glyph unicode="u" horiz-adv-x="1185" d="M129 287v702h260v-600q0 -98 47 -140t135 -42q70 0 129 32t97 80v670h260v-989h-260v125q-59 -64 -147.5 -107t-200.5 -43q-159 0 -239.5 82t-80.5 230z" />
<glyph unicode="v" horiz-adv-x="1050" d="M-12 989h278l258 -688l260 688h279l-397 -989h-281z" />
<glyph unicode="w" horiz-adv-x="1576" d="M0 989h270l185 -665l217 665h231l217 -665l185 665h272l-301 -989h-279l-209 674l-208 -674h-279z" />
<glyph unicode="x" horiz-adv-x="1032" d="M0 0l352 508l-332 481h291l205 -303l203 303h291l-330 -481l352 -508h-291l-225 334l-227 -334h-289z" />
<glyph unicode="y" horiz-adv-x="1050" d="M-12 989h278l258 -688l260 688h279l-465 -1151q-52 -131 -144 -183.5t-231 -55.5q-77 0 -127 16l37 231q37 -16 82 -16q103 0 137 72l37 86z" />
<glyph unicode="z" horiz-adv-x="980" d="M86 0v195l446 567h-446v227h801v-186l-455 -576h463v-227h-809z" />
<glyph unicode="{" horiz-adv-x="589" d="M8 426v147q52 0 79.5 39t27.5 99v350q0 147 93.5 237.5t223.5 90.5h123v-175h-123q-55 0 -92 -41.5t-37 -109.5v-379q0 -144 -94 -184q94 -40 94 -185v-376q0 -68 37 -111t92 -43h123v-174h-123q-130 0 -223.5 89.5t-93.5 236.5v352q0 60 -27.5 98.5t-79.5 38.5z" />
<glyph unicode="|" horiz-adv-x="442" d="M135 -41v1448h174v-1448h-174z" />
<glyph unicode="}" horiz-adv-x="589" d="M35 -215h125q54 0 91.5 43t37.5 111v376q0 145 94 185q-94 40 -94 184v379q0 67 -37.5 109t-91.5 42h-125v175h125q129 0 223 -90.5t94 -237.5v-350q0 -60 27.5 -99t79.5 -39v-147q-52 0 -79.5 -38.5t-27.5 -98.5v-352q0 -146 -94 -236t-223 -90h-125v174z" />
<glyph unicode="~" horiz-adv-x="1044" d="M53 864q7 81 17.5 146.5t33 134t54.5 114.5t83 75.5t117 29.5q54 0 95 -20t65.5 -52t42 -71t30 -77.5t24.5 -70.5t30 -52t43 -20q99 0 127 365l176 -20q-7 -83 -17 -148t-32.5 -134t-53.5 -115t-82.5 -75.5t-117.5 -29.5q-54 0 -95 20t-65.5 51.5t-42 70t-30 77t-24.5 70 t-30 51.5t-43 20q-98 0 -127 -360z" />
<glyph unicode="&#xa2;" horiz-adv-x="1021" d="M66 496q0 201 118.5 340t309.5 170v151h188v-149q197 -31 299 -172l-170 -160q-51 72 -129 96v-555q76 23 129 98l170 -159q-46 -64 -121.5 -111t-177.5 -61v-189h-188v189q-191 31 -309.5 170.5t-118.5 341.5zM334 496q0 -96 43 -167t117 -102v535q-75 -31 -117.5 -101 t-42.5 -165z" />
<glyph unicode="&#xa3;" horiz-adv-x="1126" d="M47 551v166h139q-94 129 -94 246q0 94 43.5 175t114.5 134.5t160 83.5t180 30q349 0 475 -247l-231 -135q-25 65 -82 105t-127 40q-92 0 -153.5 -53t-61.5 -138q0 -30 4.5 -55.5t18.5 -55t20 -41t30 -48t27 -41.5h295v-166h-230q0 -6 1.5 -19.5t1.5 -19.5 q0 -69 -38 -130.5t-96 -96.5q50 16 101 16q62 0 140 -34t126 -34q61 0 107 21.5t69 52.5l117 -231q-103 -103 -303 -103q-76 0 -142 22.5t-122 45t-107 22.5q-97 0 -237 -77l-99 198q102 48 162.5 114.5t60.5 141.5q0 51 -24 111h-246z" />
<glyph unicode="&#xa5;" horiz-adv-x="1320" d="M-8 1366h332l338 -547l337 547h330l-418 -645h365v-162h-469v-164h469v-159h-469v-236h-291v236h-467v159h467v164h-467v162h361z" />
<glyph unicode="&#xa8;" horiz-adv-x="604" d="M-53 1251q0 59 40.5 99.5t98.5 40.5t98.5 -40.5t40.5 -99.5t-40.5 -99t-98.5 -40t-98.5 40t-40.5 99zM379 1251q0 58 41 99t98 41q58 0 98.5 -40.5t40.5 -99.5t-40.5 -99t-98.5 -40q-57 0 -98 40.5t-41 98.5z" />
<glyph unicode="&#xa9;" horiz-adv-x="1593" d="M90 684q0 192 95 355t258 257.5t354 94.5q144 0 275 -56t225 -150.5t150 -225.5t56 -275q0 -143 -56 -274t-150 -226t-225 -151t-275 -56q-191 0 -354 95t-258 258t-95 354zM164 684q0 -170 85.5 -316t231.5 -231.5t316 -85.5q171 0 317 85.5t231 231.5t85 316 q0 128 -50.5 245.5t-135 202t-202 135t-245.5 50.5q-170 0 -316 -85t-231.5 -231t-85.5 -317zM381 686q0 185 123.5 307.5t302.5 122.5q187 0 303 -135l-63 -63q-40 54 -104 85t-136 31q-138 0 -235 -98t-97 -250q0 -150 97.5 -251t234.5 -101q72 0 137 33t105 88l63 -64 q-120 -139 -305 -139q-179 0 -302.5 124t-123.5 310z" />
<glyph unicode="&#xab;" horiz-adv-x="1079" d="M61 498l328 362h242l-328 -362l328 -369h-242zM451 498l327 362h240l-328 -362l328 -369h-240z" />
<glyph unicode="&#xad;" horiz-adv-x="614" d="M61 385v221h492v-221h-492z" />
<glyph unicode="&#xae;" horiz-adv-x="1011" d="M72 952q0 181 127 307.5t307 126.5q119 0 219 -57.5t157.5 -157.5t57.5 -219q0 -180 -126.5 -307t-307.5 -127q-180 0 -307 127t-127 307zM137 952q0 -152 107.5 -260t261.5 -108q153 0 260.5 107.5t107.5 260.5q0 155 -107 262t-261 107t-261.5 -107t-107.5 -262z M340 702v498h203q66 0 114 -42t48 -109q0 -72 -46 -110t-81 -38l133 -199h-86l-129 197h-86v-197h-70zM410 963h133q34 0 62 24.5t28 61.5q0 39 -28 64.5t-62 25.5h-133v-176z" />
<glyph unicode="&#xb4;" horiz-adv-x="514" d="M0 1139l274 295h240l-332 -295h-182z" />
<glyph unicode="&#xb8;" horiz-adv-x="452" d="M0 -336l51 105q78 -60 168 -60q43 0 74 18t31 50q0 53 -60 53q-36 0 -65 -29l-95 54l62 168h129l-51 -127q29 20 71 20q58 0 98 -40t40 -103q0 -79 -65.5 -125.5t-162.5 -46.5q-71 0 -131 17.5t-94 45.5z" />
<glyph unicode="&#xbb;" horiz-adv-x="1079" d="M61 129l328 369l-328 362h242l328 -362l-328 -369h-242zM451 129l327 369l-327 362h239l328 -362l-328 -369h-239z" />
<glyph unicode="&#xc1;" d="M-8 0l526 1366h365l526 -1366h-330l-86 231h-585l-86 -231h-330zM487 487h426l-213 588zM535 1491l274 295h240l-332 -295h-182z" />
<glyph unicode="&#xc4;" d="M-8 0l526 1366h365l526 -1366h-330l-86 231h-585l-86 -231h-330zM346 1606q0 58 40 98.5t99 40.5t99.5 -40.5t40.5 -98.5t-40.5 -99t-99.5 -41q-58 0 -98.5 40.5t-40.5 99.5zM487 487h426l-213 588zM778 1606q0 58 41.5 98.5t98.5 40.5q58 0 98.5 -40.5t40.5 -98.5 q0 -59 -40.5 -99.5t-98.5 -40.5q-57 0 -98.5 41t-41.5 99z" />
<glyph unicode="&#xc5;" d="M-8 0l526 1366h365l526 -1366h-330l-86 231h-585l-86 -231h-330zM487 487h426l-213 588zM487 1634q0 89 63.5 152t151.5 63q89 0 151 -63t62 -152q0 -88 -62 -151.5t-151 -63.5q-88 0 -151.5 63.5t-63.5 151.5zM606 1634q0 -39 28.5 -67.5t67.5 -28.5q40 0 67.5 28 t27.5 68t-27.5 68.5t-67.5 28.5q-38 0 -67 -28.5t-29 -68.5z" />
<glyph unicode="&#xc6;" horiz-adv-x="1982" d="M-18 0l831 1366h1083v-256h-673v-287h659v-256h-659v-311h673v-256h-966v231h-479l-136 -231h-333zM588 487h342v588z" />
<glyph unicode="&#xc9;" horiz-adv-x="1193" d="M135 0v1366h967v-256h-676v-287h661v-256h-661v-311h676v-256h-967zM451 1491l274 295h240l-332 -295h-182z" />
<glyph unicode="&#xcd;" horiz-adv-x="561" d="M119 1491l274 295h240l-332 -295h-182zM135 0v1366h291v-1366h-291z" />
<glyph unicode="&#xd3;" horiz-adv-x="1566" d="M70 682q0 152 53.5 284t147.5 224.5t227 145.5t286 53q204 0 366.5 -90t254.5 -252t92 -365t-92 -365t-254.5 -252t-366.5 -90q-153 0 -286 53t-227 145.5t-147.5 224.5t-53.5 284zM369 682q0 -194 114 -321.5t301 -127.5q186 0 300 127.5t114 321.5q0 195 -114 321.5 t-300 126.5q-188 0 -301.5 -126.5t-113.5 -321.5zM618 1491l275 295h240l-332 -295h-183z" />
<glyph unicode="&#xd5;" horiz-adv-x="1566" d="M70 682q0 152 53.5 284t147.5 224.5t227 145.5t286 53q204 0 366.5 -90t254.5 -252t92 -365t-92 -365t-254.5 -252t-366.5 -90q-153 0 -286 53t-227 145.5t-147.5 224.5t-53.5 284zM369 682q0 -194 114 -321.5t301 -127.5q186 0 300 127.5t114 321.5q0 195 -114 321.5 t-300 126.5q-188 0 -301.5 -126.5t-113.5 -321.5zM451 1499q0 131 57 203t164 72q38 0 69 -14t51.5 -34.5t38 -41t37.5 -34.5t41 -14q33 0 53.5 31.5t20.5 93.5h137q0 -131 -56 -202.5t-163 -71.5q-39 0 -70.5 14.5t-52 35t-38 40.5t-37.5 34.5t-41 14.5q-33 0 -53.5 -32 t-20.5 -95h-137z" />
<glyph unicode="&#xd6;" horiz-adv-x="1566" d="M70 682q0 152 53.5 284t147.5 224.5t227 145.5t286 53q204 0 366.5 -90t254.5 -252t92 -365t-92 -365t-254.5 -252t-366.5 -90q-153 0 -286 53t-227 145.5t-147.5 224.5t-53.5 284zM369 682q0 -194 114 -321.5t301 -127.5q186 0 300 127.5t114 321.5q0 195 -114 321.5 t-300 126.5q-188 0 -301.5 -126.5t-113.5 -321.5zM430 1606q0 58 40 98.5t99 40.5t99.5 -40.5t40.5 -98.5t-40.5 -99t-99.5 -41q-58 0 -98.5 40.5t-40.5 99.5zM862 1606q0 58 41 98.5t98 40.5q59 0 99.5 -40.5t40.5 -98.5t-40.5 -99t-99.5 -41q-57 0 -98 41t-41 99z" />
<glyph unicode="&#xd8;" horiz-adv-x="1566" d="M70 682q0 152 53.5 284t147.5 224.5t227 145.5t286 53q191 0 353 -84l47 61h209l-119 -156q106 -97 164.5 -232.5t58.5 -295.5q0 -203 -92 -365t-254.5 -252t-366.5 -90q-210 0 -378 97l-54 -72h-211l131 172q-97 95 -149.5 226t-52.5 284zM369 682q0 -164 80 -279 l522 684q-84 43 -187 43q-188 0 -301.5 -126.5t-113.5 -321.5zM571 289q94 -56 213 -56q186 0 300 127.5t114 321.5q0 178 -96 301z" />
<glyph unicode="&#xda;" horiz-adv-x="1503" d="M135 547v819h295v-811q0 -146 83.5 -234t238.5 -88q154 0 236.5 87.5t82.5 234.5v811h297v-819q0 -128 -38.5 -232t-113 -180.5t-193 -118t-271.5 -41.5q-303 0 -460 155t-157 417zM588 1491l274 295h240l-332 -295h-182z" />
<glyph unicode="&#xdc;" horiz-adv-x="1503" d="M135 547v819h295v-811q0 -146 83.5 -234t238.5 -88q154 0 236.5 87.5t82.5 234.5v811h297v-819q0 -128 -38.5 -232t-113 -180.5t-193 -118t-271.5 -41.5q-303 0 -460 155t-157 417zM401 1606q0 58 40.5 98.5t99.5 40.5t99 -40.5t40 -98.5q0 -59 -40.5 -99.5t-98.5 -40.5 q-59 0 -99.5 41t-40.5 99zM834 1606q0 58 41 98.5t98 40.5q59 0 99 -40.5t40 -98.5q0 -59 -40.5 -99.5t-98.5 -40.5q-57 0 -98 41t-41 99z" />
<glyph unicode="&#xdd;" horiz-adv-x="1320" d="M-8 1366h332l338 -547l337 547h330l-522 -807v-559h-291v559zM500 1491l274 295h240l-332 -295h-182z" />
<glyph unicode="&#xdf;" horiz-adv-x="1316" d="M129 0v973q0 175 126.5 294t342.5 119q110 0 205.5 -35t156 -103t60.5 -156q0 -54 -20 -99.5t-50 -74t-65 -56t-65 -47.5t-50 -46t-20 -54q0 -25 23 -42.5t60.5 -27t85.5 -21t98 -23t98 -35.5t85.5 -56t60.5 -87t23 -126q0 -142 -112 -232t-300 -90q-137 0 -227 41.5 t-174 120.5l109 180q43 -56 124 -94.5t168 -38.5q78 0 120 29.5t42 73.5q0 28 -23 48.5t-60.5 31.5t-85.5 24t-98 25t-98 35t-85.5 53.5t-60.5 82t-23 118.5q0 59 26 108.5t63 81t74 57.5t63 51.5t26 49.5q0 49 -46.5 75.5t-111.5 26.5q-89 0 -146 -49t-57 -133v-973h-262z " />
<glyph unicode="&#xe1;" horiz-adv-x="1112" d="M68 303q0 67 20.5 122.5t54 91.5t79 60.5t92.5 35t96 10.5q100 0 182 -31.5t131 -89.5v125q0 75 -59.5 120.5t-157.5 45.5q-159 0 -285 -117l-102 182q173 156 432 156q90 0 164.5 -19t137 -61t97.5 -117t35 -178v-639h-262v104q-51 -61 -133.5 -95t-179.5 -34 q-61 0 -120.5 21t-109.5 60t-81 103.5t-31 143.5zM328 299q0 -68 53 -107.5t133 -39.5q65 0 121.5 22t87.5 64v122q-32 42 -88.5 65.5t-120.5 23.5q-79 0 -132.5 -41t-53.5 -109zM393 1139l275 295h239l-332 -295h-182z" />
<glyph unicode="&#xe4;" horiz-adv-x="1112" d="M68 303q0 67 20.5 122.5t54 91.5t79 60.5t92.5 35t96 10.5q100 0 182 -31.5t131 -89.5v125q0 75 -59.5 120.5t-157.5 45.5q-159 0 -285 -117l-102 182q173 156 432 156q90 0 164.5 -19t137 -61t97.5 -117t35 -178v-639h-262v104q-51 -61 -133.5 -95t-179.5 -34 q-61 0 -120.5 21t-109.5 60t-81 103.5t-31 143.5zM195 1251q0 59 40.5 99.5t98.5 40.5t98.5 -40.5t40.5 -99.5t-40.5 -99t-98.5 -40t-98.5 40t-40.5 99zM328 299q0 -68 53 -107.5t133 -39.5q65 0 121.5 22t87.5 64v122q-32 42 -88.5 65.5t-120.5 23.5q-79 0 -132.5 -41 t-53.5 -109zM627 1251q0 58 41 99t98 41q58 0 98.5 -40.5t40.5 -99.5t-40.5 -99t-98.5 -40q-57 0 -98 40.5t-41 98.5z" />
<glyph unicode="&#xe5;" horiz-adv-x="1112" d="M68 303q0 67 20.5 122.5t54 91.5t79 60.5t92.5 35t96 10.5q100 0 182 -31.5t131 -89.5v125q0 75 -59.5 120.5t-157.5 45.5q-159 0 -285 -117l-102 182q173 156 432 156q90 0 164.5 -19t137 -61t97.5 -117t35 -178v-639h-262v104q-51 -61 -133.5 -95t-179.5 -34 q-61 0 -120.5 21t-109.5 60t-81 103.5t-31 143.5zM328 299q0 -68 53 -107.5t133 -39.5q65 0 121.5 22t87.5 64v122q-32 42 -88.5 65.5t-120.5 23.5q-79 0 -132.5 -41t-53.5 -109zM340 1323q0 89 63.5 152t151.5 63q89 0 151 -63t62 -152q0 -88 -62 -151.5t-151 -63.5 q-88 0 -151.5 63.5t-63.5 151.5zM459 1323q0 -39 28.5 -67.5t67.5 -28.5q40 0 67 28t27 68t-27 68t-67 28q-39 0 -67.5 -28.5t-28.5 -67.5z" />
<glyph unicode="&#xe6;" horiz-adv-x="1781" d="M68 299q0 79 28 142t76.5 102t109 59.5t128.5 20.5q97 0 179 -30.5t134 -88.5v123q0 75 -59.5 120.5t-157.5 45.5q-162 0 -285 -117l-102 182q173 156 432 156q254 0 336 -162q60 77 144 119.5t210 42.5q213 0 347 -151t134 -392v-61h-735q14 -95 89 -156t196 -61 q66 0 141 27t121 71l117 -178q-72 -66 -181 -102t-227 -36q-126 0 -232.5 48.5t-174.5 132.5q-67 -79 -172.5 -130t-233.5 -51q-68 0 -131.5 20.5t-116 59t-83.5 102t-31 142.5zM328 299q0 -68 53 -107.5t133 -39.5q71 0 133 27t96 87q-20 36 -20 92q-32 42 -88.5 66.5 t-120.5 24.5q-79 0 -132.5 -41.5t-53.5 -108.5zM985 590h488q-2 37 -17 73t-43 67.5t-76.5 51t-109.5 19.5q-111 0 -172 -63.5t-70 -147.5z" />
<glyph unicode="&#xe9;" horiz-adv-x="1132" d="M66 496q0 143 65 261t183 187.5t264 69.5q222 0 358.5 -150.5t136.5 -392.5v-61h-735q14 -96 89 -159t196 -63q66 0 141.5 26.5t120.5 70.5l116 -172q-72 -66 -180.5 -102t-226.5 -36q-229 0 -378.5 143.5t-149.5 377.5zM336 590h487q-3 38 -18 73t-42.5 67t-75.5 51.5 t-109 19.5q-58 0 -104 -19t-74 -50.5t-44 -67t-20 -74.5zM416 1139l274 295h240l-332 -295h-182z" />
<glyph unicode="&#xed;" horiz-adv-x="518" d="M92 1139l275 295h239l-332 -295h-182zM129 0v989h260v-989h-260z" />
<glyph unicode="&#xf3;" horiz-adv-x="1177" d="M66 496q0 142 61.5 258.5t182 188t278.5 71.5q159 0 280 -71.5t182.5 -188t61.5 -258.5t-61.5 -259.5t-182.5 -189.5t-280 -72q-158 0 -278.5 72t-182 189.5t-61.5 259.5zM336 496q0 -122 67.5 -205.5t184.5 -83.5q118 0 186 83t68 206q0 121 -68 203.5t-186 82.5 q-117 0 -184.5 -82.5t-67.5 -203.5zM422 1139l274 295h240l-332 -295h-182z" />
<glyph unicode="&#xf5;" horiz-adv-x="1177" d="M66 496q0 142 61.5 258.5t182 188t278.5 71.5q159 0 280 -71.5t182.5 -188t61.5 -258.5t-61.5 -259.5t-182.5 -189.5t-280 -72q-158 0 -278.5 72t-182 189.5t-61.5 259.5zM254 1147q0 131 57 202.5t164 71.5q38 0 69.5 -14t52 -34.5t38 -40.5t37.5 -34t41 -14 q33 0 53 31.5t20 93.5h138q0 -131 -56 -202.5t-163 -71.5q-39 0 -70.5 14.5t-52 35t-38.5 40.5t-38 34.5t-41 14.5q-33 0 -53.5 -32t-20.5 -95h-137zM336 496q0 -122 67.5 -205.5t184.5 -83.5q118 0 186 83t68 206q0 121 -68 203.5t-186 82.5q-117 0 -184.5 -82.5 t-67.5 -203.5z" />
<glyph unicode="&#xf6;" horiz-adv-x="1177" d="M66 496q0 142 61.5 258.5t182 188t278.5 71.5q159 0 280 -71.5t182.5 -188t61.5 -258.5t-61.5 -259.5t-182.5 -189.5t-280 -72q-158 0 -278.5 72t-182 189.5t-61.5 259.5zM233 1251q0 59 40.5 99.5t99.5 40.5q58 0 98.5 -40.5t40.5 -99.5t-40 -99t-99 -40t-99.5 40.5 t-40.5 98.5zM336 496q0 -122 67.5 -205.5t184.5 -83.5q118 0 186 83t68 206q0 121 -68 203.5t-186 82.5q-117 0 -184.5 -82.5t-67.5 -203.5zM666 1251q0 58 41 99t98 41q58 0 98.5 -40.5t40.5 -99.5t-40 -99t-99 -40q-57 0 -98 40.5t-41 98.5z" />
<glyph unicode="&#xf8;" horiz-adv-x="1177" d="M66 496q0 142 61.5 258.5t182 188t278.5 71.5q165 0 289 -78l45 53h163l-112 -131q139 -145 139 -362q0 -142 -61.5 -259.5t-182.5 -189.5t-280 -72q-166 0 -295 82l-49 -57h-162l117 137q-133 145 -133 359zM336 496q0 -88 35 -156l346 408q-55 34 -129 34 q-117 0 -184.5 -82.5t-67.5 -203.5zM453 246q58 -39 135 -39q118 0 186 83t68 206q0 88 -39 161z" />
<glyph unicode="&#xfa;" horiz-adv-x="1185" d="M129 287v702h260v-600q0 -98 47 -140t135 -42q70 0 129 32t97 80v670h260v-989h-260v125q-59 -64 -147.5 -107t-200.5 -43q-159 0 -239.5 82t-80.5 230zM428 1139l274 295h240l-332 -295h-182z" />
<glyph unicode="&#xfc;" horiz-adv-x="1185" d="M129 287v702h260v-600q0 -98 47 -140t135 -42q70 0 129 32t97 80v670h260v-989h-260v125q-59 -64 -147.5 -107t-200.5 -43q-159 0 -239.5 82t-80.5 230zM244 1251q0 59 40.5 99.5t98.5 40.5t98.5 -40.5t40.5 -99.5t-40 -99t-99 -40t-99 40t-40 99zM676 1251q0 58 41 99 t98 41q58 0 98.5 -40.5t40.5 -99.5t-40 -99t-99 -40q-57 0 -98 40.5t-41 98.5z" />
<glyph unicode="&#xfd;" horiz-adv-x="1050" d="M-12 989h278l258 -688l260 688h279l-465 -1151q-52 -131 -144 -183.5t-231 -55.5q-77 0 -127 16l37 231q37 -16 82 -16q103 0 137 72l37 86zM358 1139l275 295h239l-331 -295h-183z" />
<glyph unicode="&#x100;" d="M-8 0l526 1366h365l526 -1366h-330l-86 231h-585l-86 -231h-330zM328 1530v149h743v-149h-743zM487 487h426l-213 588z" />
<glyph unicode="&#x101;" horiz-adv-x="1112" d="M68 303q0 67 20.5 122.5t54 91.5t79 60.5t92.5 35t96 10.5q100 0 182 -31.5t131 -89.5v125q0 75 -59.5 120.5t-157.5 45.5q-159 0 -285 -117l-102 182q173 156 432 156q90 0 164.5 -19t137 -61t97.5 -117t35 -178v-639h-262v104q-51 -61 -133.5 -95t-179.5 -34 q-61 0 -120.5 21t-109.5 60t-81 103.5t-31 143.5zM178 1176v149h744v-149h-744zM328 299q0 -68 53 -107.5t133 -39.5q65 0 121.5 22t87.5 64v122q-32 42 -88.5 65.5t-120.5 23.5q-79 0 -132.5 -41t-53.5 -109z" />
<glyph unicode="&#x104;" d="M-8 0l526 1366h365l526 -1366q-145 -71 -145 -184q0 -44 21.5 -65t53.5 -21q64 0 88 69l107 -65q-68 -115 -195 -115q-87 0 -145.5 46t-58.5 138q0 114 92 197h-148l-86 231h-585l-86 -231h-330zM487 487h426l-213 588z" />
<glyph unicode="&#x105;" horiz-adv-x="1112" d="M68 303q0 67 20.5 122.5t54 91.5t79 60.5t92.5 35t96 10.5q100 0 182 -31.5t131 -89.5v125q0 75 -59.5 120.5t-157.5 45.5q-159 0 -285 -117l-102 182q173 156 432 156q90 0 164.5 -19t137 -61t97.5 -117t35 -178v-639q-145 -71 -145 -184q0 -44 21.5 -65t53.5 -21 q65 0 89 69l106 -65q-68 -115 -195 -115q-87 0 -145.5 46t-58.5 138q0 114 92 197h-80v104q-51 -61 -133.5 -95t-179.5 -34q-61 0 -120.5 21t-109.5 60t-81 103.5t-31 143.5zM328 299q0 -68 53 -107.5t133 -39.5q65 0 121.5 22t87.5 64v122q-32 42 -88.5 65.5t-120.5 23.5 q-79 0 -132.5 -41t-53.5 -109z" />
<glyph unicode="&#x10c;" horiz-adv-x="1406" d="M70 682q0 207 96 369t262 250t371 88q108 0 200.5 -27.5t161 -76t119 -105t88.5 -125.5l-250 -123q-44 86 -131 142t-188 56q-187 0 -308.5 -127t-121.5 -321t121.5 -321.5t308.5 -127.5q101 0 188 56.5t131 142.5l250 -121q-39 -69 -88.5 -125.5t-118.5 -105.5 t-161.5 -77t-200.5 -28q-153 0 -287.5 52t-232 143.5t-153.5 224t-56 287.5zM489 1786h160l152 -182l143 182h160l-186 -295h-234z" />
<glyph unicode="&#x10d;" horiz-adv-x="1021" d="M66 496q0 227 148 372.5t376 145.5q260 0 391 -178l-170 -160q-71 106 -209 106q-119 0 -193.5 -79t-74.5 -207q0 -129 74.5 -209t193.5 -80q134 0 209 108l170 -159q-57 -78 -154 -129.5t-237 -51.5q-228 0 -376 146.5t-148 374.5zM297 1434h160l151 -183l144 183h159 l-186 -295h-233z" />
<glyph unicode="&#x112;" horiz-adv-x="1193" d="M135 0v1366h967v-256h-676v-287h661v-256h-661v-311h676v-256h-967zM240 1530v149h743v-149h-743z" />
<glyph unicode="&#x113;" horiz-adv-x="1132" d="M66 496q0 143 65 261t183 187.5t264 69.5q222 0 358.5 -150.5t136.5 -392.5v-61h-735q14 -96 89 -159t196 -63q66 0 141.5 26.5t120.5 70.5l116 -172q-72 -66 -180.5 -102t-226.5 -36q-229 0 -378.5 143.5t-149.5 377.5zM197 1176v149h743v-149h-743zM336 590h487 q-3 38 -18 73t-42.5 67t-75.5 51.5t-109 19.5q-58 0 -104 -19t-74 -50.5t-44 -67t-20 -74.5z" />
<glyph unicode="&#x116;" horiz-adv-x="1193" d="M135 0v1366h967v-256h-676v-287h661v-256h-661v-311h676v-256h-967zM483 1606q0 58 40.5 98.5t99.5 40.5q56 0 96.5 -40.5t40.5 -98.5q0 -57 -40.5 -98.5t-96.5 -41.5q-58 0 -99 41.5t-41 98.5z" />
<glyph unicode="&#x117;" horiz-adv-x="1132" d="M66 496q0 143 65 261t183 187.5t264 69.5q222 0 358.5 -150.5t136.5 -392.5v-61h-735q14 -96 89 -159t196 -63q66 0 141.5 26.5t120.5 70.5l116 -172q-72 -66 -180.5 -102t-226.5 -36q-229 0 -378.5 143.5t-149.5 377.5zM336 590h487q-3 38 -18 73t-42.5 67t-75.5 51.5 t-109 19.5q-58 0 -104 -19t-74 -50.5t-44 -67t-20 -74.5zM444 1268q0 58 40.5 98.5t99.5 40.5q56 0 96.5 -40.5t40.5 -98.5q0 -57 -40.5 -98.5t-96.5 -41.5q-58 0 -99 41.5t-41 98.5z" />
<glyph unicode="&#x118;" horiz-adv-x="1193" d="M135 0v1366h967v-256h-676v-287h661v-256h-661v-311h676v-256q-146 -72 -146 -184q0 -44 21.5 -65t54.5 -21q64 0 88 69l107 -65q-68 -115 -195 -115q-87 0 -146 46t-59 138q0 113 93 197h-785z" />
<glyph unicode="&#x119;" horiz-adv-x="1132" d="M66 496q0 143 65 261t183 187.5t264 69.5q222 0 358.5 -150.5t136.5 -392.5v-61h-735q14 -96 89 -159t196 -63q66 0 141.5 26.5t120.5 70.5l116 -172q-82 -76 -217 -113q-145 -71 -145 -184q0 -44 21.5 -65t54.5 -21q64 0 88 69l106 -65q-68 -115 -194 -115 q-87 0 -146 46t-59 138q0 96 70 172q-225 5 -369.5 147.5t-144.5 373.5zM336 590h487q-3 38 -18 73t-42.5 67t-75.5 51.5t-109 19.5q-58 0 -104 -19t-74 -50.5t-44 -67t-20 -74.5z" />
<glyph unicode="&#x122;" horiz-adv-x="1474" d="M70 682q0 210 99 373t264 248.5t366 85.5q102 0 192 -24.5t158.5 -68.5t120.5 -96.5t92 -116.5l-240 -131q-51 77 -136 127.5t-187 50.5q-187 0 -308.5 -127t-121.5 -321t121.5 -321.5t308.5 -127.5q85 0 163.5 31.5t124.5 73.5v164h-360v254h651v-525 q-228 -256 -579 -256q-201 0 -366 86t-264 248.5t-99 372.5zM674 -244q0 53 36.5 90t88.5 37q60 0 102.5 -45t42.5 -121q0 -91 -46 -171t-124 -136l-90 72q44 26 82 73t47 91q-6 -6 -31 -6q-46 0 -77 32t-31 84z" />
<glyph unicode="&#x123;" horiz-adv-x="1198" d="M66 510q0 237 121.5 370.5t314.5 133.5q188 0 307 -152v127h260v-923q0 -108 -32.5 -192t-84.5 -135t-124 -83.5t-143 -44.5t-150 -12q-131 0 -233 34t-193 113l116 186q112 -120 310 -120q51 0 96 12t87 39t66.5 79t24.5 124v96q-123 -154 -307 -154q-192 0 -314 131.5 t-122 370.5zM334 510q0 -126 69 -199t183 -73q62 0 125.5 32t97.5 80v322q-34 47 -97 78.5t-126 31.5q-114 0 -183 -73t-69 -199zM457 1292q0 97 42.5 180.5t118.5 137.5l91 -72q-41 -23 -81 -67.5t-46 -84.5q2 0 6 1.5t6 1.5q48 0 86.5 -36t38.5 -87q0 -52 -38 -90.5 t-93 -38.5q-49 0 -90 37.5t-41 117.5z" />
<glyph unicode="&#x12a;" horiz-adv-x="561" d="M-90 1530v149h743v-149h-743zM135 0v1366h291v-1366h-291z" />
<glyph unicode="&#x12b;" horiz-adv-x="518" d="M-113 1176v149h744v-149h-744zM129 0v989h260v-989h-260z" />
<glyph unicode="&#x12e;" horiz-adv-x="561" d="M135 0v1366h291v-1366q-145 -71 -145 -184q0 -44 21.5 -65t53.5 -21q64 0 88 69l107 -65q-68 -115 -195 -115q-87 0 -145.5 46t-58.5 138q0 114 92 197h-109z" />
<glyph unicode="&#x12f;" horiz-adv-x="518" d="M104 1251q0 64 45.5 109t108.5 45q65 0 110.5 -45t45.5 -109t-45.5 -109.5t-110.5 -45.5q-63 0 -108.5 45.5t-45.5 109.5zM115 -197q0 114 92 197h-78v989h260v-989q-145 -71 -145 -184q0 -44 21.5 -65t53.5 -21q65 0 89 69l106 -65q-68 -115 -195 -115q-87 0 -145.5 46 t-58.5 138z" />
<glyph unicode="&#x136;" horiz-adv-x="1327" d="M135 0v1366h291v-608l483 608h359l-543 -641l580 -725h-359l-414 549l-106 -129v-420h-291zM539 -244q0 53 36.5 90t88.5 37q60 0 102.5 -45t42.5 -121q0 -91 -46 -171t-124 -136l-90 72q44 26 82 73t47 91q-6 -6 -31 -6q-46 0 -77 32t-31 84z" />
<glyph unicode="&#x137;" horiz-adv-x="1097" d="M129 0v1366h260v-817l375 440h319l-391 -448l404 -541h-326l-262 381l-119 -127v-254h-260zM426 -244q0 53 36.5 90t88.5 37q60 0 102.5 -45t42.5 -121q0 -91 -46 -171t-124 -136l-90 72q44 26 82 73t47 91q-6 -6 -30 -6q-47 0 -78 32t-31 84z" />
<glyph unicode="&#x13b;" horiz-adv-x="1054" d="M123 0v1366h293v-1110h577v-256h-870zM397 -244q0 53 36.5 90t88.5 37q60 0 103 -45t43 -121q0 -91 -46 -171t-124 -136l-90 72q44 26 82 73t47 91q-6 -6 -31 -6q-47 0 -78 32t-31 84z" />
<glyph unicode="&#x13c;" horiz-adv-x="518" d="M129 0v1366h260v-1366h-260zM135 -244q0 53 36.5 90t88.5 37q60 0 103 -45t43 -121q0 -91 -46 -171t-124 -136l-91 72q44 26 82 73t47 91q-6 -6 -30 -6q-47 0 -78 32t-31 84z" />
<glyph unicode="&#x145;" horiz-adv-x="1492" d="M135 0v1366h299l633 -858v858h291v-1366h-281l-651 891v-891h-291zM623 -244q0 53 36.5 90t88.5 37q60 0 102.5 -45t42.5 -121q0 -91 -46 -171t-124 -136l-90 72q44 26 82 73t47 91q-6 -6 -31 -6q-46 0 -77 32t-31 84z" />
<glyph unicode="&#x146;" horiz-adv-x="1185" d="M143 0v989h260v-127q54 63 145 107.5t202 44.5q160 0 241.5 -83.5t81.5 -232.5v-698h-262v598q0 98 -47 141t-135 43q-71 0 -129.5 -33t-96.5 -81v-668h-260zM469 -244q0 53 36.5 90t88.5 37q60 0 102.5 -45t42.5 -121q0 -91 -46 -171t-124 -136l-90 72q44 26 82 73 t47 91q-6 -6 -30 -6q-47 0 -78 32t-31 84z" />
<glyph unicode="&#x14c;" horiz-adv-x="1566" d="M70 682q0 152 53.5 284t147.5 224.5t227 145.5t286 53q204 0 366.5 -90t254.5 -252t92 -365t-92 -365t-254.5 -252t-366.5 -90q-153 0 -286 53t-227 145.5t-147.5 224.5t-53.5 284zM369 682q0 -194 114 -321.5t301 -127.5q186 0 300 127.5t114 321.5q0 195 -114 321.5 t-300 126.5q-188 0 -301.5 -126.5t-113.5 -321.5zM412 1530v149h743v-149h-743z" />
<glyph unicode="&#x14d;" horiz-adv-x="1177" d="M66 496q0 142 61.5 258.5t182 188t278.5 71.5q159 0 280 -71.5t182.5 -188t61.5 -258.5t-61.5 -259.5t-182.5 -189.5t-280 -72q-158 0 -278.5 72t-182 189.5t-61.5 259.5zM217 1176v149h744v-149h-744zM336 496q0 -122 67.5 -205.5t184.5 -83.5q118 0 186 83t68 206 q0 121 -68 203.5t-186 82.5q-117 0 -184.5 -82.5t-67.5 -203.5z" />
<glyph unicode="&#x160;" horiz-adv-x="1228" d="M41 193l160 227q79 -83 190.5 -135t243.5 -52q115 0 176 43.5t61 108.5q0 42 -34 72.5t-89 47t-125.5 35t-144.5 35t-144.5 48t-125.5 73t-89 112.5t-34 163q0 176 141.5 295.5t376.5 119.5q328 0 533 -190l-162 -217q-81 74 -185 111.5t-212 37.5q-91 0 -142 -36.5 t-51 -98.5q0 -38 33.5 -66t89 -43.5t126 -34t143.5 -35.5t143.5 -49.5t126 -75t89 -113.5t33.5 -162q0 -196 -140.5 -317.5t-405.5 -121.5q-364 0 -582 218zM293 1786h160l151 -182l144 182h159l-186 -295h-234z" />
<glyph unicode="&#x161;" horiz-adv-x="976" d="M43 129l113 188q58 -55 155.5 -96t186.5 -41q82 0 124 28.5t42 76.5q0 32 -32.5 53t-84 33t-114 23.5t-125 31.5t-114 51t-84 88.5t-32.5 136.5q0 131 108 221.5t297 90.5q228 0 398 -135l-105 -185q-47 49 -126.5 82t-166.5 33q-70 0 -112.5 -27t-42.5 -69 q0 -26 25 -43.5t66.5 -27t94 -21.5t108 -23.5t108 -36t94 -56.5t66.5 -87t25 -127q0 -140 -114.5 -228t-315.5 -88q-129 0 -246.5 41t-195.5 113zM178 1434h160l151 -183l144 183h160l-187 -295h-233z" />
<glyph unicode="&#x16a;" horiz-adv-x="1503" d="M135 547v819h295v-811q0 -146 83.5 -234t238.5 -88q154 0 236.5 87.5t82.5 234.5v811h297v-819q0 -128 -38.5 -232t-113 -180.5t-193 -118t-271.5 -41.5q-303 0 -460 155t-157 417zM383 1530v149h743v-149h-743z" />
<glyph unicode="&#x16b;" horiz-adv-x="1185" d="M129 287v702h260v-600q0 -98 47 -140t135 -42q70 0 129 32t97 80v670h260v-989h-260v125q-59 -64 -147.5 -107t-200.5 -43q-159 0 -239.5 82t-80.5 230zM219 1176v149h744v-149h-744z" />
<glyph unicode="&#x172;" horiz-adv-x="1503" d="M135 547v819h295v-811q0 -146 83.5 -234t238.5 -88q154 0 236.5 87.5t82.5 234.5v811h297v-819q0 -211 -102.5 -355t-302.5 -192q-144 -71 -144 -184q0 -44 21.5 -65t54.5 -21q64 0 88 69l107 -65q-68 -115 -195 -115q-87 0 -146 46t-59 138q0 96 70 172h-8 q-303 0 -460 155t-157 417z" />
<glyph unicode="&#x173;" horiz-adv-x="1185" d="M129 287v702h260v-600q0 -98 47 -140t135 -42q70 0 129 32t97 80v670h260v-989q-146 -72 -146 -184q0 -44 21.5 -65t54.5 -21q64 0 88 69l107 -65q-68 -115 -195 -115q-87 0 -146 46t-59 138q0 114 92 197h-77v125q-59 -64 -147.5 -107t-200.5 -43q-159 0 -239.5 82 t-80.5 230z" />
<glyph unicode="&#x17d;" horiz-adv-x="1212" d="M86 0v236l645 874h-645v256h1026v-233l-645 -877h659v-256h-1040zM299 1786h160l151 -182l144 182h159l-186 -295h-233z" />
<glyph unicode="&#x17e;" horiz-adv-x="980" d="M86 0v195l446 567h-446v227h801v-186l-455 -576h463v-227h-809zM170 1434h160l151 -183l144 183h159l-186 -295h-233z" />
<glyph unicode="&#x2c6;" horiz-adv-x="614" d="M0 1139l188 295h234l192 -295h-159l-150 182l-145 -182h-160z" />
<glyph unicode="&#x2da;" horiz-adv-x="428" d="M0 1337q0 89 63.5 152t151.5 63q89 0 151 -63t62 -152q0 -88 -62 -151.5t-151 -63.5q-88 0 -151.5 63.5t-63.5 151.5zM119 1337q0 -39 28.5 -67.5t67.5 -28.5q40 0 67 28t27 68t-27.5 68.5t-66.5 28.5t-67.5 -29t-28.5 -68z" />
<glyph unicode="&#x2dc;" horiz-adv-x="669" d="M0 1147q0 131 57 202.5t164 71.5q38 0 69.5 -14t52 -34.5t38 -40.5t37.5 -34t41 -14q33 0 53 31.5t20 93.5h138q0 -131 -56 -202.5t-163 -71.5q-39 0 -70.5 14.5t-52 35t-38.5 40.5t-38 34.5t-41 14.5q-33 0 -53.5 -32t-20.5 -95h-137z" />
<glyph unicode="&#x2000;" horiz-adv-x="924" />
<glyph unicode="&#x2001;" horiz-adv-x="1849" />
<glyph unicode="&#x2002;" horiz-adv-x="924" />
<glyph unicode="&#x2003;" horiz-adv-x="1849" />
<glyph unicode="&#x2004;" horiz-adv-x="616" />
<glyph unicode="&#x2005;" horiz-adv-x="462" />
<glyph unicode="&#x2006;" horiz-adv-x="308" />
<glyph unicode="&#x2007;" horiz-adv-x="308" />
<glyph unicode="&#x2008;" horiz-adv-x="231" />
<glyph unicode="&#x2009;" horiz-adv-x="369" />
<glyph unicode="&#x200a;" horiz-adv-x="102" />
<glyph unicode="&#x2010;" horiz-adv-x="614" d="M61 385v221h492v-221h-492z" />
<glyph unicode="&#x2011;" horiz-adv-x="614" d="M61 385v221h492v-221h-492z" />
<glyph unicode="&#x2012;" horiz-adv-x="614" d="M61 385v221h492v-221h-492z" />
<glyph unicode="&#x2013;" horiz-adv-x="1214" d="M61 385v221h1092v-221h-1092z" />
<glyph unicode="&#x2014;" horiz-adv-x="1705" d="M61 385v221h1584v-221h-1584z" />
<glyph unicode="&#x2018;" horiz-adv-x="522" d="M80 1008q0 113 56.5 212.5t154.5 168.5l112 -93q-51 -27 -98.5 -83.5t-60.5 -110.5q9 6 41 6q59 0 99 -41t40 -106q0 -66 -48 -114t-114 -48q-76 0 -129 56.5t-53 152.5z" />
<glyph unicode="&#x2019;" horiz-adv-x="522" d="M96 1225q0 66 48 113.5t114 47.5q76 0 129 -56t53 -152q0 -113 -56.5 -212.5t-154.5 -168.5l-112 92q51 27 98 83.5t59 110.5q-9 -6 -38 -6q-59 0 -99.5 41.5t-40.5 106.5z" />
<glyph unicode="&#x201a;" horiz-adv-x="522" d="M96 145q0 67 48 115.5t114 48.5q76 0 129 -56.5t53 -152.5q0 -113 -56.5 -212.5t-154.5 -168.5l-112 93q51 27 98 83.5t59 108.5q-18 -6 -38 -6q-59 0 -99.5 41.5t-40.5 105.5z" />
<glyph unicode="&#x201c;" horiz-adv-x="940" d="M82 1008q0 113 56.5 212.5t154.5 168.5l113 -93q-51 -27 -99 -83.5t-61 -110.5q12 6 41 6q59 0 99 -41t40 -106q0 -66 -48 -114t-114 -48q-76 0 -129 56.5t-53 152.5zM500 1008q0 113 56.5 212.5t154.5 168.5l112 -93q-52 -27 -99.5 -84t-59.5 -110q9 6 41 6q59 0 98 -41 t39 -106q0 -66 -47 -114t-113 -48q-76 0 -129 56.5t-53 152.5z" />
<glyph unicode="&#x201d;" horiz-adv-x="940" d="M96 1225q0 66 48 113.5t114 47.5q76 0 129 -56t53 -152q0 -113 -56.5 -212.5t-154.5 -168.5l-112 92q51 27 98 83.5t59 110.5q-9 -6 -38 -6q-59 0 -99.5 41.5t-40.5 106.5zM514 1225q0 66 47 113.5t113 47.5q76 0 129 -56t53 -152q0 -113 -56.5 -212.5t-154.5 -168.5 l-113 92q52 28 100 84.5t60 109.5q-9 -6 -41 -6q-59 0 -98 41.5t-39 106.5z" />
<glyph unicode="&#x201e;" horiz-adv-x="940" d="M96 145q0 67 48 115.5t114 48.5q76 0 129 -56.5t53 -152.5q0 -113 -56.5 -212.5t-154.5 -168.5l-112 93q51 27 98 83.5t59 108.5q-18 -6 -38 -6q-59 0 -99.5 41.5t-40.5 105.5zM514 145q0 68 47 116t113 48q76 0 129 -56.5t53 -152.5q0 -113 -56.5 -212.5t-154.5 -168.5 l-113 93q52 27 100 83.5t60 108.5q-18 -6 -41 -6q-59 0 -98 41.5t-39 105.5z" />
<glyph unicode="&#x2022;" horiz-adv-x="733" d="M125 496q0 101 71.5 172t172.5 71t172 -71t71 -172q0 -100 -71 -171t-172 -71t-172.5 71t-71.5 171z" />
<glyph unicode="&#x2026;" horiz-adv-x="1572" d="M98 143q0 68 48.5 117t115.5 49q68 0 117 -49.5t49 -116.5q0 -66 -49.5 -114.5t-116.5 -48.5t-115.5 48.5t-48.5 114.5zM623 143q0 68 48 117t115 49q68 0 117 -49.5t49 -116.5q0 -66 -49.5 -114.5t-116.5 -48.5t-115 48.5t-48 114.5zM1147 143q0 68 48.5 117t115.5 49 t116.5 -49.5t49.5 -116.5q0 -66 -49.5 -114.5t-116.5 -48.5t-115.5 48.5t-48.5 114.5z" />
<glyph unicode="&#x202f;" horiz-adv-x="369" />
<glyph unicode="&#x2039;" horiz-adv-x="692" d="M61 498l328 362h242l-328 -362l328 -369h-242z" />
<glyph unicode="&#x203a;" horiz-adv-x="692" d="M61 129l328 369l-328 362h242l328 -362l-328 -369h-242z" />
<glyph unicode="&#x205f;" horiz-adv-x="462" />
<glyph unicode="&#x20ac;" horiz-adv-x="1452" d="M43 461v162h76q-2 18 -2 59q0 43 2 66h-76v161h107q69 220 257.5 350t438.5 130q108 0 200.5 -27.5t161 -76t119 -105t88.5 -125.5l-250 -123q-44 86 -131 142t-188 56q-124 0 -223 -59t-154 -162h500v-161h-549q-4 -23 -4 -66q0 -41 2 -59h551v-162h-502 q53 -106 152.5 -167t226.5 -61q101 0 188 56.5t131 142.5l250 -121q-39 -69 -88.5 -125.5t-118.5 -105.5t-161.5 -77t-200.5 -28q-252 0 -442 131.5t-257 354.5h-104z" />
<glyph unicode="&#x2122;" horiz-adv-x="929" d="M35 1313v53h311v-53h-127v-398h-57v398h-127zM420 915v451h88l131 -328l131 328h88v-451h-57v373l-154 -373h-16l-154 373v-373h-57z" />
<glyph unicode="&#x25fc;" horiz-adv-x="993" d="M0 0v993h993v-993h-993z" />
<hkern g1="B" 	g2="T" 	k="29" />
<hkern g1="B" 	g2="V" 	k="35" />
<hkern g1="B" 	g2="W" 	k="20" />
<hkern g1="B" 	g2="Y,Yacute" 	k="61" />
<hkern g1="B" 	g2="quotedbl,quotesingle,registered,quoteleft,quoteright,quotedblleft,quotedblright,trademark" 	k="20" />
<hkern g1="C,Ccaron" 	g2="V" 	k="6" />
<hkern g1="C,Ccaron" 	g2="W" 	k="14" />
<hkern g1="C,Ccaron" 	g2="Y,Yacute" 	k="47" />
<hkern g1="C,Ccaron" 	g2="question" 	k="14" />
<hkern g1="C,Ccaron" 	g2="A,Aacute,Adieresis,Aring,AE,Amacron,Aogonek" 	k="14" />
<hkern g1="D,O,Q,Oacute,Otilde,Odieresis,Oslash,Omacron" 	g2="J" 	k="41" />
<hkern g1="D,O,Q,Oacute,Otilde,Odieresis,Oslash,Omacron" 	g2="T" 	k="49" />
<hkern g1="D,O,Q,Oacute,Otilde,Odieresis,Oslash,Omacron" 	g2="V" 	k="41" />
<hkern g1="D,O,Q,Oacute,Otilde,Odieresis,Oslash,Omacron" 	g2="W" 	k="41" />
<hkern g1="D,O,Q,Oacute,Otilde,Odieresis,Oslash,Omacron" 	g2="Y,Yacute" 	k="82" />
<hkern g1="D,O,Q,Oacute,Otilde,Odieresis,Oslash,Omacron" 	g2="question" 	k="47" />
<hkern g1="D,O,Q,Oacute,Otilde,Odieresis,Oslash,Omacron" 	g2="quotedbl,quotesingle,registered,quoteleft,quoteright,quotedblleft,quotedblright,trademark" 	k="20" />
<hkern g1="D,O,Q,Oacute,Otilde,Odieresis,Oslash,Omacron" 	g2="A,Aacute,Adieresis,Aring,AE,Amacron,Aogonek" 	k="70" />
<hkern g1="D,O,Q,Oacute,Otilde,Odieresis,Oslash,Omacron" 	g2="X" 	k="61" />
<hkern g1="D,O,Q,Oacute,Otilde,Odieresis,Oslash,Omacron" 	g2="Z,Zcaron" 	k="29" />
<hkern g1="D,O,Q,Oacute,Otilde,Odieresis,Oslash,Omacron" 	g2="comma,period,quotesinglbase,quotedblbase,ellipsis" 	k="49" />
<hkern g1="F" 	g2="A,Aacute,Adieresis,Aring,AE,Amacron,Aogonek" 	k="88" />
<hkern g1="F" 	g2="J" 	k="143" />
<hkern g1="F" 	g2="ampersand" 	k="27" />
<hkern g1="F" 	g2="comma,period,quotesinglbase,quotedblbase,ellipsis" 	k="102" />
<hkern g1="G,Gcommaaccent" 	g2="T" 	k="14" />
<hkern g1="G,Gcommaaccent" 	g2="A,Aacute,Adieresis,Aring,AE,Amacron,Aogonek" 	k="14" />
<hkern g1="G,Gcommaaccent" 	g2="X" 	k="14" />
<hkern g1="G,Gcommaaccent" 	g2="V" 	k="27" />
<hkern g1="G,Gcommaaccent" 	g2="W" 	k="14" />
<hkern g1="G,Gcommaaccent" 	g2="Y,Yacute" 	k="41" />
<hkern g1="G,Gcommaaccent" 	g2="question" 	k="27" />
<hkern g1="K,Kcommaaccent" 	g2="Y,Yacute" 	k="23" />
<hkern g1="K,Kcommaaccent" 	g2="C,G,O,Q,Oacute,Otilde,Odieresis,Oslash,Ccaron,Gcommaaccent,Omacron" 	k="96" />
<hkern g1="K,Kcommaaccent" 	g2="a,ae,aogonek" 	k="29" />
<hkern g1="K,Kcommaaccent" 	g2="c,d,e,g,o,q,oslash,eogonek" 	k="55" />
<hkern g1="K,Kcommaaccent" 	g2="f" 	k="68" />
<hkern g1="K,Kcommaaccent" 	g2="t" 	k="102" />
<hkern g1="K,Kcommaaccent" 	g2="u,uogonek" 	k="41" />
<hkern g1="K,Kcommaaccent" 	g2="v" 	k="123" />
<hkern g1="K,Kcommaaccent" 	g2="w" 	k="82" />
<hkern g1="K,Kcommaaccent" 	g2="x" 	k="68" />
<hkern g1="K,Kcommaaccent" 	g2="y,yacute" 	k="123" />
<hkern g1="K,Kcommaaccent" 	g2="hyphen,endash,emdash" 	k="102" />
<hkern g1="L,Lcommaaccent" 	g2="T" 	k="205" />
<hkern g1="L,Lcommaaccent" 	g2="ampersand" 	k="8" />
<hkern g1="L,Lcommaaccent" 	g2="V" 	k="184" />
<hkern g1="L,Lcommaaccent" 	g2="W" 	k="150" />
<hkern g1="L,Lcommaaccent" 	g2="Y,Yacute" 	k="260" />
<hkern g1="L,Lcommaaccent" 	g2="question" 	k="219" />
<hkern g1="L,Lcommaaccent" 	g2="quotedbl,quotesingle,registered,quoteleft,quoteright,quotedblleft,quotedblright,trademark" 	k="279" />
<hkern g1="L,Lcommaaccent" 	g2="C,G,O,Q,Oacute,Otilde,Odieresis,Oslash,Ccaron,Gcommaaccent,Omacron" 	k="55" />
<hkern g1="L,Lcommaaccent" 	g2="a,ae,aogonek" 	k="14" />
<hkern g1="L,Lcommaaccent" 	g2="c,d,e,g,o,q,oslash,eogonek" 	k="23" />
<hkern g1="L,Lcommaaccent" 	g2="t" 	k="76" />
<hkern g1="L,Lcommaaccent" 	g2="u,uogonek" 	k="14" />
<hkern g1="L,Lcommaaccent" 	g2="v" 	k="111" />
<hkern g1="L,Lcommaaccent" 	g2="w" 	k="70" />
<hkern g1="L,Lcommaaccent" 	g2="y,yacute" 	k="111" />
<hkern g1="L,Lcommaaccent" 	g2="U,Uacute,Udieresis,Umacron,Uogonek" 	k="49" />
<hkern g1="L,Lcommaaccent" 	g2="asterisk" 	k="342" />
<hkern g1="P" 	g2="Y,Yacute" 	k="14" />
<hkern g1="P" 	g2="A,Aacute,Adieresis,Aring,AE,Amacron,Aogonek" 	k="152" />
<hkern g1="P" 	g2="J" 	k="246" />
<hkern g1="P" 	g2="X" 	k="41" />
<hkern g1="P" 	g2="ampersand" 	k="68" />
<hkern g1="P" 	g2="comma,period,quotesinglbase,quotedblbase,ellipsis" 	k="178" />
<hkern g1="P" 	g2="a,ae,aogonek" 	k="41" />
<hkern g1="P" 	g2="c,d,e,g,o,q,oslash,eogonek" 	k="35" />
<hkern g1="P" 	g2="hyphen,endash,emdash" 	k="55" />
<hkern g1="R" 	g2="T" 	k="20" />
<hkern g1="R" 	g2="V" 	k="20" />
<hkern g1="R" 	g2="Y,Yacute" 	k="37" />
<hkern g1="R" 	g2="quotedbl,quotesingle,registered,quoteleft,quoteright,quotedblleft,quotedblright,trademark" 	k="14" />
<hkern g1="R" 	g2="ampersand" 	k="14" />
<hkern g1="R" 	g2="a,ae,aogonek" 	k="41" />
<hkern g1="R" 	g2="c,d,e,g,o,q,oslash,eogonek" 	k="61" />
<hkern g1="R" 	g2="s" 	k="27" />
<hkern g1="S,Scaron" 	g2="T" 	k="27" />
<hkern g1="S,Scaron" 	g2="Y,Yacute" 	k="20" />
<hkern g1="S,Scaron" 	g2="A,Aacute,Adieresis,Aring,AE,Amacron,Aogonek" 	k="20" />
<hkern g1="S,Scaron" 	g2="t" 	k="29" />
<hkern g1="S,Scaron" 	g2="v" 	k="27" />
<hkern g1="S,Scaron" 	g2="w" 	k="14" />
<hkern g1="S,Scaron" 	g2="x" 	k="35" />
<hkern g1="S,Scaron" 	g2="y,yacute" 	k="27" />
<hkern g1="T" 	g2="C,G,O,Q,Oacute,Otilde,Odieresis,Oslash,Ccaron,Gcommaaccent,Omacron" 	k="49" />
<hkern g1="T" 	g2="A,Aacute,Adieresis,Aring,AE,Amacron,Aogonek" 	k="131" />
<hkern g1="T" 	g2="J" 	k="178" />
<hkern g1="T" 	g2="ampersand" 	k="111" />
<hkern g1="T" 	g2="comma,period,quotesinglbase,quotedblbase,ellipsis" 	k="199" />
<hkern g1="T" 	g2="a,ae,aogonek" 	k="160" />
<hkern g1="T" 	g2="c,d,e,g,o,q,oslash,eogonek" 	k="201" />
<hkern g1="T" 	g2="hyphen,endash,emdash" 	k="123" />
<hkern g1="T" 	g2="s" 	k="166" />
<hkern g1="T" 	g2="v" 	k="57" />
<hkern g1="T" 	g2="w" 	k="57" />
<hkern g1="T" 	g2="x" 	k="78" />
<hkern g1="T" 	g2="y,yacute" 	k="57" />
<hkern g1="T" 	g2="S,Scaron" 	k="14" />
<hkern g1="T" 	g2="colon,semicolon" 	k="102" />
<hkern g1="T" 	g2="f" 	k="43" />
<hkern g1="T" 	g2="m,n,p,r,z,ncommaaccent" 	k="139" />
<hkern g1="T" 	g2="u,uogonek" 	k="139" />
<hkern g1="J,U,Uacute,Udieresis,Umacron,Uogonek" 	g2="A,Aacute,Adieresis,Aring,AE,Amacron,Aogonek" 	k="68" />
<hkern g1="J,U,Uacute,Udieresis,Umacron,Uogonek" 	g2="J" 	k="53" />
<hkern g1="J,U,Uacute,Udieresis,Umacron,Uogonek" 	g2="comma,period,quotesinglbase,quotedblbase,ellipsis" 	k="61" />
<hkern g1="V" 	g2="A,Aacute,Adieresis,Aring,AE,Amacron,Aogonek" 	k="96" />
<hkern g1="V" 	g2="comma,period,quotesinglbase,quotedblbase,ellipsis" 	k="184" />
<hkern g1="V" 	g2="C,G,O,Q,Oacute,Otilde,Odieresis,Oslash,Ccaron,Gcommaaccent,Omacron" 	k="41" />
<hkern g1="V" 	g2="J" 	k="199" />
<hkern g1="V" 	g2="ampersand" 	k="82" />
<hkern g1="V" 	g2="a,ae,aogonek" 	k="137" />
<hkern g1="V" 	g2="c,d,e,g,o,q,oslash,eogonek" 	k="123" />
<hkern g1="V" 	g2="f" 	k="55" />
<hkern g1="V" 	g2="m,n,p,r,z,ncommaaccent" 	k="115" />
<hkern g1="V" 	g2="s" 	k="102" />
<hkern g1="V" 	g2="t" 	k="35" />
<hkern g1="V" 	g2="u,uogonek" 	k="115" />
<hkern g1="V" 	g2="v" 	k="35" />
<hkern g1="V" 	g2="w" 	k="27" />
<hkern g1="V" 	g2="x" 	k="55" />
<hkern g1="V" 	g2="y,yacute" 	k="27" />
<hkern g1="V" 	g2="hyphen,endash,emdash" 	k="117" />
<hkern g1="W" 	g2="A,Aacute,Adieresis,Aring,AE,Amacron,Aogonek" 	k="90" />
<hkern g1="W" 	g2="comma,period,quotesinglbase,quotedblbase,ellipsis" 	k="131" />
<hkern g1="W" 	g2="C,G,O,Q,Oacute,Otilde,Odieresis,Oslash,Ccaron,Gcommaaccent,Omacron" 	k="41" />
<hkern g1="W" 	g2="J" 	k="121" />
<hkern g1="W" 	g2="ampersand" 	k="41" />
<hkern g1="W" 	g2="a,ae,aogonek" 	k="82" />
<hkern g1="W" 	g2="c,d,e,g,o,q,oslash,eogonek" 	k="82" />
<hkern g1="W" 	g2="f" 	k="35" />
<hkern g1="W" 	g2="m,n,p,r,z,ncommaaccent" 	k="61" />
<hkern g1="W" 	g2="s" 	k="61" />
<hkern g1="W" 	g2="t" 	k="35" />
<hkern g1="W" 	g2="u,uogonek" 	k="61" />
<hkern g1="W" 	g2="v" 	k="14" />
<hkern g1="W" 	g2="x" 	k="55" />
<hkern g1="W" 	g2="y,yacute" 	k="14" />
<hkern g1="W" 	g2="hyphen,endash,emdash" 	k="76" />
<hkern g1="Y,Yacute" 	g2="A,Aacute,Adieresis,Aring,AE,Amacron,Aogonek" 	k="137" />
<hkern g1="Y,Yacute" 	g2="comma,period,quotesinglbase,quotedblbase,ellipsis" 	k="184" />
<hkern g1="Y,Yacute" 	g2="C,G,O,Q,Oacute,Otilde,Odieresis,Oslash,Ccaron,Gcommaaccent,Omacron" 	k="82" />
<hkern g1="Y,Yacute" 	g2="J" 	k="240" />
<hkern g1="Y,Yacute" 	g2="ampersand" 	k="123" />
<hkern g1="Y,Yacute" 	g2="a,ae,aogonek" 	k="227" />
<hkern g1="Y,Yacute" 	g2="c,d,e,g,o,q,oslash,eogonek" 	k="254" />
<hkern g1="Y,Yacute" 	g2="f" 	k="123" />
<hkern g1="Y,Yacute" 	g2="m,n,p,r,z,ncommaaccent" 	k="184" />
<hkern g1="Y,Yacute" 	g2="s" 	k="205" />
<hkern g1="Y,Yacute" 	g2="t" 	k="68" />
<hkern g1="Y,Yacute" 	g2="u,uogonek" 	k="184" />
<hkern g1="Y,Yacute" 	g2="v" 	k="123" />
<hkern g1="Y,Yacute" 	g2="w" 	k="123" />
<hkern g1="Y,Yacute" 	g2="x" 	k="158" />
<hkern g1="Y,Yacute" 	g2="y,yacute" 	k="123" />
<hkern g1="Y,Yacute" 	g2="hyphen,endash,emdash" 	k="252" />
<hkern g1="Y,Yacute" 	g2="S,Scaron" 	k="41" />
<hkern g1="Y,Yacute" 	g2="colon,semicolon" 	k="143" />
<hkern g1="a,h,m,n,aogonek,ncommaaccent" 	g2="T" 	k="193" />
<hkern g1="a,h,m,n,aogonek,ncommaaccent" 	g2="question" 	k="88" />
<hkern g1="a,h,m,n,aogonek,ncommaaccent" 	g2="quotedbl,quotesingle,registered,quoteleft,quoteright,quotedblleft,quotedblright,trademark" 	k="27" />
<hkern g1="a,h,m,n,aogonek,ncommaaccent" 	g2="Y,Yacute" 	k="225" />
<hkern g1="a,h,m,n,aogonek,ncommaaccent" 	g2="V" 	k="150" />
<hkern g1="a,h,m,n,aogonek,ncommaaccent" 	g2="W" 	k="96" />
<hkern g1="ampersand" 	g2="T" 	k="137" />
<hkern g1="ampersand" 	g2="Y,Yacute" 	k="166" />
<hkern g1="ampersand" 	g2="V" 	k="102" />
<hkern g1="ampersand" 	g2="W" 	k="70" />
<hkern g1="asterisk" 	g2="A,Aacute,Adieresis,Aring,AE,Amacron,Aogonek" 	k="186" />
<hkern g1="asterisk" 	g2="J" 	k="252" />
<hkern g1="b,o,p,oslash" 	g2="T" 	k="201" />
<hkern g1="b,o,p,oslash" 	g2="question" 	k="109" />
<hkern g1="b,o,p,oslash" 	g2="quotedbl,quotesingle,registered,quoteleft,quoteright,quotedblleft,quotedblright,trademark" 	k="20" />
<hkern g1="b,o,p,oslash" 	g2="Y,Yacute" 	k="240" />
<hkern g1="b,o,p,oslash" 	g2="V" 	k="123" />
<hkern g1="b,o,p,oslash" 	g2="W" 	k="82" />
<hkern g1="b,o,p,oslash" 	g2="comma,period,quotesinglbase,quotedblbase,ellipsis" 	k="8" />
<hkern g1="b,o,p,oslash" 	g2="x" 	k="70" />
<hkern g1="c,cent" 	g2="T" 	k="145" />
<hkern g1="c,cent" 	g2="question" 	k="55" />
<hkern g1="c,cent" 	g2="quotedbl,quotesingle,registered,quoteleft,quoteright,quotedblleft,quotedblright,trademark" 	k="14" />
<hkern g1="c,cent" 	g2="Y,Yacute" 	k="137" />
<hkern g1="c,cent" 	g2="V" 	k="88" />
<hkern g1="c,cent" 	g2="W" 	k="55" />
<hkern g1="colon,semicolon" 	g2="T" 	k="102" />
<hkern g1="colon,semicolon" 	g2="Y,Yacute" 	k="143" />
<hkern g1="e,ae,eogonek" 	g2="T" 	k="186" />
<hkern g1="e,ae,eogonek" 	g2="question" 	k="88" />
<hkern g1="e,ae,eogonek" 	g2="quotedbl,quotesingle,registered,quoteleft,quoteright,quotedblleft,quotedblright,trademark" 	k="14" />
<hkern g1="e,ae,eogonek" 	g2="Y,Yacute" 	k="225" />
<hkern g1="e,ae,eogonek" 	g2="V" 	k="117" />
<hkern g1="e,ae,eogonek" 	g2="W" 	k="82" />
<hkern g1="e,ae,eogonek" 	g2="comma,period,quotesinglbase,quotedblbase,ellipsis" 	k="8" />
<hkern g1="e,ae,eogonek" 	g2="asterisk" 	k="29" />
<hkern g1="f" 	g2="T" 	k="-82" />
<hkern g1="f" 	g2="question" 	k="-111" />
<hkern g1="f" 	g2="quotedbl,quotesingle,registered,quoteleft,quoteright,quotedblleft,quotedblright,trademark" 	k="-131" />
<hkern g1="f" 	g2="Y,Yacute" 	k="-129" />
<hkern g1="f" 	g2="V" 	k="-137" />
<hkern g1="f" 	g2="W" 	k="-137" />
<hkern g1="f" 	g2="comma,period,quotesinglbase,quotedblbase,ellipsis" 	k="96" />
<hkern g1="f" 	g2="X" 	k="-82" />
<hkern g1="f" 	g2="Z,Zcaron" 	k="-82" />
<hkern g1="f" 	g2="asterisk" 	k="-131" />
<hkern g1="f" 	g2="ampersand" 	k="14" />
<hkern g1="f" 	g2="parenright,bracketright,braceright" 	k="-137" />
<hkern g1="f" 	g2="exclam,B,D,E,F,H,I,K,L,M,N,P,R,Eacute,Iacute,Emacron,Edotaccent,Eogonek,Imacron,Iogonek,Kcommaaccent,Lcommaaccent,Ncommaaccent" 	k="-82" />
<hkern g1="f" 	g2="S,Scaron" 	k="-55" />
<hkern g1="f" 	g2="U,Uacute,Udieresis,Umacron,Uogonek" 	k="-82" />
<hkern g1="g,q" 	g2="T" 	k="139" />
<hkern g1="g,q" 	g2="question" 	k="55" />
<hkern g1="g,q" 	g2="Y,Yacute" 	k="184" />
<hkern g1="g,q" 	g2="V" 	k="115" />
<hkern g1="g,q" 	g2="W" 	k="61" />
<hkern g1="g,q" 	g2="j" 	k="-109" />
<hkern g1="hyphen,endash,emdash" 	g2="Y,Yacute" 	k="246" />
<hkern g1="hyphen,endash,emdash" 	g2="V" 	k="117" />
<hkern g1="hyphen,endash,emdash" 	g2="W" 	k="76" />
<hkern g1="hyphen,endash,emdash" 	g2="X" 	k="96" />
<hkern g1="k,kcommaaccent" 	g2="T" 	k="92" />
<hkern g1="k,kcommaaccent" 	g2="Y,Yacute" 	k="150" />
<hkern g1="k,kcommaaccent" 	g2="V" 	k="55" />
<hkern g1="k,kcommaaccent" 	g2="W" 	k="55" />
<hkern g1="k,kcommaaccent" 	g2="c,d,e,g,o,q,oslash,eogonek" 	k="14" />
<hkern g1="k,kcommaaccent" 	g2="bullet" 	k="49" />
<hkern g1="k,kcommaaccent" 	g2="hyphen,endash,emdash" 	k="49" />
<hkern g1="quotedbl,quotesingle,quoteleft,quoteright,quotedblleft,quotedblright" 	g2="A,Aacute,Adieresis,Aring,AE,Amacron,Aogonek" 	k="199" />
<hkern g1="quotedbl,quotesingle,quoteleft,quoteright,quotedblleft,quotedblright" 	g2="C,G,O,Q,Oacute,Otilde,Odieresis,Oslash,Ccaron,Gcommaaccent,Omacron" 	k="14" />
<hkern g1="quotedbl,quotesingle,quoteleft,quoteright,quotedblleft,quotedblright" 	g2="s" 	k="61" />
<hkern g1="quotedbl,quotesingle,quoteleft,quoteright,quotedblleft,quotedblright" 	g2="J" 	k="217" />
<hkern g1="quotedbl,quotesingle,quoteleft,quoteright,quotedblleft,quotedblright" 	g2="comma,period,quotesinglbase,quotedblbase,ellipsis" 	k="170" />
<hkern g1="r" 	g2="T" 	k="70" />
<hkern g1="r" 	g2="V" 	k="55" />
<hkern g1="r" 	g2="W" 	k="27" />
<hkern g1="r" 	g2="Y,Yacute" 	k="102" />
<hkern g1="r" 	g2="comma,period,quotesinglbase,quotedblbase,ellipsis" 	k="178" />
<hkern g1="r" 	g2="X" 	k="41" />
<hkern g1="s" 	g2="T" 	k="152" />
<hkern g1="s" 	g2="V" 	k="96" />
<hkern g1="s" 	g2="W" 	k="102" />
<hkern g1="s" 	g2="Y,Yacute" 	k="199" />
<hkern g1="s" 	g2="quotedbl,quotesingle,registered,quoteleft,quoteright,quotedblleft,quotedblright,trademark" 	k="41" />
<hkern g1="s" 	g2="X" 	k="14" />
<hkern g1="s" 	g2="question" 	k="96" />
<hkern g1="t" 	g2="T" 	k="63" />
<hkern g1="t" 	g2="V" 	k="68" />
<hkern g1="t" 	g2="W" 	k="35" />
<hkern g1="t" 	g2="Y,Yacute" 	k="76" />
<hkern g1="u,z,uogonek" 	g2="T" 	k="139" />
<hkern g1="u,z,uogonek" 	g2="V" 	k="115" />
<hkern g1="u,z,uogonek" 	g2="W" 	k="61" />
<hkern g1="u,z,uogonek" 	g2="Y,Yacute" 	k="184" />
<hkern g1="u,z,uogonek" 	g2="question" 	k="55" />
<hkern g1="v" 	g2="T" 	k="57" />
<hkern g1="v" 	g2="V" 	k="35" />
<hkern g1="v" 	g2="W" 	k="14" />
<hkern g1="v" 	g2="Y,Yacute" 	k="123" />
<hkern g1="v" 	g2="A,Aacute,Adieresis,Aring,AE,Amacron,Aogonek" 	k="41" />
<hkern g1="v" 	g2="comma,period,quotesinglbase,quotedblbase,ellipsis" 	k="131" />
<hkern g1="v" 	g2="X" 	k="70" />
<hkern g1="w" 	g2="T" 	k="57" />
<hkern g1="w" 	g2="V" 	k="27" />
<hkern g1="w" 	g2="Y,Yacute" 	k="123" />
<hkern g1="w" 	g2="A,Aacute,Adieresis,Aring,AE,Amacron,Aogonek" 	k="29" />
<hkern g1="w" 	g2="comma,period,quotesinglbase,quotedblbase,ellipsis" 	k="76" />
<hkern g1="w" 	g2="X" 	k="76" />
<hkern g1="y,yacute" 	g2="T" 	k="57" />
<hkern g1="y,yacute" 	g2="V" 	k="27" />
<hkern g1="y,yacute" 	g2="W" 	k="14" />
<hkern g1="y,yacute" 	g2="Y,Yacute" 	k="123" />
<hkern g1="y,yacute" 	g2="A,Aacute,Adieresis,Aring,AE,Amacron,Aogonek" 	k="41" />
<hkern g1="y,yacute" 	g2="comma,period,quotesinglbase,quotedblbase,ellipsis" 	k="111" />
<hkern g1="y,yacute" 	g2="X" 	k="70" />
<hkern g1="y,yacute" 	g2="question" 	k="14" />
<hkern g1="X" 	g2="f" 	k="61" />
<hkern g1="X" 	g2="t" 	k="61" />
<hkern g1="X" 	g2="v" 	k="70" />
<hkern g1="X" 	g2="w" 	k="76" />
<hkern g1="X" 	g2="y,yacute" 	k="70" />
<hkern g1="X" 	g2="C,G,O,Q,Oacute,Otilde,Odieresis,Oslash,Ccaron,Gcommaaccent,Omacron" 	k="61" />
<hkern g1="X" 	g2="hyphen,endash,emdash" 	k="96" />
<hkern g1="zero,nine" 	g2="comma,period,quotesinglbase,quotedblbase,ellipsis" 	k="43" />
<hkern g1="seven" 	g2="comma,period,quotesinglbase,quotedblbase,ellipsis" 	k="193" />
<hkern g1="x" 	g2="T" 	k="78" />
<hkern g1="x" 	g2="V" 	k="55" />
<hkern g1="x" 	g2="W" 	k="55" />
<hkern g1="x" 	g2="c,d,e,g,o,q,oslash,eogonek" 	k="70" />
<hkern g1="x" 	g2="Y,Yacute" 	k="158" />
<hkern g1="parenleft,bracketleft,braceleft" 	g2="j" 	k="-225" />
</font>
</defs></svg> 