<?xml version="1.0" standalone="no"?>
<!DOCTYPE svg PUBLIC "-//W3C//DTD SVG 1.1//EN" "http://www.w3.org/Graphics/SVG/1.1/DTD/svg11.dtd" >
<svg xmlns="http://www.w3.org/2000/svg">
<metadata></metadata>
<defs>
<font id="proxima_novasemibold_italic" horiz-adv-x="1189" >
<font-face units-per-em="2048" ascent="1618" descent="-430" />
<missing-glyph horiz-adv-x="528" />
<glyph horiz-adv-x="0" />
<glyph horiz-adv-x="682" />
<glyph unicode=" "  horiz-adv-x="528" />
<glyph unicode="&#x09;" horiz-adv-x="528" />
<glyph unicode="&#xa0;" horiz-adv-x="528" />
<glyph unicode="!" horiz-adv-x="499" d="M25 111q0 63 46 108t109 45q55 0 93 -38.5t38 -92.5q0 -64 -46 -110t-111 -46q-54 0 -91.5 39t-37.5 95zM139 420l170 946h262l-245 -946h-187z" />
<glyph unicode="&#x22;" horiz-adv-x="778" d="M236 801q24 407 26 444q3 61 42.5 101t98.5 40q44 0 75.5 -31t31.5 -77q0 -20 -14 -55l-164 -422h-96zM578 801q24 407 26 444q3 61 42.5 101t98.5 40q44 0 75.5 -31t31.5 -77q0 -20 -14 -55l-164 -422h-96z" />
<glyph unicode="#" horiz-adv-x="1243" d="M8 358l76 142h209l203 366h-209l73 142h215l197 358h164l-197 -358h207l197 358h164l-199 -358h207l-72 -142h-213l-205 -366h215l-73 -142h-219l-199 -358h-164l201 358h-209l-199 -358h-164l199 358h-205zM457 500h205l204 366h-207z" />
<glyph unicode="$" horiz-adv-x="1239" d="M31 227l151 174q103 -142 303 -194l86 395q-62 24 -105 44t-94.5 53t-82.5 68t-52.5 86t-21.5 110q0 82 37 159t102 136t163 95t212 36h19l40 184h164l-45 -205q218 -48 344 -199l-153 -172q-86 108 -240 156l-80 -356q63 -25 106.5 -45.5t96 -54t84.5 -69t54 -87 t22 -111.5q0 -90 -35.5 -171.5t-100 -145t-164.5 -101t-220 -37.5h-25l-39 -180h-164l43 199q-134 26 -240.5 87t-164.5 146zM469 1004q0 -46 41.5 -80.5t118.5 -67.5l71 322h-6q-95 0 -160 -52t-65 -122zM643 188q119 1 181.5 61.5t62.5 135.5q0 50 -42 86.5t-122 71.5z " />
<glyph unicode="%" horiz-adv-x="1529" d="M154 0l1173 1366h139l-1175 -1366h-137zM172 989q0 115 52.5 207t137 141t183.5 49q134 0 226.5 -76.5t92.5 -203.5q0 -173 -110 -285t-262 -112q-133 0 -226.5 77.5t-93.5 202.5zM332 1004q0 -68 46 -113t118 -45q87 0 148 69.5t61 176.5q0 69 -46 114t-118 45 q-86 0 -147.5 -70t-61.5 -177zM745 256q0 174 109.5 285.5t263.5 111.5q134 0 226 -76.5t92 -203.5q0 -173 -110 -285.5t-263 -112.5q-133 0 -225.5 77.5t-92.5 203.5zM903 270q0 -68 47 -112.5t119 -44.5q86 0 147.5 69.5t61.5 175.5q0 69 -47 114.5t-119 45.5 q-85 0 -147 -71t-62 -177z" />
<glyph unicode="&#x26;" horiz-adv-x="1320" d="M20 328q0 95 31.5 170t91.5 128.5t123 88.5t150 69q-39 122 -39 226q0 157 117 266.5t282 109.5q91 0 165.5 -28.5t121.5 -89t47 -144.5q0 -40 -8.5 -75.5t-20.5 -63.5t-35.5 -55t-44 -47t-55.5 -41t-60 -34t-67.5 -31t-68.5 -27.5t-72 -26.5q41 -84 88 -164 q72 -129 108 -184q123 135 201 272l156 -98q-140 -203 -260 -320q62 -94 166 -229h-263q-5 7 -29.5 39.5t-39.5 52.5q-172 -117 -356 -117q-123 0 -218 37t-153 118t-58 198zM258 354q0 -98 64 -152.5t159 -54.5q106 0 228 84q-96 147 -127 203q-64 110 -109 205 q-102 -49 -158.5 -117t-56.5 -168zM594 1010q0 -63 27 -152q70 25 115.5 45.5t89.5 50t65.5 66.5t21.5 84q0 59 -37 92t-94 33q-72 0 -130 -59t-58 -160z" />
<glyph unicode="'" horiz-adv-x="438" d="M236 801q24 407 26 444q3 61 42.5 101t98.5 40q44 0 75.5 -31t31.5 -77q0 -20 -14 -55l-164 -422h-96z" />
<glyph unicode="(" horiz-adv-x="565" d="M49 205q0 319 144.5 633t402.5 565l111 -113q-433 -540 -433 -1149q0 -211 78 -460l-153 -89q-72 121 -111 281t-39 332z" />
<glyph unicode=")" horiz-adv-x="567" d="M-143 -295q432 542 432 1151q0 210 -78 459l156 88q71 -120 109 -279.5t38 -332.5q0 -319 -144 -634t-403 -565z" />
<glyph unicode="*" horiz-adv-x="710" d="M166 1008l225 82l-180 122l78 91l164 -142l41 225h114l-63 -235l219 102l35 -104l-224 -80l177 -125l-78 -90l-164 141l-39 -225h-117l64 236l-219 -101z" />
<glyph unicode="+" horiz-adv-x="1028" d="M86 623l31 137h379l90 411h151l-90 -411h379l-31 -137h-379l-94 -426h-151l94 426h-379z" />
<glyph unicode="," horiz-adv-x="501" d="M-37 -176q60 29 114.5 76t74.5 96h-19q-46 0 -78 31.5t-32 85.5q0 62 48 106.5t109 44.5q57 0 97 -38t40 -107q0 -107 -79 -214t-195 -165z" />
<glyph unicode="-" horiz-adv-x="614" d="M41 403l39 185h491l-39 -185h-491z" />
<glyph unicode="." horiz-adv-x="503" d="M25 111q0 63 46 108t109 45q55 0 93 -38.5t38 -92.5q0 -64 -46 -110t-111 -46q-54 0 -91.5 39t-37.5 95z" />
<glyph unicode="/" horiz-adv-x="645" d="M-123 -41l805 1448h168l-807 -1448h-166z" />
<glyph unicode="0" horiz-adv-x="1263" d="M102 518q0 107 21.5 213.5t61.5 202.5t100 179t132 143.5t162.5 95t188.5 34.5q221 0 346 -142.5t125 -397.5q0 -128 -30 -254.5t-88 -237t-136.5 -196t-184 -134.5t-222.5 -49q-221 0 -348.5 144.5t-127.5 398.5zM344 506q0 -145 62.5 -231.5t191.5 -86.5q90 0 167.5 64 t126 164t76 216t27.5 226q0 145 -61.5 230.5t-190.5 85.5q-73 0 -138 -41.5t-111.5 -110.5t-81 -156t-51.5 -179.5t-17 -180.5z" />
<glyph unicode="1" horiz-adv-x="778" d="M135 969l479 397h209l-301 -1366h-239l233 1057l-274 -234z" />
<glyph unicode="2" horiz-adv-x="1218" d="M-8 0l49 227q161 94 265.5 157.5t219 138t183 130t128 116t85.5 115t26 107.5q0 86 -74 135.5t-192 49.5q-201 0 -346 -127l-105 172q85 77 210 121t257 44q100 0 189 -24t159 -70t111 -119t41 -165q0 -84 -39 -169t-105.5 -162t-167.5 -159t-212 -154t-252 -153h606 l-47 -211h-989z" />
<glyph unicode="3" horiz-adv-x="1175" d="M-18 260l165 141q57 -99 168.5 -156t231.5 -57q130 0 203 64.5t73 167.5q0 78 -68 125t-204 47q-110 0 -150 -4l50 217q20 -2 188 -2q129 0 211 48.5t82 145.5q0 78 -78.5 128.5t-210.5 50.5q-194 0 -338 -121l-90 162q84 79 202.5 124t248.5 45q232 0 372 -93t140 -257 q0 -93 -56.5 -170.5t-139.5 -121t-175 -52.5q113 -27 183.5 -101.5t70.5 -193.5q0 -180 -147 -301t-365 -121q-186 0 -342.5 77t-224.5 208z" />
<glyph unicode="4" horiz-adv-x="1187" d="M14 309l49 213l734 844h342l-187 -846h183l-48 -211h-182l-67 -309h-240l68 309h-652zM297 520h416l139 631z" />
<glyph unicode="5" horiz-adv-x="1228" d="M53 244l172 147q56 -99 151 -151t222 -52q128 0 210.5 77.5t82.5 191.5q0 101 -77.5 158t-201.5 57q-79 0 -140.5 -21t-125.5 -67l-153 65l155 717h895l-45 -211h-655l-84 -377q111 90 278 90q172 0 288 -102.5t116 -282.5q0 -137 -68 -252.5t-194.5 -185.5t-286.5 -70 q-376 0 -539 269z" />
<glyph unicode="6" horiz-adv-x="1230" d="M94 494q0 127 28 253t87 241.5t141.5 204t199.5 141t253 52.5q288 0 436 -192l-152 -168q-44 71 -123 109.5t-178 38.5q-82 0 -152.5 -35.5t-121 -96t-85.5 -130t-58 -148.5q-14 -41 -15 -49q61 64 162.5 110.5t208.5 46.5q185 0 305.5 -101t120.5 -269 q0 -141 -73.5 -262t-201 -193t-276.5 -72q-239 0 -372.5 136.5t-133.5 382.5zM328 465q0 -125 75 -201t199 -76q127 0 213 83.5t86 199.5q0 94 -79 150.5t-201 56.5q-160 0 -291 -131q-2 -16 -2 -82z" />
<glyph unicode="7" horiz-adv-x="1089" d="M129 0l768 1155h-696l45 211h985l-37 -166l-788 -1200h-277z" />
<glyph unicode="8" horiz-adv-x="1220" d="M45 334q0 141 104.5 246.5t288.5 148.5q-94 41 -157.5 114.5t-63.5 166.5q0 77 30.5 140.5t81 106.5t117.5 72.5t139.5 43t147.5 13.5q96 0 184.5 -22t161 -63t115.5 -108.5t43 -150.5q0 -138 -100.5 -233.5t-268.5 -126.5q104 -51 172 -131.5t68 -183.5 q0 -116 -75.5 -207t-196.5 -138t-263 -47q-108 0 -201.5 22.5t-167.5 65.5t-116.5 112.5t-42.5 158.5zM299 379q0 -91 79 -141t204 -50q112 0 199 56.5t87 146.5q0 51 -39 96t-90 71.5t-108 41.5q-144 -9 -238 -68.5t-94 -152.5zM457 983q0 -62 69 -113t150 -71 q137 9 220 61.5t83 138.5q0 75 -75.5 125t-186.5 50q-107 0 -183.5 -52.5t-76.5 -138.5z" />
<glyph unicode="9" horiz-adv-x="1230" d="M70 172l151 166q46 -70 125 -109t176 -39q66 0 125.5 24t104.5 63.5t82.5 93.5t63 111.5t42.5 119.5q9 21 14 49q-59 -64 -160.5 -110.5t-209.5 -46.5q-185 0 -304.5 100t-119.5 268q0 141 73 262.5t199.5 193t276.5 71.5q239 0 372 -136.5t133 -382.5q0 -127 -28 -252.5 t-86.5 -241.5t-140.5 -204.5t-199 -141.5t-252 -53q-287 0 -438 195zM410 893q0 -94 78 -149.5t202 -55.5q161 0 289 131q4 32 4 82q0 125 -75 200t-201 75t-211.5 -83t-85.5 -200z" />
<glyph unicode=":" horiz-adv-x="485" d="M25 111q0 63 46 108t109 45q55 0 93 -38.5t38 -92.5q0 -64 -46 -110t-111 -46q-54 0 -91.5 39t-37.5 95zM186 850q0 64 46.5 110t111.5 46q54 0 91.5 -39t37.5 -95q0 -63 -46.5 -108t-109.5 -45q-55 0 -93 38.5t-38 92.5z" />
<glyph unicode=";" horiz-adv-x="501" d="M-37 -176q60 29 114.5 76t74.5 96h-19q-46 0 -78 31.5t-32 85.5q0 62 48 106.5t109 44.5q57 0 97 -38t40 -107q0 -107 -79 -214t-195 -165zM186 850q0 64 46.5 110t111.5 46q54 0 91.5 -39t37.5 -95q0 -63 -46.5 -108t-109.5 -45q-55 0 -93 38.5t-38 92.5z" />
<glyph unicode="&#x3c;" horiz-adv-x="1028" d="M82 608l35 156l1003 424l-39 -172l-819 -338l670 -336l-35 -158z" />
<glyph unicode="=" horiz-adv-x="1028" d="M41 420l31 139h909l-31 -139h-909zM127 811l31 137h909l-31 -137h-909z" />
<glyph unicode="&#x3e;" horiz-adv-x="1028" d="M-12 184l39 172l823 336l-674 338l35 158l815 -424l-35 -156z" />
<glyph unicode="?" horiz-adv-x="940" d="M178 1227q179 159 414 159q119 0 215 -36t152.5 -105t56.5 -160q0 -74 -26.5 -133t-69.5 -98t-94.5 -71t-103 -58.5t-94.5 -53t-69.5 -62.5t-26.5 -79q0 -36 27 -67l-194 -62q-39 62 -39 146q0 60 24 109.5t62 82.5t84.5 61t93 52.5t84.5 50t62 60t24 75.5 q0 63 -52.5 100.5t-150.5 37.5q-157 0 -276 -113zM233 111q0 63 46.5 108t111.5 45q54 0 91.5 -38.5t37.5 -92.5q0 -64 -46 -110t-109 -46q-55 0 -93.5 39t-38.5 95z" />
<glyph unicode="@" horiz-adv-x="1603" d="M113 500q0 215 114 402t301.5 296t397.5 109q191 0 339.5 -86.5t227 -231t78.5 -319.5q0 -119 -35 -216.5t-91 -157t-122.5 -91t-134.5 -31.5q-84 0 -134.5 46t-58.5 112l-2 14q-55 -78 -137 -125t-170 -47q-146 0 -231.5 94.5t-85.5 245.5q0 136 67.5 254t176 186 t227.5 68q92 0 158.5 -41t101.5 -107l22 117h193l-111 -524q-4 -20 -4 -45q0 -48 23.5 -73t60.5 -25q32 0 66.5 19t67 58t53 109.5t20.5 161.5q0 248 -156.5 403.5t-414.5 155.5q-144 0 -279 -60t-233.5 -159.5t-158 -233t-59.5 -274.5q0 -160 74.5 -291.5t208 -207 t299.5 -75.5q198 0 375 115l41 -59q-200 -129 -426 -129q-183 0 -332 85t-233 232t-84 326zM569 528q0 -89 50 -143.5t137 -54.5q83 0 149 44.5t111 110.5l53 258q-18 48 -65.5 85.5t-118.5 37.5q-133 0 -224.5 -102.5t-91.5 -235.5z" />
<glyph unicode="A" horiz-adv-x="1378" d="M-109 0l840 1366h299l236 -1366h-260l-43 264h-627l-158 -264h-287zM451 475h491l-102 651z" />
<glyph unicode="B" horiz-adv-x="1329" d="M35 0l301 1366h622q163 0 263 -92.5t100 -229.5t-93 -241.5t-220 -118.5q89 -24 142.5 -102.5t53.5 -173.5q0 -77 -27.5 -147.5t-82 -130t-148 -95t-213.5 -35.5h-698zM322 211h397q113 0 178.5 63.5t65.5 153.5q0 72 -48.5 118t-130.5 46h-378zM453 803h391 q60 0 104 17.5t68 47.5t35.5 64.5t11.5 73.5q0 64 -48.5 106.5t-119.5 42.5h-365z" />
<glyph unicode="C" horiz-adv-x="1396" d="M104 582q0 178 64.5 331t172.5 256t250.5 161.5t297.5 58.5q217 0 366 -99t220 -260l-230 -82q-48 112 -145.5 170t-222.5 58q-102 0 -197 -43t-166.5 -118t-114.5 -184.5t-43 -234.5q0 -180 113.5 -294t302.5 -114q93 0 183 41.5t159 116.5l182 -129 q-107 -125 -250 -183.5t-286 -58.5q-186 0 -335 74t-235 213t-86 320z" />
<glyph unicode="D" horiz-adv-x="1454" d="M35 0l301 1366h498q114 0 219.5 -43t185.5 -118.5t128 -186t48 -236.5q0 -113 -30.5 -221.5t-98.5 -211t-167.5 -179.5t-248.5 -123.5t-329 -46.5h-506zM322 211h262q132 0 242.5 44.5t184.5 120.5t115 177t41 213q0 168 -107 278.5t-269 110.5h-261z" />
<glyph unicode="E" horiz-adv-x="1181" d="M35 0l301 1366h936l-45 -211h-697l-77 -352h682l-48 -211h-681l-84 -381h696l-47 -211h-936z" />
<glyph unicode="F" horiz-adv-x="1153" d="M35 0l301 1366h936l-45 -211h-697l-77 -352h682l-48 -211h-681l-132 -592h-239z" />
<glyph unicode="G" horiz-adv-x="1468" d="M104 582q0 230 106 415t290 288.5t409 103.5q196 0 338.5 -90.5t212.5 -231.5l-217 -94q-43 92 -143 147.5t-223 55.5q-137 0 -256.5 -74.5t-192 -208.5t-72.5 -297q0 -178 113.5 -293t302.5 -115q172 0 311 121l47 215h-409l47 211h647l-115 -518q-104 -116 -242.5 -179 t-297.5 -63q-187 0 -336 74.5t-234.5 213.5t-85.5 319z" />
<glyph unicode="H" horiz-adv-x="1480" d="M35 0l301 1366h239l-122 -557h710l123 557h240l-301 -1366h-240l131 598h-710l-132 -598h-239z" />
<glyph unicode="I" horiz-adv-x="530" d="M35 0l301 1366h239l-301 -1366h-239z" />
<glyph unicode="J" horiz-adv-x="987" d="M-53 137l135 178q34 -58 96 -92.5t139 -34.5q107 0 176 67t95 181l205 930h239l-207 -932q-52 -233 -173.5 -346t-319.5 -113q-119 0 -222.5 41.5t-162.5 120.5z" />
<glyph unicode="K" horiz-adv-x="1271" d="M35 0l301 1366h239l-139 -631l662 631h309l-696 -643l438 -723h-283l-336 586l-159 -150l-97 -436h-239z" />
<glyph unicode="L" horiz-adv-x="1036" d="M18 0l301 1366h240l-254 -1155h602l-47 -211h-842z" />
<glyph unicode="M" horiz-adv-x="1710" d="M35 0l301 1366h330l163 -938l580 938h346l-301 -1366h-240l234 1055l-651 -1055h-103l-186 1055l-234 -1055h-239z" />
<glyph unicode="N" horiz-adv-x="1474" d="M35 0l301 1366h246l485 -958l213 958h240l-301 -1366h-232l-493 989l-220 -989h-239z" />
<glyph unicode="O" horiz-adv-x="1566" d="M104 582q0 223 104 408.5t284 292t397 106.5q183 0 330.5 -71.5t235 -210.5t87.5 -323q0 -222 -103 -408t-283 -293.5t-396 -107.5q-137 0 -257 42.5t-208.5 119.5t-139.5 192t-51 253zM356 596q0 -187 118 -297.5t298 -110.5q105 0 200.5 44.5t165.5 121t111 185 t41 229.5q0 189 -118 298.5t-300 109.5q-105 0 -200.5 -44.5t-164.5 -121t-110 -185t-41 -229.5z" />
<glyph unicode="P" horiz-adv-x="1247" d="M35 0l301 1366h586q158 0 264 -108t106 -259q0 -65 -17 -130t-58.5 -130.5t-102 -115t-156.5 -80.5t-213 -31h-358l-113 -512h-239zM434 723h326q128 0 205 72t77 180q0 77 -55 128.5t-139 51.5h-318z" />
<glyph unicode="Q" horiz-adv-x="1566" d="M104 582q0 223 104 408.5t284 292t397 106.5q183 0 330.5 -71.5t235 -210.5t87.5 -323q0 -197 -82.5 -367t-226.5 -282l76 -112l-191 -99l-71 107q-141 -56 -287 -56q-137 0 -257 42.5t-208.5 119.5t-139.5 192t-51 253zM356 596q0 -187 118 -297.5t298 -110.5 q77 0 154 25l-138 209l193 96l127 -194q85 80 133.5 195t48.5 249q0 189 -118 298.5t-300 109.5q-105 0 -200.5 -44.5t-164.5 -121t-110 -185t-41 -229.5z" />
<glyph unicode="R" horiz-adv-x="1288" d="M35 0l301 1366h549q79 0 152.5 -26t130 -72.5t90.5 -118t34 -156.5q0 -185 -115.5 -314.5t-297.5 -152.5l215 -526h-267l-190 510h-250l-113 -510h-239zM434 721h326h2q130 0 205 71t75 179q0 79 -59.5 131.5t-138.5 52.5h-314z" />
<glyph unicode="S" horiz-adv-x="1216" d="M14 227l152 174q71 -98 193.5 -155.5t263.5 -57.5q121 0 184 60.5t63 136.5q0 40 -29 73.5t-76 56.5t-107.5 48t-123 47.5t-123 56t-107.5 72t-76 96.5t-29 128q0 82 37 159t102 136t163 95t212 36q160 0 298.5 -58.5t223.5 -161.5l-154 -172q-70 88 -180 134.5 t-223 46.5q-95 0 -160 -52t-65 -122q0 -42 37 -76t96 -60t130.5 -52.5t143.5 -60.5t131 -75.5t96 -105.5t37 -144q0 -90 -35.5 -171.5t-100 -145t-164.5 -101t-220 -37.5q-190 0 -350.5 70t-239.5 182z" />
<glyph unicode="T" horiz-adv-x="1181" d="M203 1155l45 211h1067l-45 -211h-414l-256 -1155h-240l256 1155h-413z" />
<glyph unicode="U" horiz-adv-x="1474" d="M143 442q0 36 11 99l182 825h244l-183 -821q-8 -48 -8 -74q2 -124 87.5 -204.5t236.5 -80.5q162 0 253 93t130 266l180 821h244l-183 -825q-23 -104 -56 -187.5t-84.5 -155.5t-118.5 -120.5t-159.5 -75.5t-205.5 -27q-272 0 -421 126t-149 341z" />
<glyph unicode="V" horiz-adv-x="1378" d="M195 1366h260l170 -1104l657 1104h285l-838 -1366h-299z" />
<glyph unicode="W" horiz-adv-x="1849" d="M205 1366h260l35 -1051l514 1051h190l51 -1051l498 1051h275l-693 -1366h-256l-43 1010l-487 -1010h-256z" />
<glyph unicode="X" horiz-adv-x="1353" d="M-104 0l673 717l-340 649h271l254 -492l448 492h305l-633 -678l363 -688h-272l-277 526l-489 -526h-303z" />
<glyph unicode="Y" horiz-adv-x="1304" d="M195 1366h260l245 -584l504 584h289l-705 -799l-124 -567h-240l125 567z" />
<glyph unicode="Z" horiz-adv-x="1206" d="M-20 0l43 195l897 960h-684l47 211h1009l-43 -192l-897 -963h699l-45 -211h-1026z" />
<glyph unicode="[" horiz-adv-x="542" d="M-109 -389l396 1778h415l-32 -148h-256l-330 -1483h258l-35 -147h-416z" />
<glyph unicode="\" horiz-adv-x="645" d="M201 1407h159l164 -1448h-159z" />
<glyph unicode="]" horiz-adv-x="542" d="M-162 -389l33 147h258l328 1483h-256l32 148h416l-395 -1778h-416z" />
<glyph unicode="^" horiz-adv-x="894" d="M78 682l483 684h158l176 -684h-156l-125 535l-362 -535h-174z" />
<glyph unicode="_" horiz-adv-x="1155" d="M-168 -229l35 147h1165l-33 -147h-1167z" />
<glyph unicode="`" horiz-adv-x="491" d="M207 1434h205l221 -295h-154z" />
<glyph unicode="a" d="M66 385q0 116 36 228t100.5 201.5t164.5 144.5t219 55q106 0 191.5 -44t135.5 -122l31 141h215l-219 -989h-215l31 131q-131 -156 -312 -156q-170 0 -274 109t-104 301zM291 428q0 -118 68.5 -190t175.5 -72q76 0 144.5 39.5t115.5 101.5l84 383q-35 59 -104 96t-157 37 q-94 0 -170 -56t-116.5 -146t-40.5 -193z" />
<glyph unicode="b" d="M29 0l301 1366h215l-111 -508q128 156 309 156q172 0 275.5 -108t103.5 -300q0 -117 -35.5 -229t-100 -202t-165 -145t-219.5 -55q-105 0 -191.5 44.5t-136.5 121.5l-30 -141h-215zM309 301q35 -60 104 -97.5t156 -37.5q142 0 235 118.5t93 278.5q0 119 -67.5 189.5 t-176.5 70.5q-75 0 -144 -39t-114 -100z" />
<glyph unicode="c" horiz-adv-x="1019" d="M68 422q0 161 75 297t206 215.5t288 79.5q139 0 236 -51t151 -140l-162 -123q-33 59 -92.5 91t-132.5 32q-155 0 -251.5 -115t-96.5 -276q0 -125 77 -195.5t195 -70.5q136 0 227 108l117 -143q-148 -156 -364 -156q-213 0 -343 122t-130 325z" />
<glyph unicode="d" d="M66 385q0 116 36 228t100.5 201.5t164.5 144.5t219 55q106 0 191.5 -44t135.5 -122l115 518h215l-303 -1366h-215l31 131q-131 -156 -312 -156q-170 0 -274 109t-104 301zM291 428q0 -118 68.5 -190t175.5 -72q76 0 144.5 39.5t115.5 101.5l84 383q-35 59 -104 96 t-157 37q-94 0 -170 -56t-116.5 -146t-40.5 -193z" />
<glyph unicode="e" horiz-adv-x="1140" d="M68 418q0 160 73.5 297t203.5 218t288 81q195 0 316.5 -119t121.5 -317q0 -77 -20 -154h-764q-2 -6 -2 -33q0 -95 79 -167t220 -72q71 0 142.5 22t121.5 62l70 -152q-71 -50 -164.5 -79.5t-186.5 -29.5q-229 0 -364 120t-135 323zM309 578h563h5q0 3 1 13t1 13 q0 101 -68.5 167.5t-192.5 66.5q-115 0 -202.5 -77t-106.5 -183z" />
<glyph unicode="f" horiz-adv-x="632" d="M82 0l176 803h-164l43 186h162l12 58q82 339 353 339q157 0 249 -92l-110 -129q-45 45 -117 45q-66 0 -103.5 -40.5t-56.5 -125.5l-12 -55h203l-43 -186h-201l-176 -803h-215z" />
<glyph unicode="g" d="M-29 -231l129 143q48 -67 136 -102t194 -35q242 0 303 276l25 109q-58 -74 -140.5 -116t-177.5 -42q-77 0 -143.5 24t-118.5 71.5t-82 126.5t-30 182q0 92 22.5 181t67 166t105.5 135.5t143.5 92t175.5 33.5q95 0 185 -45.5t146 -120.5l33 141h215l-209 -938 q-23 -103 -64 -182.5t-90.5 -129.5t-111 -82.5t-122.5 -45t-128 -12.5q-309 0 -463 170zM291 444q0 -115 67.5 -183t178.5 -68q71 0 140.5 37.5t117.5 95.5l79 358q-37 64 -109.5 101.5t-160.5 37.5q-137 0 -225 -111.5t-88 -267.5z" />
<glyph unicode="h" horiz-adv-x="1163" d="M31 0l301 1366h215l-115 -510q166 158 338 158q139 0 222 -66t83 -182q0 -44 -12 -84l-150 -682h-215l138 623q8 32 8 61q0 71 -50.5 105t-134.5 34q-129 0 -262 -133l-151 -690h-215z" />
<glyph unicode="i" horiz-adv-x="493" d="M29 0l219 989h215l-219 -989h-215zM274 1225q0 67 48 109t104 42q52 0 86.5 -33t34.5 -81q0 -67 -48 -109.5t-104 -42.5q-52 0 -86.5 34t-34.5 81z" />
<glyph unicode="j" horiz-adv-x="493" d="M-381 -317l94 153q48 -61 133 -61q131 0 170 168l232 1046h215l-232 -1046q-37 -167 -121 -255.5t-233 -88.5q-174 0 -258 84zM274 1225q0 67 48 109t104 42q52 0 86.5 -33t34.5 -81q0 -67 -48 -109.5t-104 -42.5q-52 0 -86.5 34t-34.5 81z" />
<glyph unicode="k" horiz-adv-x="1079" d="M29 0l301 1366h215l-187 -840l533 463h274l-510 -448l299 -541h-258l-217 416l-176 -150l-59 -266h-215z" />
<glyph unicode="l" horiz-adv-x="493" d="M29 0l301 1366h215l-301 -1366h-215z" />
<glyph unicode="m" horiz-adv-x="1708" d="M29 0l219 989h215l-31 -133q147 158 305 158q65 0 120 -22t86 -53.5t48 -63t17 -54.5v-4q164 197 338 197q114 0 194 -66t80 -182q0 -24 -12 -84l-150 -682h-215l139 631q7 35 7 53q0 65 -44 102t-110 37q-61 0 -123 -38t-108 -95l-154 -690h-215l139 631q8 31 8 59 q0 60 -41 96.5t-114 36.5q-60 0 -121.5 -38t-108.5 -95l-153 -690h-215z" />
<glyph unicode="n" horiz-adv-x="1163" d="M29 0l219 989h215l-31 -133q166 158 338 158q139 0 222 -66t83 -182q0 -38 -12 -84l-150 -682h-215l138 621q8 40 8 63q0 71 -50.5 105t-134.5 34q-70 0 -138 -38t-124 -95l-153 -690h-215z" />
<glyph unicode="o" horiz-adv-x="1175" d="M68 422q0 115 42.5 222.5t115.5 189.5t179 131t226 49q221 0 347 -123t126 -322q0 -115 -42.5 -223t-115.5 -190t-179 -131.5t-226 -49.5q-221 0 -347 124t-126 323zM291 430q0 -122 68.5 -193t189.5 -71q94 0 171.5 56.5t119 146t41.5 190.5q0 122 -68.5 193t-189.5 71 q-142 0 -237 -118t-95 -275z" />
<glyph unicode="p" horiz-adv-x="1185" d="M-55 -377l303 1366h215l-29 -131q128 156 309 156q172 0 275.5 -108t103.5 -300q0 -117 -35.5 -229t-100 -202t-165 -145t-219.5 -55q-105 0 -191.5 44.5t-136.5 121.5l-114 -518h-215zM309 301q35 -60 104 -97.5t156 -37.5q142 0 235 118.5t93 278.5q0 119 -67.5 189.5 t-176.5 70.5q-75 0 -144 -39t-114 -100z" />
<glyph unicode="q" horiz-adv-x="1185" d="M66 385q0 116 36 228t100.5 201.5t164.5 144.5t219 55q106 0 191.5 -44t135.5 -122l31 141h215l-303 -1366h-215l115 508q-131 -156 -312 -156q-170 0 -274 109t-104 301zM291 428q0 -118 68.5 -190t175.5 -72q76 0 144.5 39.5t115.5 101.5l84 383q-35 59 -104 96 t-157 37q-94 0 -170 -56t-116.5 -146t-40.5 -193z" />
<glyph unicode="r" horiz-adv-x="710" d="M29 0l219 989h215l-31 -137q72 80 157 121t202 41l-50 -217q-35 10 -86 10q-75 0 -146 -39t-118 -98l-147 -670h-215z" />
<glyph unicode="s" horiz-adv-x="966" d="M-8 154l127 147q47 -60 141.5 -107t196.5 -47q82 0 131 39t49 95q0 31 -28 56.5t-73.5 43.5t-100 36.5t-109 42t-100 52.5t-73.5 75.5t-28 104.5q0 134 106 228t287 94q123 0 231 -44.5t173 -115.5l-117 -143q-35 53 -119 93t-174 40q-80 0 -126 -33t-46 -84 q0 -29 28 -52.5t73 -41.5t99.5 -36.5t109 -43t99.5 -54.5t73 -78t28 -108q0 -143 -111 -240.5t-301 -97.5q-136 0 -252.5 46t-193.5 133z" />
<glyph unicode="t" horiz-adv-x="653" d="M86 803l43 186h164l59 271h215l-59 -271h201l-43 -186h-201l-113 -510q-4 -24 -4 -37q0 -42 25 -66t73 -24q46 0 82 27l13 -173q-61 -45 -156 -45q-124 0 -195 50.5t-71 150.5q0 26 6 64l125 563h-164z" />
<glyph unicode="u" horiz-adv-x="1161" d="M86 225q0 32 10 82l152 682h215l-137 -618q-11 -55 -11 -64q0 -71 51 -106t134 -35q69 0 138.5 38.5t125.5 96.5l151 688h215l-219 -989h-215l31 135q-168 -160 -338 -160q-139 0 -221 67t-82 183z" />
<glyph unicode="v" horiz-adv-x="1030" d="M104 989h224l123 -741l454 741h238l-623 -989h-231z" />
<glyph unicode="w" horiz-adv-x="1546" d="M119 989h217l49 -719l395 719h189l75 -719l369 719h232l-527 -989h-225l-72 725l-389 -725h-225z" />
<glyph unicode="x" horiz-adv-x="1017" d="M-100 0l475 508l-234 481h234l160 -334l309 334h250l-451 -481l254 -508h-233l-177 365l-337 -365h-250z" />
<glyph unicode="y" horiz-adv-x="1030" d="M-96 -379l71 189q39 -17 101 -17q40 0 70.5 18.5t62.5 63.5l78 119l-183 995h224l123 -741l454 741h238l-737 -1167q-73 -119 -156 -171t-195 -52q-87 0 -151 22z" />
<glyph unicode="z" horiz-adv-x="974" d="M-16 0l36 164l621 639h-479l43 186h776l-35 -155l-631 -646h494l-39 -188h-786z" />
<glyph unicode="{" horiz-adv-x="567" d="M-23 -145q0 27 7 59l86 383q4 24 4 37q0 45 -21.5 73.5t-58.5 28.5l29 127q56 0 90 38.5t47 100.5l86 381q34 153 127 229.5t231 76.5h125l-33 -148h-125q-64 0 -107.5 -40.5t-60.5 -115.5l-92 -419q-35 -150 -133 -183q60 -32 60 -112q0 -33 -9 -70l-86 -385 q-4 -24 -4 -41q0 -52 33 -84.5t84 -32.5h111l-33 -147h-96q-106 0 -183.5 69t-77.5 175z" />
<glyph unicode="|" horiz-adv-x="438" d="M186 -41v1448h148v-1448h-148z" />
<glyph unicode="}" horiz-adv-x="567" d="M-164 -389l33 147h125q64 0 107.5 40.5t60.5 115.5l92 420q35 149 133 182q-59 32 -59 113q0 36 8 69l86 385q4 24 4 41q0 52 -33 84.5t-84 32.5h-110l32 148h97q106 0 183 -69t77 -175q0 -28 -8 -60l-84 -383q-4 -24 -4 -34q0 -46 21 -75.5t58 -29.5l-28 -127 q-56 0 -90 -38.5t-47 -100.5l-87 -381q-34 -153 -127 -229t-231 -76h-125z" />
<glyph unicode="~" horiz-adv-x="1038" d="M135 870q108 494 379 494q68 0 111.5 -28t59.5 -69.5t26.5 -90t15.5 -90t23.5 -69.5t52.5 -28q65 0 126.5 108.5t96.5 268.5l145 -16q-111 -496 -376 -496q-59 0 -99.5 20.5t-59.5 53.5t-30 72.5t-16.5 79.5t-13 73t-25 53.5t-47.5 20.5q-65 0 -125.5 -106.5 t-95.5 -268.5z" />
<glyph unicode="&#xa2;" horiz-adv-x="1019" d="M68 422q0 156 72 290.5t198 215.5t278 86l33 143h160l-35 -158q166 -41 250 -176l-162 -123q-49 80 -131 107l-143 -641q117 11 200 108l117 -143q-146 -153 -360 -156l-39 -180h-160l43 199q-149 39 -235 151.5t-86 276.5zM289 432q0 -88 38.5 -150t106.5 -92l139 627 q-129 -24 -206.5 -133.5t-77.5 -251.5z" />
<glyph unicode="&#xa3;" horiz-adv-x="1097" d="M18 156q135 57 223.5 156.5t88.5 203.5q0 6 -1 17.5t-1 17.5h-273l31 141h193q-5 9 -19.5 37t-20.5 40t-17 37.5t-16 43.5t-9 43.5t-4 50.5q0 118 69.5 220t189.5 162t261 60q108 0 201.5 -30.5t160.5 -90t92 -139.5l-215 -92q-17 71 -80 113.5t-149 42.5 q-113 0 -192.5 -75.5t-79.5 -194.5q0 -43 11 -79.5t36 -84t32 -64.5h295l-30 -141h-240q-6 -92 -68 -177t-137 -128q47 16 94 16q64 0 158.5 -38t149.5 -38q94 0 176 78l53 -190q-101 -101 -246 -101q-77 0 -156.5 23.5t-152 46.5t-131.5 23q-100 0 -232 -80z" />
<glyph unicode="&#xa5;" horiz-adv-x="1304" d="M-12 242l32 139h492l41 186h-492l31 140h400l-293 659h260l246 -584l503 584h289l-582 -659h390l-31 -140h-481l-41 -186h481l-31 -139h-481l-53 -242h-240l53 242h-493z" />
<glyph unicode="&#xa8;" horiz-adv-x="583" d="M123 1233q0 53 40.5 93t94.5 40q44 0 75.5 -31t31.5 -75q0 -53 -41.5 -93.5t-94.5 -40.5q-46 0 -76 30.5t-30 76.5zM551 1233q0 53 40.5 93t94.5 40q44 0 75.5 -31t31.5 -75q0 -53 -41.5 -93.5t-94.5 -40.5q-46 0 -76 30.5t-30 76.5z" />
<glyph unicode="&#xa9;" horiz-adv-x="1593" d="M131 684q0 192 94.5 355t257 257.5t353.5 94.5q192 0 355 -94.5t258 -257.5t95 -355q0 -143 -56 -274t-151 -226t-226 -151t-275 -56q-191 0 -353.5 95t-257 258t-94.5 354zM201 684q0 -128 50.5 -246t136 -203.5t203 -136.5t245.5 -51q130 0 248 51t203.5 136.5 t136.5 203.5t51 246q0 130 -50.5 248t-136.5 203t-204 135.5t-248 50.5q-128 0 -245.5 -50.5t-203 -135.5t-136 -203t-50.5 -248zM410 629q0 102 40.5 194.5t106.5 157t153.5 102t178.5 37.5q221 0 323 -166l-69 -49q-37 67 -103 103t-153 36q-96 0 -185 -52t-147.5 -149 t-58.5 -212q0 -127 85 -216t222 -89q65 0 127.5 27.5t105.5 70.5l47 -64q-129 -110 -280 -110q-179 0 -286 107.5t-107 271.5z" />
<glyph unicode="&#xab;" horiz-adv-x="1003" d="M59 498l410 362h213l-418 -373l238 -358h-197zM408 498l409 362h213l-418 -373l238 -358h-197z" />
<glyph unicode="&#xad;" horiz-adv-x="614" d="M41 403l39 185h491l-39 -185h-491z" />
<glyph unicode="&#xae;" horiz-adv-x="1011" d="M172 952q0 181 127 307.5t307 126.5q119 0 219 -57.5t157.5 -157.5t57.5 -219q0 -180 -127.5 -307t-308.5 -127q-180 0 -306 127t-126 307zM236 952q0 -153 107.5 -261.5t260.5 -108.5q155 0 265 109t110 261q0 156 -109.5 264.5t-265.5 108.5q-154 0 -261 -108 t-107 -265zM385 702l109 498h190q62 0 102.5 -36.5t40.5 -94.5q0 -70 -50.5 -119t-112.5 -49l90 -199h-80l-86 197h-92l-43 -197h-68zM510 961h135q48 0 79.5 30t31.5 72q0 36 -22.5 57t-63.5 21h-121z" />
<glyph unicode="&#xb4;" horiz-adv-x="491" d="M137 1139l352 295h209l-403 -295h-158z" />
<glyph unicode="&#xb8;" horiz-adv-x="438" d="M-182 -315l63 88q72 -72 174 -72q53 0 82 22t29 60q0 24 -17.5 38.5t-48.5 14.5q-40 0 -65 -31l-74 48l100 170h113l-80 -132q29 23 66 23q52 0 85.5 -34t33.5 -91q0 -84 -64 -135t-162 -51q-75 0 -137 23t-98 59z" />
<glyph unicode="&#xbb;" horiz-adv-x="1003" d="M-23 129l418 373l-237 358h196l246 -368l-410 -363h-213zM326 129l417 373l-237 358h196l246 -368l-409 -363h-213z" />
<glyph unicode="&#xc1;" horiz-adv-x="1378" d="M-109 0l840 1366h299l236 -1366h-260l-43 264h-627l-158 -264h-287zM451 475h491l-102 651zM754 1491l352 295h209l-404 -295h-157z" />
<glyph unicode="&#xc4;" horiz-adv-x="1378" d="M-109 0l840 1366h299l236 -1366h-260l-43 264h-627l-158 -264h-287zM451 475h491l-102 651zM600 1585q0 53 40.5 93t94.5 40q44 0 75.5 -31t31.5 -75q0 -53 -41 -93t-94 -40q-46 0 -76.5 30t-30.5 76zM1028 1585q0 53 40.5 93t94.5 40q44 0 75.5 -31t31.5 -75 q0 -53 -41 -93t-94 -40q-46 0 -76.5 30t-30.5 76z" />
<glyph unicode="&#xc5;" horiz-adv-x="1378" d="M-109 0l840 1366h299l236 -1366h-260l-43 264h-627l-158 -264h-287zM451 475h491l-102 651zM727 1608q0 93 68 161t161 68q85 0 138 -52.5t53 -137.5q0 -93 -68 -161.5t-161 -68.5q-85 0 -138 53t-53 138zM831 1618q0 -41 27 -68.5t68 -27.5q47 0 81.5 34t34.5 80 q0 43 -26 70t-68 27q-46 0 -81.5 -34t-35.5 -81z" />
<glyph unicode="&#xc6;" horiz-adv-x="1966" d="M-115 0l1141 1366h1032l-45 -211h-696l-78 -352h682l-47 -211h-682l-84 -381h696l-47 -211h-936l58 264h-496l-215 -264h-283zM543 475h383l141 637z" />
<glyph unicode="&#xc9;" horiz-adv-x="1181" d="M35 0l301 1366h936l-45 -211h-697l-77 -352h682l-48 -211h-681l-84 -381h696l-47 -211h-936zM676 1491l352 295h209l-403 -295h-158z" />
<glyph unicode="&#xcd;" horiz-adv-x="530" d="M35 0l301 1366h239l-301 -1366h-239zM332 1491l352 295h209l-404 -295h-157z" />
<glyph unicode="&#xd3;" horiz-adv-x="1566" d="M104 582q0 223 104 408.5t284 292t397 106.5q183 0 330.5 -71.5t235 -210.5t87.5 -323q0 -222 -103 -408t-283 -293.5t-396 -107.5q-137 0 -257 42.5t-208.5 119.5t-139.5 192t-51 253zM356 596q0 -187 118 -297.5t298 -110.5q105 0 200.5 44.5t165.5 121t111 185 t41 229.5q0 189 -118 298.5t-300 109.5q-105 0 -200.5 -44.5t-164.5 -121t-110 -185t-41 -229.5zM848 1491l352 295h209l-403 -295h-158z" />
<glyph unicode="&#xd5;" horiz-adv-x="1566" d="M104 582q0 223 104 408.5t284 292t397 106.5q183 0 330.5 -71.5t235 -210.5t87.5 -323q0 -222 -103 -408t-283 -293.5t-396 -107.5q-137 0 -257 42.5t-208.5 119.5t-139.5 192t-51 253zM356 596q0 -187 118 -297.5t298 -110.5q105 0 200.5 44.5t165.5 121t111 185 t41 229.5q0 189 -118 298.5t-300 109.5q-105 0 -200.5 -44.5t-164.5 -121t-110 -185t-41 -229.5zM678 1499q28 133 86 204t156 71q41 0 72 -16.5t49.5 -40t35.5 -47t39 -40t49 -16.5q73 0 109 147h119q-57 -274 -244 -274q-41 0 -71.5 16.5t-49.5 40t-35.5 47t-38.5 40 t-49 16.5q-73 0 -106 -148h-121z" />
<glyph unicode="&#xd6;" horiz-adv-x="1566" d="M104 582q0 223 104 408.5t284 292t397 106.5q183 0 330.5 -71.5t235 -210.5t87.5 -323q0 -222 -103 -408t-283 -293.5t-396 -107.5q-137 0 -257 42.5t-208.5 119.5t-139.5 192t-51 253zM356 596q0 -187 118 -297.5t298 -110.5q105 0 200.5 44.5t165.5 121t111 185 t41 229.5q0 189 -118 298.5t-300 109.5q-105 0 -200.5 -44.5t-164.5 -121t-110 -185t-41 -229.5zM694 1585q0 53 40.5 93t94.5 40q44 0 75.5 -31t31.5 -75q0 -53 -41 -93t-94 -40q-46 0 -76.5 30t-30.5 76zM1122 1585q0 53 40.5 93t94.5 40q44 0 75.5 -31t31.5 -75 q0 -53 -41 -93t-94 -40q-46 0 -76.5 30t-30.5 76z" />
<glyph unicode="&#xd8;" horiz-adv-x="1566" d="M78 0l172 182q-146 159 -146 400q0 223 104 408.5t284 292t397 106.5q227 0 395 -111l84 88h178l-162 -170q158 -164 158 -412q0 -222 -103 -408t-283 -293.5t-396 -107.5q-243 0 -414 121l-90 -96h-178zM356 596q0 -136 64 -234l702 744q-109 70 -250 70 q-105 0 -200.5 -44.5t-164.5 -121t-110 -185t-41 -229.5zM510 268q106 -80 262 -80q105 0 200.5 44.5t165.5 121t111 185t41 229.5q0 150 -73 248z" />
<glyph unicode="&#xda;" horiz-adv-x="1474" d="M143 442q0 36 11 99l182 825h244l-183 -821q-8 -48 -8 -74q2 -124 87.5 -204.5t236.5 -80.5q162 0 253 93t130 266l180 821h244l-183 -825q-23 -104 -56 -187.5t-84.5 -155.5t-118.5 -120.5t-159.5 -75.5t-205.5 -27q-272 0 -421 126t-149 341zM801 1491l352 295h209 l-404 -295h-157z" />
<glyph unicode="&#xdc;" horiz-adv-x="1474" d="M143 442q0 36 11 99l182 825h244l-183 -821q-8 -48 -8 -74q2 -124 87.5 -204.5t236.5 -80.5q162 0 253 93t130 266l180 821h244l-183 -825q-23 -104 -56 -187.5t-84.5 -155.5t-118.5 -120.5t-159.5 -75.5t-205.5 -27q-272 0 -421 126t-149 341zM649 1585q0 53 40.5 93 t94.5 40q44 0 75.5 -31t31.5 -75q0 -53 -41 -93t-94 -40q-46 0 -76.5 30t-30.5 76zM1077 1585q0 53 40.5 93t94.5 40q44 0 75.5 -31t31.5 -75q0 -53 -41 -93t-94 -40q-46 0 -76.5 30t-30.5 76z" />
<glyph unicode="&#xdd;" horiz-adv-x="1304" d="M195 1366h260l245 -584l504 584h289l-705 -799l-124 -567h-240l125 567zM721 1491l352 295h209l-403 -295h-158z" />
<glyph unicode="&#xdf;" horiz-adv-x="1275" d="M31 0l219 993q38 174 155.5 283.5t305.5 109.5q100 0 191 -32t150.5 -94.5t59.5 -141.5q0 -75 -39 -131t-94 -88.5t-110.5 -60t-94.5 -61t-39 -75.5q0 -28 26 -50.5t67 -39t91.5 -33t100.5 -39t91 -51t67 -74.5t26 -104q0 -137 -111 -236.5t-290 -99.5q-143 0 -243.5 44 t-186.5 141l125 135q118 -145 311 -145q82 0 132 40.5t50 94.5q0 31 -26 55t-67 40.5t-91.5 33t-100.5 37.5t-91 48t-67 70t-26 99q0 66 27 118.5t67 83.5t87.5 59t87.5 47t67 45.5t27 57.5q0 53 -54 85t-131 32q-90 0 -151.5 -53.5t-83.5 -149.5l-219 -993h-215z" />
<glyph unicode="&#xe1;" d="M66 385q0 116 36 228t100.5 201.5t164.5 144.5t219 55q106 0 191.5 -44t135.5 -122l31 141h215l-219 -989h-215l31 131q-131 -156 -312 -156q-170 0 -274 109t-104 301zM291 428q0 -118 68.5 -190t175.5 -72q76 0 144.5 39.5t115.5 101.5l84 383q-35 59 -104 96t-157 37 q-94 0 -170 -56t-116.5 -146t-40.5 -193zM539 1139l352 295h209l-404 -295h-157z" />
<glyph unicode="&#xe4;" d="M66 385q0 116 36 228t100.5 201.5t164.5 144.5t219 55q106 0 191.5 -44t135.5 -122l31 141h215l-219 -989h-215l31 131q-131 -156 -312 -156q-170 0 -274 109t-104 301zM291 428q0 -118 68.5 -190t175.5 -72q76 0 144.5 39.5t115.5 101.5l84 383q-35 59 -104 96t-157 37 q-94 0 -170 -56t-116.5 -146t-40.5 -193zM389 1233q0 53 40.5 93t94.5 40q44 0 75.5 -31t31.5 -75q0 -54 -41 -94t-94 -40q-46 0 -76.5 30.5t-30.5 76.5zM817 1233q0 53 40.5 93t94.5 40q44 0 75.5 -31t31.5 -75q0 -54 -41 -94t-94 -40q-46 0 -76.5 30.5t-30.5 76.5z" />
<glyph unicode="&#xe5;" d="M66 385q0 116 36 228t100.5 201.5t164.5 144.5t219 55q106 0 191.5 -44t135.5 -122l31 141h215l-219 -989h-215l31 131q-131 -156 -312 -156q-170 0 -274 109t-104 301zM291 428q0 -118 68.5 -190t175.5 -72q76 0 144.5 39.5t115.5 101.5l84 383q-35 59 -104 96t-157 37 q-94 0 -170 -56t-116.5 -146t-40.5 -193zM530 1303q0 93 68.5 161t161.5 68q85 0 137.5 -53t52.5 -138q0 -93 -68 -161t-161 -68q-85 0 -138 53t-53 138zM635 1313q0 -41 26.5 -68.5t67.5 -27.5q47 0 82 34t35 80q0 43 -25.5 69.5t-68.5 26.5q-46 0 -81.5 -33.5t-35.5 -80.5 z" />
<glyph unicode="&#xe6;" horiz-adv-x="1892" d="M66 385q0 116 36 228t100.5 201.5t164.5 144.5t219 55q106 0 191.5 -44t135.5 -122l31 141h215l-31 -137q142 162 324 162q179 0 275 -110.5t96 -311.5q0 -87 -21 -168h-758q-2 -6 -2 -33q0 -94 78.5 -164.5t220.5 -70.5q71 0 139.5 22t118.5 62l70 -156 q-71 -50 -158 -79.5t-165 -29.5q-144 0 -233.5 60t-129.5 160l-43 -195h-215l31 131q-131 -156 -312 -156q-170 0 -274 109t-104 301zM291 428q0 -118 68.5 -190t175.5 -72q76 0 144.5 39.5t115.5 101.5l84 383q-35 59 -104 96t-157 37q-94 0 -170 -56t-116.5 -146 t-40.5 -193zM1067 578h561q0 3 1 13t1 13q0 103 -64.5 168.5t-189.5 65.5q-115 0 -202.5 -77t-106.5 -183z" />
<glyph unicode="&#xe9;" horiz-adv-x="1140" d="M68 418q0 160 73.5 297t203.5 218t288 81q195 0 316.5 -119t121.5 -317q0 -77 -20 -154h-764q-2 -6 -2 -33q0 -95 79 -167t220 -72q71 0 142.5 22t121.5 62l70 -152q-71 -50 -164.5 -79.5t-186.5 -29.5q-229 0 -364 120t-135 323zM309 578h563h5q0 3 1 13t1 13 q0 101 -68.5 167.5t-192.5 66.5q-115 0 -202.5 -77t-106.5 -183zM567 1139l353 295h208l-403 -295h-158z" />
<glyph unicode="&#xed;" horiz-adv-x="493" d="M29 0l219 989h215l-219 -989h-215zM231 1139l353 295h209l-404 -295h-158z" />
<glyph unicode="&#xf3;" horiz-adv-x="1175" d="M68 422q0 115 42.5 222.5t115.5 189.5t179 131t226 49q221 0 347 -123t126 -322q0 -115 -42.5 -223t-115.5 -190t-179 -131.5t-226 -49.5q-221 0 -347 124t-126 323zM291 430q0 -122 68.5 -193t189.5 -71q94 0 171.5 56.5t119 146t41.5 190.5q0 122 -68.5 193t-189.5 71 q-142 0 -237 -118t-95 -275zM571 1139l353 295h209l-404 -295h-158z" />
<glyph unicode="&#xf5;" horiz-adv-x="1175" d="M68 422q0 115 42.5 222.5t115.5 189.5t179 131t226 49q221 0 347 -123t126 -322q0 -115 -42.5 -223t-115.5 -190t-179 -131.5t-226 -49.5q-221 0 -347 124t-126 323zM291 430q0 -122 68.5 -193t189.5 -71q94 0 171.5 56.5t119 146t41.5 190.5q0 122 -68.5 193t-189.5 71 q-142 0 -237 -118t-95 -275zM403 1147q28 133 86 203.5t156 70.5q41 0 72 -16.5t50 -39.5t36 -46.5t39 -40t49 -16.5q72 0 108 147h119q-57 -274 -244 -274q-41 0 -71.5 16.5t-49 39.5t-35 46.5t-38.5 40t-49 16.5q-74 0 -107 -147h-121z" />
<glyph unicode="&#xf6;" horiz-adv-x="1175" d="M68 422q0 115 42.5 222.5t115.5 189.5t179 131t226 49q221 0 347 -123t126 -322q0 -115 -42.5 -223t-115.5 -190t-179 -131.5t-226 -49.5q-221 0 -347 124t-126 323zM291 430q0 -122 68.5 -193t189.5 -71q94 0 171.5 56.5t119 146t41.5 190.5q0 122 -68.5 193t-189.5 71 q-142 0 -237 -118t-95 -275zM418 1233q0 53 40.5 93t94.5 40q44 0 75 -31t31 -75q0 -54 -41 -94t-94 -40q-46 0 -76 30.5t-30 76.5zM846 1233q0 53 40.5 93t94.5 40q44 0 75 -31t31 -75q0 -54 -41 -94t-94 -40q-46 0 -76 30.5t-30 76.5z" />
<glyph unicode="&#xf8;" horiz-adv-x="1175" d="M-12 0l159 152q-79 110 -79 270q0 115 42.5 222.5t115.5 189.5t179 131t226 49q187 0 317 -99l76 74h150l-154 -147q84 -117 84 -273q0 -115 -42.5 -223t-115.5 -190t-179 -131.5t-226 -49.5q-196 0 -324 101l-80 -76h-149zM291 430q0 -71 20 -121l482 459 q-68 55 -170 55q-142 0 -237 -118t-95 -275zM373 223q66 -57 176 -57q94 0 171.5 56.5t119 146t41.5 190.5q0 69 -25 127z" />
<glyph unicode="&#xfa;" horiz-adv-x="1161" d="M86 225q0 32 10 82l152 682h215l-137 -618q-11 -55 -11 -64q0 -71 51 -106t134 -35q69 0 138.5 38.5t125.5 96.5l151 688h215l-219 -989h-215l31 135q-168 -160 -338 -160q-139 0 -221 67t-82 183zM567 1139l353 295h208l-403 -295h-158z" />
<glyph unicode="&#xfc;" horiz-adv-x="1161" d="M86 225q0 32 10 82l152 682h215l-137 -618q-11 -55 -11 -64q0 -71 51 -106t134 -35q69 0 138.5 38.5t125.5 96.5l151 688h215l-219 -989h-215l31 135q-168 -160 -338 -160q-139 0 -221 67t-82 183zM418 1233q0 53 40.5 93t94.5 40q44 0 75 -31t31 -75q0 -54 -41 -94 t-94 -40q-46 0 -76 30.5t-30 76.5zM846 1233q0 53 40.5 93t94.5 40q44 0 75 -31t31 -75q0 -54 -41 -94t-94 -40q-46 0 -76 30.5t-30 76.5z" />
<glyph unicode="&#xfd;" horiz-adv-x="1030" d="M-96 -379l71 189q39 -17 101 -17q40 0 70.5 18.5t62.5 63.5l78 119l-183 995h224l123 -741l454 741h238l-737 -1167q-73 -119 -156 -171t-195 -52q-87 0 -151 22zM500 1139l352 295h209l-404 -295h-157z" />
<glyph unicode="&#x100;" horiz-adv-x="1378" d="M-109 0l840 1366h299l236 -1366h-260l-43 264h-627l-158 -264h-287zM451 475h491l-102 651zM545 1532l28 127h742l-29 -127h-741z" />
<glyph unicode="&#x101;" d="M66 385q0 116 36 228t100.5 201.5t164.5 144.5t219 55q106 0 191.5 -44t135.5 -122l31 141h215l-219 -989h-215l31 131q-131 -156 -312 -156q-170 0 -274 109t-104 301zM291 428q0 -118 68.5 -190t175.5 -72q76 0 144.5 39.5t115.5 101.5l84 383q-35 59 -104 96t-157 37 q-94 0 -170 -56t-116.5 -146t-40.5 -193zM334 1180l28 127h742l-29 -127h-741z" />
<glyph unicode="&#x104;" horiz-adv-x="1378" d="M-109 0l840 1366h299l236 -1366q-201 -88 -201 -211q0 -35 22 -54.5t58 -19.5q60 0 104 76l78 -63q-80 -109 -190 -109q-79 0 -131 40t-52 112q0 135 133 229h-81l-43 264h-627l-158 -264h-287zM451 475h491l-102 651z" />
<glyph unicode="&#x105;" d="M66 385q0 116 36 228t100.5 201.5t164.5 144.5t219 55q106 0 191.5 -44t135.5 -122l31 141h215l-219 -989q-201 -88 -201 -211q0 -35 22 -54.5t58 -19.5q61 0 105 76l77 -63q-80 -109 -190 -109q-79 0 -130.5 40t-51.5 112q0 135 133 229h-37l31 131q-131 -156 -312 -156 q-170 0 -274 109t-104 301zM291 428q0 -118 68.5 -190t175.5 -72q76 0 144.5 39.5t115.5 101.5l84 383q-35 59 -104 96t-157 37q-94 0 -170 -56t-116.5 -146t-40.5 -193z" />
<glyph unicode="&#x10c;" horiz-adv-x="1396" d="M104 582q0 178 64.5 331t172.5 256t250.5 161.5t297.5 58.5q217 0 366 -99t220 -260l-230 -82q-48 112 -145.5 170t-222.5 58q-102 0 -197 -43t-166.5 -118t-114.5 -184.5t-43 -234.5q0 -180 113.5 -294t302.5 -114q93 0 183 41.5t159 116.5l182 -129 q-107 -125 -250 -183.5t-286 -58.5q-186 0 -335 74t-235 213t-86 320zM795 1786h133l114 -197l197 197h139l-256 -295h-196z" />
<glyph unicode="&#x10d;" horiz-adv-x="1019" d="M68 422q0 161 75 297t206 215.5t288 79.5q139 0 236 -51t151 -140l-162 -123q-33 59 -92.5 91t-132.5 32q-155 0 -251.5 -115t-96.5 -276q0 -125 77 -195.5t195 -70.5q136 0 227 108l117 -143q-148 -156 -364 -156q-213 0 -343 122t-130 325zM518 1434h133l115 -197 l197 197h139l-256 -295h-197z" />
<glyph unicode="&#x112;" horiz-adv-x="1181" d="M35 0l301 1366h936l-45 -211h-697l-77 -352h682l-48 -211h-681l-84 -381h696l-47 -211h-936zM465 1532l29 127h741l-29 -127h-741z" />
<glyph unicode="&#x113;" horiz-adv-x="1140" d="M68 418q0 160 73.5 297t203.5 218t288 81q195 0 316.5 -119t121.5 -317q0 -77 -20 -154h-764q-2 -6 -2 -33q0 -95 79 -167t220 -72q71 0 142.5 22t121.5 62l70 -152q-71 -50 -164.5 -79.5t-186.5 -29.5q-229 0 -364 120t-135 323zM309 578h563h5q0 3 1 13t1 13 q0 101 -68.5 167.5t-192.5 66.5q-115 0 -202.5 -77t-106.5 -183zM352 1180l29 127h741l-28 -127h-742z" />
<glyph unicode="&#x116;" horiz-adv-x="1181" d="M35 0l301 1366h936l-45 -211h-697l-77 -352h682l-48 -211h-681l-84 -381h696l-47 -211h-936zM741 1585q0 53 41 93t95 40q46 0 77 -30t31 -76q0 -54 -41.5 -94.5t-95.5 -40.5q-46 0 -76.5 31t-30.5 77z" />
<glyph unicode="&#x117;" horiz-adv-x="1140" d="M68 418q0 160 73.5 297t203.5 218t288 81q195 0 316.5 -119t121.5 -317q0 -77 -20 -154h-764q-2 -6 -2 -33q0 -95 79 -167t220 -72q71 0 142.5 22t121.5 62l70 -152q-71 -50 -164.5 -79.5t-186.5 -29.5q-229 0 -364 120t-135 323zM309 578h563h5q0 3 1 13t1 13 q0 101 -68.5 167.5t-192.5 66.5q-115 0 -202.5 -77t-106.5 -183zM633 1255q0 53 40.5 93.5t94.5 40.5q46 0 77.5 -30.5t31.5 -76.5q0 -54 -42 -94.5t-96 -40.5q-46 0 -76 31t-30 77z" />
<glyph unicode="&#x118;" horiz-adv-x="1181" d="M35 0l301 1366h936l-45 -211h-697l-77 -352h682l-48 -211h-681l-84 -381h696l-47 -211q-201 -88 -201 -211q0 -35 22 -54.5t58 -19.5q60 0 104 76l78 -63q-80 -109 -190 -109q-79 0 -131 40t-52 112q0 134 134 229h-758z" />
<glyph unicode="&#x119;" horiz-adv-x="1140" d="M68 418q0 160 73.5 297t203.5 218t288 81q195 0 316.5 -119t121.5 -317q0 -77 -20 -154h-764q-2 -6 -2 -33q0 -95 79 -167t220 -72q71 0 142.5 22t121.5 62l70 -152q-76 -56 -181 -84q-200 -88 -200 -211q0 -35 21.5 -54.5t57.5 -19.5q61 0 105 76l78 -63 q-80 -109 -191 -109q-79 0 -130.5 40t-51.5 112q0 117 102 206q-213 11 -336.5 128.5t-123.5 312.5zM309 578h568q0 3 1 13t1 13q0 101 -68.5 167.5t-192.5 66.5q-115 0 -202.5 -77t-106.5 -183z" />
<glyph unicode="&#x122;" horiz-adv-x="1468" d="M104 582q0 230 106 415t290 288.5t409 103.5q196 0 338.5 -90.5t212.5 -231.5l-217 -94q-43 92 -143 147.5t-223 55.5q-137 0 -256.5 -74.5t-192 -208.5t-72.5 -297q0 -178 113.5 -293t302.5 -115q172 0 311 121l47 215h-409l47 211h647l-115 -518q-104 -116 -242.5 -179 t-297.5 -63q-187 0 -336 74.5t-234.5 213.5t-85.5 319zM469 -496q52 24 98 65.5t64 84.5h-17q-37 0 -63.5 25.5t-26.5 68.5q0 50 39.5 86.5t87.5 36.5q47 0 79 -31.5t32 -87.5q0 -89 -66 -178.5t-161 -136.5z" />
<glyph unicode="&#x123;" d="M-29 -231l129 143q48 -67 136 -102t194 -35q242 0 303 276l25 109q-58 -74 -140.5 -116t-177.5 -42q-77 0 -143.5 24t-118.5 71.5t-82 126.5t-30 182q0 92 22.5 181t67 166t105.5 135.5t143.5 92t175.5 33.5q95 0 185 -45.5t146 -120.5l33 141h215l-209 -938 q-23 -103 -64 -182.5t-90.5 -129.5t-111 -82.5t-122.5 -45t-128 -12.5q-309 0 -463 170zM291 444q0 -115 67.5 -183t178.5 -68q71 0 140.5 37.5t117.5 95.5l79 358q-37 64 -109.5 101.5t-160.5 37.5q-137 0 -225 -111.5t-88 -267.5zM629 1262q0 91 67 181.5t164 137.5 l66 -68q-53 -27 -99.5 -68t-62.5 -83h16q37 0 63.5 -26t26.5 -70q0 -50 -39.5 -87.5t-89.5 -37.5q-47 0 -79.5 32.5t-32.5 88.5z" />
<glyph unicode="&#x12a;" horiz-adv-x="530" d="M35 0l301 1366h239l-301 -1366h-239zM123 1532l29 127h741l-29 -127h-741z" />
<glyph unicode="&#x12b;" horiz-adv-x="493" d="M27 1180l28 127h742l-29 -127h-741zM29 0l219 989h215l-219 -989h-215z" />
<glyph unicode="&#x12e;" horiz-adv-x="530" d="M-37 -229q0 135 133 229h-61l301 1366h239l-301 -1366q-200 -88 -200 -211q0 -35 22 -54.5t58 -19.5q60 0 104 76l78 -63q-80 -109 -191 -109q-79 0 -130.5 40t-51.5 112z" />
<glyph unicode="&#x12f;" horiz-adv-x="493" d="M-68 -229q0 134 134 229h-37l219 989h215l-219 -989q-201 -88 -201 -211q0 -35 22 -54.5t58 -19.5q60 0 104 76l78 -63q-80 -109 -190 -109q-79 0 -131 40t-52 112zM274 1225q0 67 48 109t104 42q52 0 86.5 -33t34.5 -81q0 -67 -48 -109.5t-104 -42.5q-52 0 -86.5 34 t-34.5 81z" />
<glyph unicode="&#x136;" horiz-adv-x="1290" d="M35 0l301 1366h239l-139 -631l662 631h309l-696 -643l438 -723h-283l-336 586l-159 -150l-97 -436h-239zM313 -496q52 24 98 65.5t64 84.5h-16q-37 0 -63.5 25.5t-26.5 68.5q0 50 39.5 86.5t87.5 36.5q47 0 78.5 -31.5t31.5 -87.5q0 -89 -66 -178.5t-161 -136.5z" />
<glyph unicode="&#x137;" horiz-adv-x="1079" d="M29 0l301 1366h215l-187 -840l533 463h274l-510 -448l299 -541h-258l-217 416l-176 -150l-59 -266h-215zM209 -496q52 24 98 65.5t64 84.5h-17q-37 0 -63.5 25.5t-26.5 68.5q0 50 39.5 86.5t87.5 36.5q47 0 79 -31.5t32 -87.5q0 -89 -66 -178.5t-162 -136.5z" />
<glyph unicode="&#x13b;" horiz-adv-x="1036" d="M18 0l301 1366h240l-254 -1155h602l-47 -211h-842zM182 -496q52 24 98 65.5t64 84.5h-16q-37 0 -63.5 25.5t-26.5 68.5q0 50 39.5 86.5t87.5 36.5q47 0 78.5 -31.5t31.5 -87.5q0 -89 -66 -178.5t-161 -136.5z" />
<glyph unicode="&#x13c;" horiz-adv-x="493" d="M-84 -496q52 24 98 65.5t64 84.5h-17q-37 0 -63.5 25.5t-26.5 68.5q0 50 39.5 86.5t87.5 36.5q47 0 79 -31.5t32 -87.5q0 -89 -66 -178.5t-161 -136.5zM29 0l301 1366h215l-301 -1366h-215z" />
<glyph unicode="&#x145;" horiz-adv-x="1474" d="M35 0l301 1366h246l485 -958l213 958h240l-301 -1366h-232l-493 989l-220 -989h-239zM406 -496q52 24 97.5 65.5t63.5 84.5h-16q-37 0 -63.5 25.5t-26.5 68.5q0 50 39.5 86.5t87.5 36.5q47 0 78.5 -31.5t31.5 -87.5q0 -89 -66 -178.5t-161 -136.5z" />
<glyph unicode="&#x146;" horiz-adv-x="1163" d="M39 0l219 989h215l-31 -133q166 158 338 158q139 0 222 -66t83 -182q0 -38 -12 -84l-149 -682h-215l137 621q8 40 8 63q0 71 -50 105t-134 34q-70 0 -138 -38t-124 -95l-154 -690h-215zM250 -496q52 24 98 65.5t64 84.5h-17q-37 0 -63.5 25.5t-26.5 68.5q0 50 39.5 86.5 t87.5 36.5q47 0 79 -31.5t32 -87.5q0 -89 -66 -178.5t-162 -136.5z" />
<glyph unicode="&#x14c;" horiz-adv-x="1566" d="M104 582q0 223 104 408.5t284 292t397 106.5q183 0 330.5 -71.5t235 -210.5t87.5 -323q0 -222 -103 -408t-283 -293.5t-396 -107.5q-137 0 -257 42.5t-208.5 119.5t-139.5 192t-51 253zM356 596q0 -187 118 -297.5t298 -110.5q105 0 200.5 44.5t165.5 121t111 185 t41 229.5q0 189 -118 298.5t-300 109.5q-105 0 -200.5 -44.5t-164.5 -121t-110 -185t-41 -229.5zM639 1532l29 127h741l-29 -127h-741z" />
<glyph unicode="&#x14d;" horiz-adv-x="1175" d="M68 422q0 115 42.5 222.5t115.5 189.5t179 131t226 49q221 0 347 -123t126 -322q0 -115 -42.5 -223t-115.5 -190t-179 -131.5t-226 -49.5q-221 0 -347 124t-126 323zM291 430q0 -122 68.5 -193t189.5 -71q94 0 171.5 56.5t119 146t41.5 190.5q0 122 -68.5 193t-189.5 71 q-142 0 -237 -118t-95 -275zM367 1180l28 127h742l-29 -127h-741z" />
<glyph unicode="&#x160;" horiz-adv-x="1216" d="M14 227l152 174q71 -98 193.5 -155.5t263.5 -57.5q121 0 184 60.5t63 136.5q0 40 -29 73.5t-76 56.5t-107.5 48t-123 47.5t-123 56t-107.5 72t-76 96.5t-29 128q0 82 37 159t102 136t163 95t212 36q160 0 298.5 -58.5t223.5 -161.5l-154 -172q-70 88 -180 134.5 t-223 46.5q-95 0 -160 -52t-65 -122q0 -42 37 -76t96 -60t130.5 -52.5t143.5 -60.5t131 -75.5t96 -105.5t37 -144q0 -90 -35.5 -171.5t-100 -145t-164.5 -101t-220 -37.5q-190 0 -350.5 70t-239.5 182zM586 1786h133l115 -197l196 197h139l-256 -295h-196z" />
<glyph unicode="&#x161;" horiz-adv-x="966" d="M-8 154l127 147q47 -60 141.5 -107t196.5 -47q82 0 131 39t49 95q0 31 -28 56.5t-73.5 43.5t-100 36.5t-109 42t-100 52.5t-73.5 75.5t-28 104.5q0 134 106 228t287 94q123 0 231 -44.5t173 -115.5l-117 -143q-35 53 -119 93t-174 40q-80 0 -126 -33t-46 -84 q0 -29 28 -52.5t73 -41.5t99.5 -36.5t109 -43t99.5 -54.5t73 -78t28 -108q0 -143 -111 -240.5t-301 -97.5q-136 0 -252.5 46t-193.5 133zM393 1434h133l115 -197l197 197h139l-256 -295h-197z" />
<glyph unicode="&#x16a;" horiz-adv-x="1474" d="M143 442q0 36 11 99l182 825h244l-183 -821q-8 -48 -8 -74q2 -124 87.5 -204.5t236.5 -80.5q162 0 253 93t130 266l180 821h244l-183 -825q-23 -104 -56 -187.5t-84.5 -155.5t-118.5 -120.5t-159.5 -75.5t-205.5 -27q-272 0 -421 126t-149 341zM596 1532l29 127h741 l-29 -127h-741z" />
<glyph unicode="&#x16b;" horiz-adv-x="1161" d="M86 225q0 32 10 82l152 682h215l-137 -618q-11 -55 -11 -64q0 -71 51 -106t134 -35q69 0 138.5 38.5t125.5 96.5l151 688h215l-219 -989h-215l31 135q-168 -160 -338 -160q-139 0 -221 67t-82 183zM360 1180l29 127h741l-28 -127h-742z" />
<glyph unicode="&#x172;" horiz-adv-x="1474" d="M143 442q0 36 11 99l182 825h244l-183 -821q-8 -48 -8 -74q2 -124 87.5 -204.5t236.5 -80.5q162 0 253 93t130 266l180 821h244l-183 -825q-47 -216 -148.5 -354t-277.5 -187q-200 -88 -200 -211q0 -35 22 -54.5t58 -19.5q60 0 104 76l78 -63q-80 -109 -191 -109 q-79 0 -130.5 40t-51.5 112q0 118 100 204q-266 3 -411.5 128.5t-145.5 338.5z" />
<glyph unicode="&#x173;" horiz-adv-x="1161" d="M86 225q0 32 10 82l152 682h215l-137 -618q-11 -55 -11 -64q0 -71 51 -106t134 -35q69 0 138.5 38.5t125.5 96.5l151 688h215l-219 -989q-200 -88 -200 -211q0 -35 22 -54.5t58 -19.5q60 0 104 76l78 -63q-80 -109 -191 -109q-79 0 -130.5 40t-51.5 112q0 135 133 229 h-37l31 135q-168 -160 -338 -160q-139 0 -221 67t-82 183z" />
<glyph unicode="&#x17d;" horiz-adv-x="1206" d="M-20 0l43 195l897 960h-684l47 211h1009l-43 -192l-897 -963h699l-45 -211h-1026zM596 1786h133l115 -197l196 197h140l-256 -295h-197z" />
<glyph unicode="&#x17e;" horiz-adv-x="974" d="M-16 0l36 164l621 639h-479l43 186h776l-35 -155l-631 -646h494l-39 -188h-786zM389 1434h133l115 -197l197 197h139l-256 -295h-197z" />
<glyph unicode="&#x2c6;" horiz-adv-x="583" d="M141 1139l256 295h197l131 -295h-131l-117 198l-194 -198h-142z" />
<glyph unicode="&#x2da;" horiz-adv-x="417" d="M182 1317q0 93 68.5 161t161.5 68q85 0 137.5 -52.5t52.5 -137.5q0 -93 -68 -161.5t-161 -68.5q-85 0 -138 53t-53 138zM287 1327q0 -41 26.5 -68.5t67.5 -27.5q47 0 82 34.5t35 80.5q0 43 -26 69.5t-69 26.5q-46 0 -81 -34t-35 -81z" />
<glyph unicode="&#x2dc;" horiz-adv-x="657" d="M143 1147q28 133 86 203.5t156 70.5q41 0 72 -16.5t50 -39.5t36 -46.5t39 -40t49 -16.5q72 0 108 147h119q-57 -274 -244 -274q-41 0 -71.5 16.5t-49 39.5t-35 46.5t-38.5 40t-49 16.5q-74 0 -107 -147h-121z" />
<glyph unicode="&#x2000;" horiz-adv-x="918" />
<glyph unicode="&#x2001;" horiz-adv-x="1837" />
<glyph unicode="&#x2002;" horiz-adv-x="918" />
<glyph unicode="&#x2003;" horiz-adv-x="1837" />
<glyph unicode="&#x2004;" horiz-adv-x="612" />
<glyph unicode="&#x2005;" horiz-adv-x="459" />
<glyph unicode="&#x2006;" horiz-adv-x="306" />
<glyph unicode="&#x2007;" horiz-adv-x="306" />
<glyph unicode="&#x2008;" horiz-adv-x="229" />
<glyph unicode="&#x2009;" horiz-adv-x="367" />
<glyph unicode="&#x200a;" horiz-adv-x="102" />
<glyph unicode="&#x2010;" horiz-adv-x="614" d="M41 403l39 185h491l-39 -185h-491z" />
<glyph unicode="&#x2011;" horiz-adv-x="614" d="M41 403l39 185h491l-39 -185h-491z" />
<glyph unicode="&#x2012;" horiz-adv-x="614" d="M41 403l39 185h491l-39 -185h-491z" />
<glyph unicode="&#x2013;" horiz-adv-x="1214" d="M41 403l39 185h1091l-38 -185h-1092z" />
<glyph unicode="&#x2014;" horiz-adv-x="1705" d="M41 403l39 185h1583l-39 -185h-1583z" />
<glyph unicode="&#x2018;" horiz-adv-x="501" d="M203 1012q0 106 78 212.5t194 164.5l80 -84q-60 -28 -113.5 -75t-74.5 -97h20q45 0 77 -31t32 -84q0 -62 -47.5 -108t-108.5 -46q-58 0 -97.5 39.5t-39.5 108.5z" />
<glyph unicode="&#x2019;" horiz-adv-x="501" d="M213 948q60 28 113.5 75t74.5 97q-4 -2 -20 -2q-45 0 -77 32t-32 85q0 62 47.5 106.5t108.5 44.5q59 0 98 -38t39 -107q0 -107 -78 -214t-194 -163z" />
<glyph unicode="&#x201a;" horiz-adv-x="501" d="M-37 -176q60 29 114.5 76t74.5 96h-19q-46 0 -78 31.5t-32 85.5q0 62 48 106.5t109 44.5q57 0 97 -38t40 -107q0 -107 -79 -214t-195 -165z" />
<glyph unicode="&#x201c;" horiz-adv-x="880" d="M211 1012q0 106 78 212.5t194 164.5l80 -84q-60 -28 -113.5 -75t-74.5 -97h20q45 0 77 -31t32 -84q0 -62 -47.5 -108t-108.5 -46q-58 0 -97.5 39.5t-39.5 108.5zM588 1012q0 106 79 212.5t195 164.5l80 -84q-60 -28 -113.5 -75t-74.5 -97h18q47 0 79 -31t32 -84 q0 -62 -48.5 -108t-109.5 -46q-57 0 -97 39.5t-40 108.5z" />
<glyph unicode="&#x201d;" horiz-adv-x="880" d="M213 948q60 28 113.5 75t74.5 97q-4 -2 -20 -2q-45 0 -77 32t-32 85q0 62 47.5 106.5t108.5 44.5q59 0 98 -38t39 -107q0 -107 -78 -214t-194 -163zM590 948q60 28 113.5 75t74.5 97q-4 -2 -18 -2q-46 0 -78.5 32t-32.5 85q0 62 48.5 106.5t109.5 44.5q57 0 97 -38 t40 -107q0 -107 -79 -214t-195 -163z" />
<glyph unicode="&#x201e;" horiz-adv-x="880" d="M-37 -176q60 29 114.5 76t74.5 96h-19q-46 0 -78 31.5t-32 85.5q0 62 48 106.5t109 44.5q57 0 97 -38t40 -107q0 -107 -79 -214t-195 -165zM342 -176q60 28 113.5 75t74.5 97h-20q-45 0 -77 32t-32 85q0 62 47.5 106.5t108.5 44.5q59 0 98 -38t39 -107q0 -107 -78 -214 t-194 -165z" />
<glyph unicode="&#x2022;" horiz-adv-x="733" d="M131 475q0 104 78.5 179t183.5 75q89 0 149 -60t60 -149q0 -104 -77.5 -180t-182.5 -76q-91 0 -151 60t-60 151z" />
<glyph unicode="&#x2026;" horiz-adv-x="1505" d="M25 111q0 63 46 108t109 45q55 0 93 -38.5t38 -92.5q0 -64 -46 -110t-111 -46q-54 0 -91.5 39t-37.5 95zM526 111q0 63 46.5 108t109.5 45q55 0 93 -38.5t38 -92.5q0 -64 -46.5 -110t-111.5 -46q-54 0 -91.5 39t-37.5 95zM1028 111q0 63 46.5 108t109.5 45q55 0 93 -38.5 t38 -92.5q0 -64 -46.5 -110t-111.5 -46q-54 0 -91.5 39t-37.5 95z" />
<glyph unicode="&#x202f;" horiz-adv-x="367" />
<glyph unicode="&#x2039;" horiz-adv-x="655" d="M59 498l410 362h213l-418 -373l238 -358h-197z" />
<glyph unicode="&#x203a;" horiz-adv-x="655" d="M-23 129l418 373l-237 358h196l246 -368l-410 -363h-213z" />
<glyph unicode="&#x205f;" horiz-adv-x="459" />
<glyph unicode="&#x20ac;" horiz-adv-x="1439" d="M45 471l31 139h82q3 73 16 150h-65l32 139h74q90 225 289 357.5t438 132.5q217 0 366 -99t220 -260l-230 -82q-48 112 -145.5 170t-222.5 58q-136 0 -256 -74.5t-191 -202.5h576l-31 -139h-598q-20 -78 -20 -150h585l-30 -139h-539q36 -130 140.5 -206.5t258.5 -76.5 q93 0 183 41.5t159 116.5l183 -129q-72 -85 -168.5 -141t-187 -78.5t-181.5 -22.5q-253 0 -431 134.5t-216 361.5h-121z" />
<glyph unicode="&#x2122;" horiz-adv-x="929" d="M215 1313l10 53h312l-11 -53h-127l-88 -398h-57l88 398h-127zM512 915l98 451h88l60 -328l203 328h88l-99 -451h-57l82 373l-236 -373h-16l-72 373l-82 -373h-57z" />
<glyph unicode="&#x25fc;" horiz-adv-x="993" d="M0 0v993h993v-993h-993z" />
<hkern g1="B" 	g2="T" 	k="31" />
<hkern g1="B" 	g2="V" 	k="31" />
<hkern g1="B" 	g2="W" 	k="20" />
<hkern g1="B" 	g2="Y,Yacute" 	k="61" />
<hkern g1="B" 	g2="quotedbl,quotesingle,registered,quoteleft,quoteright,quotedblleft,quotedblright,trademark" 	k="20" />
<hkern g1="C,Ccaron" 	g2="S,Scaron" 	k="-10" />
<hkern g1="C,Ccaron" 	g2="T" 	k="10" />
<hkern g1="C,Ccaron" 	g2="C,G,O,Q,Oacute,Otilde,Odieresis,Oslash,Ccaron,Gcommaaccent,Omacron" 	k="-10" />
<hkern g1="C,Ccaron" 	g2="V" 	k="27" />
<hkern g1="C,Ccaron" 	g2="W" 	k="20" />
<hkern g1="C,Ccaron" 	g2="Y,Yacute" 	k="61" />
<hkern g1="C,Ccaron" 	g2="question" 	k="10" />
<hkern g1="C,Ccaron" 	g2="A,Aacute,Adieresis,Aring,AE,Amacron,Aogonek" 	k="10" />
<hkern g1="D,O,Q,Oacute,Otilde,Odieresis,Oslash,Omacron" 	g2="J" 	k="41" />
<hkern g1="D,O,Q,Oacute,Otilde,Odieresis,Oslash,Omacron" 	g2="T" 	k="78" />
<hkern g1="D,O,Q,Oacute,Otilde,Odieresis,Oslash,Omacron" 	g2="V" 	k="72" />
<hkern g1="D,O,Q,Oacute,Otilde,Odieresis,Oslash,Omacron" 	g2="W" 	k="68" />
<hkern g1="D,O,Q,Oacute,Otilde,Odieresis,Oslash,Omacron" 	g2="Y,Yacute" 	k="123" />
<hkern g1="D,O,Q,Oacute,Otilde,Odieresis,Oslash,Omacron" 	g2="question" 	k="41" />
<hkern g1="D,O,Q,Oacute,Otilde,Odieresis,Oslash,Omacron" 	g2="quotedbl,quotesingle,registered,quoteleft,quoteright,quotedblleft,quotedblright,trademark" 	k="20" />
<hkern g1="D,O,Q,Oacute,Otilde,Odieresis,Oslash,Omacron" 	g2="A,Aacute,Adieresis,Aring,AE,Amacron,Aogonek" 	k="41" />
<hkern g1="D,O,Q,Oacute,Otilde,Odieresis,Oslash,Omacron" 	g2="X" 	k="61" />
<hkern g1="D,O,Q,Oacute,Otilde,Odieresis,Oslash,Omacron" 	g2="Z,Zcaron" 	k="31" />
<hkern g1="D,O,Q,Oacute,Otilde,Odieresis,Oslash,Omacron" 	g2="comma,period,quotesinglbase,quotedblbase,ellipsis" 	k="51" />
<hkern g1="F" 	g2="comma,period,quotesinglbase,quotedblbase,ellipsis" 	k="102" />
<hkern g1="F" 	g2="A,Aacute,Adieresis,Aring,AE,Amacron,Aogonek" 	k="82" />
<hkern g1="F" 	g2="J" 	k="133" />
<hkern g1="F" 	g2="ampersand" 	k="20" />
<hkern g1="G,Gcommaaccent" 	g2="V" 	k="51" />
<hkern g1="G,Gcommaaccent" 	g2="Y,Yacute" 	k="72" />
<hkern g1="G,Gcommaaccent" 	g2="W" 	k="27" />
<hkern g1="G,Gcommaaccent" 	g2="X" 	k="10" />
<hkern g1="G,Gcommaaccent" 	g2="question" 	k="20" />
<hkern g1="G,Gcommaaccent" 	g2="T" 	k="41" />
<hkern g1="G,Gcommaaccent" 	g2="A,Aacute,Adieresis,Aring,AE,Amacron,Aogonek" 	k="10" />
<hkern g1="K,Kcommaaccent" 	g2="Y,Yacute" 	k="31" />
<hkern g1="K,Kcommaaccent" 	g2="C,G,O,Q,Oacute,Otilde,Odieresis,Oslash,Ccaron,Gcommaaccent,Omacron" 	k="102" />
<hkern g1="K,Kcommaaccent" 	g2="a,c,d,e,g,o,q,ae,oslash,aogonek,eogonek" 	k="61" />
<hkern g1="K,Kcommaaccent" 	g2="f" 	k="61" />
<hkern g1="K,Kcommaaccent" 	g2="t" 	k="92" />
<hkern g1="K,Kcommaaccent" 	g2="u,uogonek" 	k="41" />
<hkern g1="K,Kcommaaccent" 	g2="v" 	k="123" />
<hkern g1="K,Kcommaaccent" 	g2="w" 	k="82" />
<hkern g1="K,Kcommaaccent" 	g2="x" 	k="61" />
<hkern g1="K,Kcommaaccent" 	g2="y,yacute" 	k="123" />
<hkern g1="K,Kcommaaccent" 	g2="hyphen,endash,emdash" 	k="102" />
<hkern g1="L,Lcommaaccent" 	g2="V" 	k="184" />
<hkern g1="L,Lcommaaccent" 	g2="Y,Yacute" 	k="256" />
<hkern g1="L,Lcommaaccent" 	g2="W" 	k="143" />
<hkern g1="L,Lcommaaccent" 	g2="question" 	k="225" />
<hkern g1="L,Lcommaaccent" 	g2="quotedbl,quotesingle,registered,quoteleft,quoteright,quotedblleft,quotedblright,trademark" 	k="266" />
<hkern g1="L,Lcommaaccent" 	g2="T" 	k="205" />
<hkern g1="L,Lcommaaccent" 	g2="ampersand" 	k="10" />
<hkern g1="L,Lcommaaccent" 	g2="C,G,O,Q,Oacute,Otilde,Odieresis,Oslash,Ccaron,Gcommaaccent,Omacron" 	k="61" />
<hkern g1="L,Lcommaaccent" 	g2="a,c,d,e,g,o,q,ae,oslash,aogonek,eogonek" 	k="31" />
<hkern g1="L,Lcommaaccent" 	g2="t" 	k="72" />
<hkern g1="L,Lcommaaccent" 	g2="u,uogonek" 	k="20" />
<hkern g1="L,Lcommaaccent" 	g2="U,Uacute,Udieresis,Umacron,Uogonek" 	k="51" />
<hkern g1="L,Lcommaaccent" 	g2="asterisk" 	k="348" />
<hkern g1="P" 	g2="V" 	k="10" />
<hkern g1="P" 	g2="W" 	k="10" />
<hkern g1="P" 	g2="Y,Yacute" 	k="41" />
<hkern g1="P" 	g2="hyphen,endash,emdash" 	k="61" />
<hkern g1="P" 	g2="A,Aacute,Adieresis,Aring,AE,Amacron,Aogonek" 	k="154" />
<hkern g1="P" 	g2="J" 	k="236" />
<hkern g1="P" 	g2="X" 	k="31" />
<hkern g1="P" 	g2="ampersand" 	k="61" />
<hkern g1="P" 	g2="comma,period,quotesinglbase,quotedblbase,ellipsis" 	k="184" />
<hkern g1="P" 	g2="a,c,d,e,g,o,q,ae,oslash,aogonek,eogonek" 	k="31" />
<hkern g1="R" 	g2="T" 	k="20" />
<hkern g1="R" 	g2="V" 	k="20" />
<hkern g1="R" 	g2="Y,Yacute" 	k="45" />
<hkern g1="R" 	g2="quotedbl,quotesingle,registered,quoteleft,quoteright,quotedblleft,quotedblright,trademark" 	k="10" />
<hkern g1="R" 	g2="ampersand" 	k="10" />
<hkern g1="R" 	g2="a,c,d,e,g,o,q,ae,oslash,aogonek,eogonek" 	k="61" />
<hkern g1="R" 	g2="s" 	k="20" />
<hkern g1="S,Scaron" 	g2="v" 	k="20" />
<hkern g1="S,Scaron" 	g2="w" 	k="10" />
<hkern g1="S,Scaron" 	g2="y,yacute" 	k="20" />
<hkern g1="S,Scaron" 	g2="T" 	k="41" />
<hkern g1="S,Scaron" 	g2="V" 	k="27" />
<hkern g1="S,Scaron" 	g2="W" 	k="20" />
<hkern g1="S,Scaron" 	g2="Y,Yacute" 	k="68" />
<hkern g1="S,Scaron" 	g2="A,Aacute,Adieresis,Aring,AE,Amacron,Aogonek" 	k="10" />
<hkern g1="S,Scaron" 	g2="t" 	k="31" />
<hkern g1="S,Scaron" 	g2="x" 	k="31" />
<hkern g1="T" 	g2="C,G,O,Q,Oacute,Otilde,Odieresis,Oslash,Ccaron,Gcommaaccent,Omacron" 	k="27" />
<hkern g1="T" 	g2="A,Aacute,Adieresis,Aring,AE,Amacron,Aogonek" 	k="113" />
<hkern g1="T" 	g2="J" 	k="174" />
<hkern g1="T" 	g2="ampersand" 	k="82" />
<hkern g1="T" 	g2="comma,period,quotesinglbase,quotedblbase,ellipsis" 	k="195" />
<hkern g1="T" 	g2="a,c,d,e,g,o,q,ae,oslash,aogonek,eogonek" 	k="215" />
<hkern g1="T" 	g2="S,Scaron" 	k="-10" />
<hkern g1="T" 	g2="colon,semicolon" 	k="102" />
<hkern g1="J,U,Uacute,Udieresis,Umacron,Uogonek" 	g2="A,Aacute,Adieresis,Aring,AE,Amacron,Aogonek" 	k="41" />
<hkern g1="J,U,Uacute,Udieresis,Umacron,Uogonek" 	g2="comma,period,quotesinglbase,quotedblbase,ellipsis" 	k="61" />
<hkern g1="J,U,Uacute,Udieresis,Umacron,Uogonek" 	g2="J" 	k="41" />
<hkern g1="V" 	g2="f" 	k="51" />
<hkern g1="V" 	g2="m,n,p,r,z,ncommaaccent" 	k="102" />
<hkern g1="V" 	g2="s" 	k="92" />
<hkern g1="V" 	g2="v" 	k="31" />
<hkern g1="V" 	g2="w" 	k="20" />
<hkern g1="V" 	g2="x" 	k="51" />
<hkern g1="V" 	g2="y,yacute" 	k="20" />
<hkern g1="V" 	g2="hyphen,endash,emdash" 	k="113" />
<hkern g1="V" 	g2="u,uogonek" 	k="102" />
<hkern g1="V" 	g2="A,Aacute,Adieresis,Aring,AE,Amacron,Aogonek" 	k="82" />
<hkern g1="V" 	g2="comma,period,quotesinglbase,quotedblbase,ellipsis" 	k="184" />
<hkern g1="V" 	g2="ampersand" 	k="41" />
<hkern g1="V" 	g2="J" 	k="195" />
<hkern g1="V" 	g2="C,G,O,Q,Oacute,Otilde,Odieresis,Oslash,Ccaron,Gcommaaccent,Omacron" 	k="10" />
<hkern g1="V" 	g2="a,c,d,e,g,o,q,ae,oslash,aogonek,eogonek" 	k="123" />
<hkern g1="V" 	g2="t" 	k="31" />
<hkern g1="V" 	g2="S,Scaron" 	k="-27" />
<hkern g1="W" 	g2="f" 	k="31" />
<hkern g1="W" 	g2="m,n,p,r,z,ncommaaccent" 	k="61" />
<hkern g1="W" 	g2="s" 	k="51" />
<hkern g1="W" 	g2="u,uogonek" 	k="61" />
<hkern g1="W" 	g2="A,Aacute,Adieresis,Aring,AE,Amacron,Aogonek" 	k="78" />
<hkern g1="W" 	g2="comma,period,quotesinglbase,quotedblbase,ellipsis" 	k="133" />
<hkern g1="W" 	g2="ampersand" 	k="20" />
<hkern g1="W" 	g2="J" 	k="102" />
<hkern g1="W" 	g2="C,G,O,Q,Oacute,Otilde,Odieresis,Oslash,Ccaron,Gcommaaccent,Omacron" 	k="16" />
<hkern g1="W" 	g2="a,c,d,e,g,o,q,ae,oslash,aogonek,eogonek" 	k="82" />
<hkern g1="W" 	g2="t" 	k="31" />
<hkern g1="Y,Yacute" 	g2="x" 	k="154" />
<hkern g1="Y,Yacute" 	g2="v" 	k="123" />
<hkern g1="Y,Yacute" 	g2="y,yacute" 	k="123" />
<hkern g1="Y,Yacute" 	g2="hyphen,endash,emdash" 	k="246" />
<hkern g1="Y,Yacute" 	g2="S,Scaron" 	k="16" />
<hkern g1="Y,Yacute" 	g2="A,Aacute,Adieresis,Aring,AE,Amacron,Aogonek" 	k="113" />
<hkern g1="Y,Yacute" 	g2="comma,period,quotesinglbase,quotedblbase,ellipsis" 	k="184" />
<hkern g1="Y,Yacute" 	g2="ampersand" 	k="88" />
<hkern g1="Y,Yacute" 	g2="J" 	k="236" />
<hkern g1="Y,Yacute" 	g2="C,G,O,Q,Oacute,Otilde,Odieresis,Oslash,Ccaron,Gcommaaccent,Omacron" 	k="41" />
<hkern g1="Y,Yacute" 	g2="colon,semicolon" 	k="133" />
<hkern g1="Y,Yacute" 	g2="a,c,d,e,g,o,q,ae,oslash,aogonek,eogonek" 	k="256" />
<hkern g1="Y,Yacute" 	g2="f" 	k="113" />
<hkern g1="Y,Yacute" 	g2="m,n,p,r,z,ncommaaccent" 	k="184" />
<hkern g1="Y,Yacute" 	g2="s" 	k="205" />
<hkern g1="Y,Yacute" 	g2="t" 	k="61" />
<hkern g1="Y,Yacute" 	g2="u,uogonek" 	k="184" />
<hkern g1="Y,Yacute" 	g2="w" 	k="123" />
<hkern g1="Z,Zcaron" 	g2="C,G,O,Q,Oacute,Otilde,Odieresis,Oslash,Ccaron,Gcommaaccent,Omacron" 	k="31" />
<hkern g1="ampersand" 	g2="y,yacute" 	k="41" />
<hkern g1="ampersand" 	g2="T" 	k="174" />
<hkern g1="ampersand" 	g2="Y,Yacute" 	k="211" />
<hkern g1="ampersand" 	g2="V" 	k="133" />
<hkern g1="ampersand" 	g2="W" 	k="102" />
<hkern g1="ampersand" 	g2="quotedbl,quotesingle,registered,quoteleft,quoteright,quotedblleft,quotedblright,trademark" 	k="31" />
<hkern g1="asterisk" 	g2="A,Aacute,Adieresis,Aring,AE,Amacron,Aogonek" 	k="195" />
<hkern g1="asterisk" 	g2="J" 	k="246" />
<hkern g1="b,o,p,oslash" 	g2="T" 	k="215" />
<hkern g1="b,o,p,oslash" 	g2="comma,period,quotesinglbase,quotedblbase,ellipsis" 	k="10" />
<hkern g1="b,o,p,oslash" 	g2="Y,Yacute" 	k="246" />
<hkern g1="b,o,p,oslash" 	g2="quotedbl,quotesingle,registered,quoteleft,quoteright,quotedblleft,quotedblright,trademark" 	k="20" />
<hkern g1="b,o,p,oslash" 	g2="question" 	k="102" />
<hkern g1="c,cent" 	g2="V" 	k="82" />
<hkern g1="c,cent" 	g2="W" 	k="51" />
<hkern g1="c,cent" 	g2="T" 	k="154" />
<hkern g1="c,cent" 	g2="Y,Yacute" 	k="133" />
<hkern g1="c,cent" 	g2="question" 	k="51" />
<hkern g1="c,cent" 	g2="quotedbl,quotesingle,registered,quoteleft,quoteright,quotedblleft,quotedblright,trademark" 	k="10" />
<hkern g1="colon,semicolon" 	g2="T" 	k="102" />
<hkern g1="colon,semicolon" 	g2="Y,Yacute" 	k="133" />
<hkern g1="e,ae,eogonek" 	g2="V" 	k="113" />
<hkern g1="e,ae,eogonek" 	g2="W" 	k="82" />
<hkern g1="e,ae,eogonek" 	g2="T" 	k="195" />
<hkern g1="e,ae,eogonek" 	g2="Y,Yacute" 	k="225" />
<hkern g1="e,ae,eogonek" 	g2="question" 	k="82" />
<hkern g1="e,ae,eogonek" 	g2="quotedbl,quotesingle,registered,quoteleft,quoteright,quotedblleft,quotedblright,trademark" 	k="10" />
<hkern g1="e,ae,eogonek" 	g2="asterisk" 	k="31" />
<hkern g1="e,ae,eogonek" 	g2="comma,period,quotesinglbase,quotedblbase,ellipsis" 	k="10" />
<hkern g1="f" 	g2="V" 	k="-133" />
<hkern g1="f" 	g2="W" 	k="-133" />
<hkern g1="f" 	g2="T" 	k="-82" />
<hkern g1="f" 	g2="X" 	k="-82" />
<hkern g1="f" 	g2="Y,Yacute" 	k="-123" />
<hkern g1="f" 	g2="Z,Zcaron" 	k="-82" />
<hkern g1="f" 	g2="question" 	k="-113" />
<hkern g1="f" 	g2="quotedbl,quotesingle,registered,quoteleft,quoteright,quotedblleft,quotedblright,trademark" 	k="-133" />
<hkern g1="f" 	g2="asterisk" 	k="-133" />
<hkern g1="f" 	g2="comma,period,quotesinglbase,quotedblbase,ellipsis" 	k="92" />
<hkern g1="f" 	g2="ampersand" 	k="10" />
<hkern g1="f" 	g2="parenright,bracketright,braceright" 	k="-143" />
<hkern g1="f" 	g2="exclam,B,D,E,F,H,I,K,L,M,N,P,R,Eacute,Iacute,Emacron,Edotaccent,Eogonek,Imacron,Iogonek,Kcommaaccent,Lcommaaccent,Ncommaaccent" 	k="-82" />
<hkern g1="f" 	g2="S,Scaron" 	k="-51" />
<hkern g1="f" 	g2="U,Uacute,Udieresis,Umacron,Uogonek" 	k="-82" />
<hkern g1="g,q" 	g2="V" 	k="102" />
<hkern g1="g,q" 	g2="W" 	k="61" />
<hkern g1="g,q" 	g2="T" 	k="154" />
<hkern g1="g,q" 	g2="Y,Yacute" 	k="184" />
<hkern g1="g,q" 	g2="question" 	k="51" />
<hkern g1="g,q" 	g2="j" 	k="-102" />
<hkern g1="hyphen,endash,emdash" 	g2="V" 	k="113" />
<hkern g1="hyphen,endash,emdash" 	g2="W" 	k="72" />
<hkern g1="hyphen,endash,emdash" 	g2="X" 	k="92" />
<hkern g1="hyphen,endash,emdash" 	g2="Y,Yacute" 	k="236" />
<hkern g1="k,kcommaaccent" 	g2="V" 	k="51" />
<hkern g1="k,kcommaaccent" 	g2="W" 	k="51" />
<hkern g1="k,kcommaaccent" 	g2="T" 	k="113" />
<hkern g1="k,kcommaaccent" 	g2="Y,Yacute" 	k="143" />
<hkern g1="k,kcommaaccent" 	g2="a,c,d,e,g,o,q,ae,oslash,aogonek,eogonek" 	k="10" />
<hkern g1="k,kcommaaccent" 	g2="bullet" 	k="51" />
<hkern g1="k,kcommaaccent" 	g2="hyphen,endash,emdash" 	k="51" />
<hkern g1="comma,period,quotesinglbase,quotedblbase,ellipsis" 	g2="V" 	k="174" />
<hkern g1="comma,period,quotesinglbase,quotedblbase,ellipsis" 	g2="W" 	k="133" />
<hkern g1="comma,period,quotesinglbase,quotedblbase,ellipsis" 	g2="T" 	k="195" />
<hkern g1="comma,period,quotesinglbase,quotedblbase,ellipsis" 	g2="Y,Yacute" 	k="184" />
<hkern g1="comma,period,quotesinglbase,quotedblbase,ellipsis" 	g2="quotedbl,quotesingle,registered,quoteleft,quoteright,quotedblleft,quotedblright,trademark" 	k="164" />
<hkern g1="comma,period,quotesinglbase,quotedblbase,ellipsis" 	g2="U,Uacute,Udieresis,Umacron,Uogonek" 	k="61" />
<hkern g1="comma,period,quotesinglbase,quotedblbase,ellipsis" 	g2="j" 	k="-82" />
<hkern g1="comma,period,quotesinglbase,quotedblbase,ellipsis" 	g2="a,c,d,e,g,o,q,ae,oslash,aogonek,eogonek" 	k="10" />
<hkern g1="comma,period,quotesinglbase,quotedblbase,ellipsis" 	g2="f" 	k="51" />
<hkern g1="comma,period,quotesinglbase,quotedblbase,ellipsis" 	g2="t" 	k="51" />
<hkern g1="comma,period,quotesinglbase,quotedblbase,ellipsis" 	g2="v" 	k="133" />
<hkern g1="comma,period,quotesinglbase,quotedblbase,ellipsis" 	g2="w" 	k="82" />
<hkern g1="comma,period,quotesinglbase,quotedblbase,ellipsis" 	g2="y,yacute" 	k="113" />
<hkern g1="comma,period,quotesinglbase,quotedblbase,ellipsis" 	g2="one" 	k="184" />
<hkern g1="comma,period,quotesinglbase,quotedblbase,ellipsis" 	g2="zero,six" 	k="51" />
<hkern g1="comma,period,quotesinglbase,quotedblbase,ellipsis" 	g2="seven" 	k="143" />
<hkern g1="quotedbl,quotesingle,quoteleft,quoteright,quotedblleft,quotedblright" 	g2="A,Aacute,Adieresis,Aring,AE,Amacron,Aogonek" 	k="205" />
<hkern g1="quotedbl,quotesingle,quoteleft,quoteright,quotedblleft,quotedblright" 	g2="C,G,O,Q,Oacute,Otilde,Odieresis,Oslash,Ccaron,Gcommaaccent,Omacron" 	k="10" />
<hkern g1="quotedbl,quotesingle,quoteleft,quoteright,quotedblleft,quotedblright" 	g2="s" 	k="61" />
<hkern g1="quotedbl,quotesingle,quoteleft,quoteright,quotedblleft,quotedblright" 	g2="J" 	k="205" />
<hkern g1="quotedbl,quotesingle,quoteleft,quoteright,quotedblleft,quotedblright" 	g2="comma,period,quotesinglbase,quotedblbase,ellipsis" 	k="164" />
<hkern g1="quotedbl,quotesingle,quoteleft,quoteright,quotedblleft,quotedblright" 	g2="ampersand" 	k="-10" />
<hkern g1="r" 	g2="W" 	k="20" />
<hkern g1="r" 	g2="Y,Yacute" 	k="102" />
<hkern g1="r" 	g2="comma,period,quotesinglbase,quotedblbase,ellipsis" 	k="174" />
<hkern g1="r" 	g2="T" 	k="82" />
<hkern g1="r" 	g2="V" 	k="51" />
<hkern g1="r" 	g2="X" 	k="31" />
<hkern g1="s" 	g2="W" 	k="92" />
<hkern g1="s" 	g2="Y,Yacute" 	k="195" />
<hkern g1="s" 	g2="T" 	k="164" />
<hkern g1="s" 	g2="V" 	k="92" />
<hkern g1="s" 	g2="X" 	k="10" />
<hkern g1="s" 	g2="question" 	k="92" />
<hkern g1="s" 	g2="quotedbl,quotesingle,registered,quoteleft,quoteright,quotedblleft,quotedblright,trademark" 	k="41" />
<hkern g1="t" 	g2="W" 	k="31" />
<hkern g1="t" 	g2="Y,Yacute" 	k="72" />
<hkern g1="t" 	g2="T" 	k="82" />
<hkern g1="t" 	g2="V" 	k="61" />
<hkern g1="a,u,z,aogonek,uogonek" 	g2="W" 	k="61" />
<hkern g1="a,u,z,aogonek,uogonek" 	g2="Y,Yacute" 	k="184" />
<hkern g1="a,u,z,aogonek,uogonek" 	g2="T" 	k="154" />
<hkern g1="a,u,z,aogonek,uogonek" 	g2="V" 	k="102" />
<hkern g1="a,u,z,aogonek,uogonek" 	g2="question" 	k="51" />
<hkern g1="v" 	g2="W" 	k="10" />
<hkern g1="v" 	g2="Y,Yacute" 	k="123" />
<hkern g1="v" 	g2="A,Aacute,Adieresis,Aring,AE,Amacron,Aogonek" 	k="41" />
<hkern g1="v" 	g2="comma,period,quotesinglbase,quotedblbase,ellipsis" 	k="133" />
<hkern g1="v" 	g2="T" 	k="82" />
<hkern g1="v" 	g2="V" 	k="31" />
<hkern g1="v" 	g2="X" 	k="72" />
<hkern g1="w" 	g2="Y,Yacute" 	k="123" />
<hkern g1="w" 	g2="A,Aacute,Adieresis,Aring,AE,Amacron,Aogonek" 	k="31" />
<hkern g1="w" 	g2="comma,period,quotesinglbase,quotedblbase,ellipsis" 	k="82" />
<hkern g1="w" 	g2="T" 	k="82" />
<hkern g1="w" 	g2="V" 	k="20" />
<hkern g1="w" 	g2="X" 	k="82" />
<hkern g1="y,yacute" 	g2="W" 	k="10" />
<hkern g1="y,yacute" 	g2="Y,Yacute" 	k="123" />
<hkern g1="y,yacute" 	g2="A,Aacute,Adieresis,Aring,AE,Amacron,Aogonek" 	k="41" />
<hkern g1="y,yacute" 	g2="comma,period,quotesinglbase,quotedblbase,ellipsis" 	k="113" />
<hkern g1="y,yacute" 	g2="T" 	k="82" />
<hkern g1="y,yacute" 	g2="V" 	k="20" />
<hkern g1="y,yacute" 	g2="X" 	k="72" />
<hkern g1="y,yacute" 	g2="question" 	k="10" />
<hkern g1="X" 	g2="C,G,O,Q,Oacute,Otilde,Odieresis,Oslash,Ccaron,Gcommaaccent,Omacron" 	k="61" />
<hkern g1="X" 	g2="y,yacute" 	k="72" />
<hkern g1="X" 	g2="w" 	k="82" />
<hkern g1="X" 	g2="v" 	k="72" />
<hkern g1="X" 	g2="f" 	k="61" />
<hkern g1="X" 	g2="t" 	k="61" />
<hkern g1="X" 	g2="hyphen,endash,emdash" 	k="92" />
<hkern g1="zero,nine" 	g2="comma,period,quotesinglbase,quotedblbase,ellipsis" 	k="51" />
<hkern g1="seven" 	g2="comma,period,quotesinglbase,quotedblbase,ellipsis" 	k="195" />
<hkern g1="x" 	g2="W" 	k="51" />
<hkern g1="x" 	g2="Y,Yacute" 	k="154" />
<hkern g1="x" 	g2="T" 	k="102" />
<hkern g1="x" 	g2="V" 	k="51" />
<hkern g1="x" 	g2="a,c,d,e,g,o,q,ae,oslash,aogonek,eogonek" 	k="72" />
<hkern g1="parenleft,bracketleft,braceleft" 	g2="j" 	k="-225" />
</font>
</defs></svg> 