<?xml version="1.0" standalone="no"?>
<!DOCTYPE svg PUBLIC "-//W3C//DTD SVG 1.1//EN" "http://www.w3.org/Graphics/SVG/1.1/DTD/svg11.dtd" >
<svg xmlns="http://www.w3.org/2000/svg">
<metadata></metadata>
<defs>
<font id="proxima_novablack" horiz-adv-x="573" >
<font-face units-per-em="2048" ascent="1618" descent="-430" />
<missing-glyph horiz-adv-x="522" />
<glyph horiz-adv-x="0" />
<glyph horiz-adv-x="682" />
<glyph unicode=" "  horiz-adv-x="522" />
<glyph unicode="&#x09;" horiz-adv-x="522" />
<glyph unicode="&#xa0;" horiz-adv-x="522" />
<glyph unicode="!" d="M68 1366h438l-51 -858h-332zM72 195q0 89 64 154t153 65t153 -65t64 -154q0 -88 -64 -153t-153 -65t-153 65t-64 153z" />
<glyph unicode="&#x22;" horiz-adv-x="960" d="M70 1198q0 78 55.5 133t132.5 55t132.5 -55t55.5 -133q0 -21 -28 -147t-56 -241l-28 -116h-152q-112 457 -112 504zM516 1198q0 78 55.5 133t133.5 55q77 0 131.5 -55t54.5 -133q0 -21 -28.5 -147t-56.5 -241l-28 -116h-149q-113 457 -113 504z" />
<glyph unicode="#" horiz-adv-x="1323" d="M25 324l71 223h180l89 270h-179l70 221h184l109 328h260l-109 -328h160l109 328h260l-111 -328h180l-67 -221h-187l-90 -270h187l-70 -223h-192l-107 -324h-260l109 324h-162l-107 -324h-260l109 324h-176zM537 547h157l90 270h-159z" />
<glyph unicode="$" horiz-adv-x="1300" d="M37 193l215 307q82 -79 195.5 -127.5t244.5 -48.5q65 0 108.5 18t43.5 55q0 21 -26 35t-70 23.5t-101.5 19t-120.5 23.5t-126 33.5t-120.5 53.5t-101.5 79t-70 114.5t-26 155.5q0 164 119.5 290t335.5 154v195h262v-197q251 -35 430 -180l-221 -293q-86 65 -194 100 t-208 35q-104 0 -104 -61q0 -20 26 -35t70 -25t101 -20.5t120 -25t126 -34.5t120 -53t101 -76.5t70 -109.5t26 -147q0 -197 -121.5 -318t-341.5 -149v-189h-262v189q-302 28 -500 209z" />
<glyph unicode="%" horiz-adv-x="1605" d="M41 1040q0 148 100.5 247t264.5 99q165 0 266.5 -99t101.5 -247q0 -146 -101.5 -244t-266.5 -98q-164 0 -264.5 98t-100.5 244zM268 0l873 1366h200l-874 -1366h-199zM291 1040q0 -63 32 -94t83 -31q53 0 85.5 31t32.5 94q0 66 -32.5 97.5t-85.5 31.5q-51 0 -83 -32 t-32 -97zM834 317q0 148 100 247.5t264 99.5t265.5 -99.5t101.5 -247.5q0 -146 -101.5 -244t-265.5 -98t-264 98t-100 244zM1081 317q0 -64 32 -94t85 -30t86 30t33 94q0 65 -33 97t-86 32t-85 -31.5t-32 -97.5z" />
<glyph unicode="&#x26;" horiz-adv-x="1335" d="M25 387q0 73 22 134t64 106.5t89.5 79t110.5 63.5q-75 150 -75 279q0 142 122 239.5t314 97.5q106 0 198 -35.5t150.5 -107.5t58.5 -166q0 -61 -19 -112.5t-46.5 -87t-74 -68.5t-86 -53t-97.5 -45q50 -69 78 -101q43 -57 73 -94q68 107 101 217l284 -135 q-88 -182 -194 -309q131 -147 262 -289h-455q-1 1 -63 68q-163 -93 -340 -93q-136 0 -242 44.5t-170.5 139t-64.5 228.5zM410 424q0 -71 43 -118.5t104 -47.5q47 0 96 21q-61 70 -102 124q-35 44 -100 136q-41 -50 -41 -115zM596 1038q0 -59 39 -135q65 32 100 68t35 84 q0 32 -23 53.5t-57 21.5q-41 0 -67.5 -26t-26.5 -66z" />
<glyph unicode="'" horiz-adv-x="516" d="M70 1198q0 78 55.5 133t132.5 55t132.5 -55t55.5 -133q0 -21 -28 -147t-56 -241l-28 -116h-152q-112 457 -112 504z" />
<glyph unicode="(" horiz-adv-x="708" d="M76 498q0 251 100.5 505.5t261.5 399.5l234 -178q-108 -178 -154.5 -348.5t-46.5 -378.5q0 -207 47 -377.5t154 -345.5l-234 -183q-161 144 -261.5 399.5t-100.5 506.5z" />
<glyph unicode=")" horiz-adv-x="710" d="M37 -225q107 175 154 345.5t47 377.5q0 208 -46.5 378.5t-154.5 348.5l233 178q161 -145 262 -400t101 -505t-101 -505.5t-262 -400.5z" />
<glyph unicode="*" horiz-adv-x="743" d="M35 946l188 98l-188 99l82 143l180 -115l-8 215h166l-11 -215l181 115l84 -143l-191 -99l191 -98l-84 -143l-181 115l11 -216h-166l8 216l-180 -115z" />
<glyph unicode="+" horiz-adv-x="1044" d="M59 584v215h344v379h238v-379h344v-215h-344v-396h-238v396h-344z" />
<glyph unicode="," horiz-adv-x="575" d="M70 199q0 89 63 152t150 63q98 0 167.5 -71.5t69.5 -192.5q0 -133 -67 -249t-189 -202l-149 121q52 23 109.5 81.5t76.5 114.5q-20 -8 -53 -8q-75 0 -126.5 53t-51.5 138z" />
<glyph unicode="-" horiz-adv-x="614" d="M61 342v307h492v-307h-492z" />
<glyph unicode="." horiz-adv-x="579" d="M70 195q0 89 65 154t154 65t154 -65t65 -154t-65 -154.5t-154 -65.5t-154 65.5t-65 154.5z" />
<glyph unicode="/" horiz-adv-x="741" d="M0 -41l485 1448h256l-485 -1448h-256z" />
<glyph unicode="0" horiz-adv-x="1286" d="M37 682q0 113 23.5 216t72.5 192t120 155t171 103.5t219 37.5t219 -37.5t171 -103.5t120 -155t72.5 -192t23.5 -216t-23.5 -216t-73 -193t-120 -156t-170.5 -104t-219 -38t-219 38t-170.5 104t-120 156t-73 193t-23.5 216zM453 682q0 -174 46 -258t144 -84t144.5 84 t46.5 258t-46.5 257t-144.5 83t-144 -83t-46 -257z" />
<glyph unicode="1" horiz-adv-x="989" d="M0 854l522 512h357v-1366h-414v840l-232 -230z" />
<glyph unicode="2" horiz-adv-x="1255" d="M25 1155q111 118 265.5 174.5t311.5 56.5q263 0 424.5 -132t161.5 -339q0 -143 -96.5 -270t-335.5 -285h444v-360h-1116v322q171 120 269 190t184.5 135.5t124.5 98.5t66 67t34 54t6 48q0 48 -45 77.5t-113 29.5q-193 0 -360 -141z" />
<glyph unicode="3" horiz-adv-x="1263" d="M25 188l202 283q74 -64 178.5 -97.5t192.5 -33.5q96 0 147.5 26.5t51.5 65.5q0 26 -14 40.5t-61.5 24t-135.5 9.5q-159 0 -199 -4v366q27 -2 199 -2q188 0 188 68q0 88 -203 88q-89 0 -176 -30.5t-157 -88.5l-195 258q205 225 573 225q276 0 423 -102.5t147 -275.5 q0 -109 -85.5 -195t-215.5 -108q58 -6 114.5 -30.5t103.5 -64.5t76 -98.5t29 -126.5q0 -183 -164.5 -296.5t-429.5 -113.5q-195 0 -346.5 58t-242.5 155z" />
<glyph unicode="4" horiz-adv-x="1302" d="M37 219v318l498 829h573v-786h158v-361h-158v-219h-414v219h-657zM436 580h258v430z" />
<glyph unicode="5" horiz-adv-x="1282" d="M66 168l221 291q69 -57 161.5 -88t184.5 -31q96 0 144 33t48 80q0 49 -45 80.5t-135 31.5q-154 0 -254 -94l-285 66v829h1045v-360h-631v-193q51 48 126 76.5t159 28.5q117 0 217 -54t161.5 -157.5t61.5 -235.5q0 -228 -161.5 -362t-446.5 -134q-359 0 -571 193z" />
<glyph unicode="6" horiz-adv-x="1280" d="M37 680q0 224 91.5 385t251.5 241t374 80q117 0 231 -31.5t195 -86.5l-174 -320q-105 74 -252 74q-53 0 -104 -14.5t-95.5 -42t-72 -75t-27.5 -106.5v-4q52 66 137 103t180 37q93 0 179.5 -30.5t154.5 -86.5t108.5 -143t40.5 -193q0 -220 -160.5 -356t-406.5 -136 q-164 0 -290.5 53.5t-204 150t-117 223t-39.5 278.5zM453 514q7 -76 58 -125t151 -49q76 0 125 33.5t49 77.5q0 41 -32 69t-73 38.5t-86 10.5q-122 0 -192 -55z" />
<glyph unicode="7" horiz-adv-x="1177" d="M37 1006v360h1116v-287l-455 -1079h-452l432 1006h-641z" />
<glyph unicode="8" horiz-adv-x="1290" d="M37 365q0 109 70.5 199.5t189.5 140.5q-238 98 -238 315q0 78 34 141t91 104t133.5 69t158 40t169.5 12t169.5 -12t158 -40t133.5 -69t91 -104t34 -141q0 -216 -240 -315q119 -50 190.5 -141t71.5 -199q0 -101 -51.5 -178t-139.5 -122t-193.5 -67.5t-223.5 -22.5 t-223.5 22.5t-193.5 67.5t-139.5 122t-51.5 178zM457 412q0 -45 51 -73t137 -28q84 0 136.5 28.5t52.5 72.5q0 37 -58.5 66.5t-130.5 39.5q-73 -10 -130.5 -39.5t-57.5 -66.5zM479 958q0 -31 50 -58t116 -36q66 9 115 36t49 58q0 42 -44 67.5t-120 25.5q-77 0 -121.5 -25.5 t-44.5 -67.5z" />
<glyph unicode="9" horiz-adv-x="1280" d="M25 897q0 220 160.5 356t406.5 136q164 0 290.5 -53.5t204 -150t117 -223t39.5 -278.5q0 -224 -91.5 -385t-252 -241.5t-373.5 -80.5q-117 0 -230.5 31.5t-195.5 87.5l174 320q105 -74 252 -74q130 0 214.5 67.5t84.5 168.5v6q-52 -66 -137 -103t-180 -37 q-93 0 -179.5 30.5t-154.5 86.5t-108.5 143t-40.5 193zM444 913q0 -41 32 -69t73 -38.5t86 -10.5q122 0 192 55q-7 76 -58 125t-153 49q-74 0 -123 -33.5t-49 -77.5z" />
<glyph unicode=":" horiz-adv-x="544" d="M70 195q0 89 65 154t154 65t154 -65t65 -154t-65 -154.5t-154 -65.5t-154 65.5t-65 154.5zM70 784q0 89 65 154.5t154 65.5t154 -65.5t65 -154.5t-65 -154t-154 -65t-154 65t-65 154z" />
<glyph unicode=";" horiz-adv-x="575" d="M70 211q0 89 63 152t150 63q98 0 167.5 -71.5t69.5 -192.5q0 -133 -67 -249t-189 -202l-149 121q52 23 109.5 82t76.5 115q-23 -9 -53 -9q-75 0 -126.5 53t-51.5 138zM70 786q0 89 65 153.5t154 64.5t154 -64.5t65 -153.5t-65 -155t-154 -66t-154 66t-65 155z" />
<glyph unicode="&#x3c;" horiz-adv-x="1044" d="M59 553v266l926 369v-256l-684 -248l684 -244v-256z" />
<glyph unicode="=" horiz-adv-x="1044" d="M59 389v215h926v-215h-926zM59 764v215h926v-215h-926z" />
<glyph unicode="&#x3e;" horiz-adv-x="1044" d="M59 184v256l684 244l-684 248v256l926 -369v-266z" />
<glyph unicode="?" horiz-adv-x="921" d="M0 1200q86 92 207.5 139t247.5 47q207 0 328.5 -88.5t121.5 -240.5q0 -59 -16 -108.5t-41.5 -83t-56.5 -62.5t-62.5 -51.5t-57 -44t-41.5 -46.5t-16 -53q0 -48 23 -76l-324 -73q-55 75 -55 194q0 62 23.5 112.5t57 81t67.5 54t57.5 42.5t23.5 36q0 43 -79 43 q-41 0 -91.5 -23.5t-87.5 -62.5zM248 195q0 89 65 154t154 65t154 -65t65 -154t-65 -154.5t-154 -65.5t-154 65.5t-65 154.5z" />
<glyph unicode="@" horiz-adv-x="1603" d="M72 500q0 158 67.5 307.5t178.5 258.5t260.5 175t306.5 66q145 0 267.5 -49t204.5 -132t127.5 -193t45.5 -231q0 -106 -30 -195.5t-78 -149.5t-109 -102.5t-122 -61.5t-118 -19q-91 0 -142.5 38t-68.5 97l-4 15q-52 -74 -122.5 -112t-141.5 -38q-151 0 -236.5 100.5 t-85.5 255.5q0 95 37 185.5t98 156.5t142.5 106t167.5 40q84 0 149 -30.5t101 -84.5l18 90h324l-95 -444q-6 -30 -6 -55q0 -78 58 -78q65 0 113 77t48 209q0 236 -147.5 375.5t-402.5 139.5q-140 0 -271.5 -58t-228 -154t-155 -227.5t-58.5 -271.5q0 -157 72.5 -285 t203 -202t291.5 -74q193 0 367 110l49 -69q-200 -129 -426 -129q-183 0 -332 85t-233 232t-84 326zM604 559q0 -60 35 -95.5t94 -35.5q85 0 152 84l39 195q-38 57 -119 57q-90 0 -145.5 -61.5t-55.5 -143.5z" />
<glyph unicode="A" horiz-adv-x="1454" d="M-37 0l504 1366h520l504 -1366h-469l-49 160h-492l-49 -160h-469zM592 520h270l-135 441z" />
<glyph unicode="B" horiz-adv-x="1427" d="M111 0v1366h829q102 0 182.5 -31.5t127.5 -83t71.5 -111.5t24.5 -122q0 -124 -65.5 -207t-168.5 -106q112 -18 186 -111t74 -223q0 -73 -25 -138.5t-73 -118t-127 -83.5t-178 -31h-858zM524 344h332q44 0 70 23.5t26 62.5q0 38 -26.5 63t-69.5 25h-332v-174zM524 862h320 q33 0 57.5 23t24.5 59q0 34 -24.5 56t-57.5 22h-320v-160z" />
<glyph unicode="C" horiz-adv-x="1427" d="M37 682q0 207 98.5 369t269 250t383.5 88q103 0 193.5 -23.5t156 -62t120 -92t90 -107t61.5 -113.5l-356 -166q-27 83 -101.5 141t-163.5 58q-147 0 -239 -98.5t-92 -243.5t92 -243.5t239 -98.5q89 0 163.5 58t101.5 141l356 -164q-26 -59 -61 -112t-89.5 -107t-120 -93 t-156.5 -63.5t-194 -24.5q-213 0 -384 88.5t-269 250.5t-98 368z" />
<glyph unicode="D" horiz-adv-x="1507" d="M111 0v1366h610q217 0 385 -78.5t266 -234.5t98 -369t-98 -369.5t-265.5 -235.5t-383.5 -79h-612zM524 360h197q150 0 240 94.5t90 229.5q0 144 -84 233t-244 89h-199v-646z" />
<glyph unicode="E" horiz-adv-x="1220" d="M111 0v1366h1036v-360h-623v-136h609v-360h-609v-150h623v-360h-1036z" />
<glyph unicode="F" horiz-adv-x="1212" d="M111 0v1366h1036v-360h-623v-136h609v-360h-609v-510h-413z" />
<glyph unicode="G" horiz-adv-x="1486" d="M37 682q0 160 59 294.5t161 224t239 139t292 49.5q95 0 179.5 -20.5t148.5 -54.5t118 -81t91 -96.5t64 -104.5l-349 -178q-33 70 -99.5 120t-152.5 50q-147 0 -239 -98.5t-92 -243.5t92 -243.5t239 -98.5q58 0 119 18t94 43v50h-253v360h665v-559q-251 -277 -625 -277 q-155 0 -292 50t-239 139.5t-161 223.5t-59 294z" />
<glyph unicode="H" horiz-adv-x="1538" d="M111 0v1366h413v-483h490v483h413v-1366h-413v522h-490v-522h-413z" />
<glyph unicode="I" horiz-adv-x="634" d="M111 0v1366h413v-1366h-413z" />
<glyph unicode="J" horiz-adv-x="1019" d="M0 86l168 315q89 -61 176 -61q68 0 110 41.5t42 112.5v872h413v-879q0 -255 -141 -383.5t-387 -128.5q-238 0 -381 111z" />
<glyph unicode="K" horiz-adv-x="1374" d="M111 0v1366h413v-512l359 512h506l-517 -635l539 -731h-504l-307 481l-76 -102v-379h-413z" />
<glyph unicode="L" horiz-adv-x="1097" d="M111 0v1366h413v-1006h518v-360h-931z" />
<glyph unicode="M" horiz-adv-x="1843" d="M111 0v1366h571l240 -655l239 655h572v-1366h-414v821l-305 -821h-185l-305 821v-821h-413z" />
<glyph unicode="N" horiz-adv-x="1536" d="M111 0v1366h426l475 -647v647h413v-1366h-397l-504 692v-692h-413z" />
<glyph unicode="O" horiz-adv-x="1568" d="M37 682q0 155 57.5 287.5t157.5 224t237.5 143.5t294.5 52t295 -52t237.5 -143.5t157.5 -224t58 -287.5t-58 -287.5t-157.5 -224t-237.5 -143.5t-295 -52t-294.5 52t-237.5 143.5t-157.5 224t-57.5 287.5zM457 682q0 -146 90.5 -244t236.5 -98t237 98t91 244t-91 244 t-237 98t-236.5 -98t-90.5 -244z" />
<glyph unicode="P" horiz-adv-x="1355" d="M111 0v1366h729q154 0 267.5 -64.5t168.5 -169.5t55 -235q0 -129 -55 -233.5t-168.5 -169t-267.5 -64.5h-316v-430h-413zM524 791h262q55 0 90 27t35 79q0 53 -35 81t-90 28h-262v-215z" />
<glyph unicode="Q" horiz-adv-x="1568" d="M37 682q0 155 57.5 287.5t157.5 224t237.5 143.5t294.5 52t295 -52t237.5 -143.5t157.5 -224t58 -287.5q0 -272 -170 -463l74 -92l-287 -229l-96 118q-128 -41 -269 -41q-157 0 -294.5 52t-237.5 143.5t-157.5 224t-57.5 287.5zM457 682q0 -146 90.5 -244t236.5 -98h13 l-95 119l287 229l103 -131q20 56 20 125q0 146 -91 244t-237 98t-236.5 -98t-90.5 -244z" />
<glyph unicode="R" horiz-adv-x="1388" d="M111 0v1366h729q154 0 267.5 -64.5t168.5 -169.5t55 -235q0 -84 -22.5 -155.5t-60.5 -121t-78 -82.5t-85 -55l248 -483h-471l-188 430h-150v-430h-413zM524 791h252q57 0 96 27t39 81q0 52 -39 79.5t-96 27.5h-252v-215z" />
<glyph unicode="S" horiz-adv-x="1255" d="M6 193l215 307q82 -79 196 -127.5t245 -48.5q65 0 108 18t43 55q0 21 -26 35t-70 23.5t-101.5 19t-120.5 23.5t-126 33.5t-120.5 53.5t-101.5 79t-70 114.5t-26 155.5q0 88 36.5 168.5t105.5 144t179 101.5t246 38q347 0 580 -190l-221 -293q-86 65 -193.5 100t-208.5 35 q-104 0 -104 -61q0 -20 26 -35t70 -25t101 -20.5t120 -25t126 -34.5t120 -53t101 -76.5t70 -109.5t26 -147q0 -225 -157 -350.5t-433 -125.5q-394 0 -635 218z" />
<glyph unicode="T" horiz-adv-x="1218" d="M37 1006v360h1145v-360h-365v-1006h-414v1006h-366z" />
<glyph unicode="U" horiz-adv-x="1570" d="M111 561v805h419v-791q0 -103 66.5 -169t189.5 -66q121 0 187.5 66t66.5 169v791h420v-803q0 -129 -41 -235.5t-122.5 -186t-211.5 -123t-299 -43.5t-299.5 43.5t-211.5 123t-122.5 185t-41.5 234.5z" />
<glyph unicode="V" horiz-adv-x="1454" d="M-37 1366h469l295 -920l295 920h469l-504 -1366h-520z" />
<glyph unicode="W" horiz-adv-x="1953" d="M-25 1366h463l176 -836l207 836h312l206 -836l174 836h465l-391 -1366h-434l-176 774l-176 -774h-434z" />
<glyph unicode="X" horiz-adv-x="1400" d="M-37 0l457 700l-426 666h485l221 -389l218 389h489l-426 -664l457 -702h-488l-250 418l-249 -418h-488z" />
<glyph unicode="Y" horiz-adv-x="1359" d="M-37 1366h465l254 -461l250 461h465l-508 -823v-543h-414v543z" />
<glyph unicode="Z" horiz-adv-x="1228" d="M74 0v328l520 678h-520v360h1067v-326l-523 -680h537v-360h-1081z" />
<glyph unicode="[" horiz-adv-x="649" d="M111 -389v1778h501v-234h-245v-1311h245v-233h-501z" />
<glyph unicode="\" horiz-adv-x="741" d="M0 1407h256l485 -1448h-256z" />
<glyph unicode="]" horiz-adv-x="649" d="M37 -156h246v1311h-246v234h502v-1778h-502v233z" />
<glyph unicode="^" horiz-adv-x="921" d="M39 682l293 684h264l287 -684h-258l-164 440l-162 -440h-260z" />
<glyph unicode="_" horiz-adv-x="1155" d="M-6 -82h1167v-233h-1167v233z" />
<glyph unicode="`" horiz-adv-x="563" d="M0 1434h317l246 -295h-246z" />
<glyph unicode="a" horiz-adv-x="1144" d="M35 301q0 71 21.5 127t55.5 90.5t80 57t91 31.5t92 9q98 0 179 -29t120 -79v102q0 54 -48.5 88.5t-136.5 34.5q-69 0 -142 -26t-132 -70l-125 227q94 75 219.5 112.5t247.5 37.5q78 0 145 -11.5t131.5 -40.5t109 -74.5t72 -119.5t27.5 -170v-598h-368v94 q-41 -53 -124 -86t-175 -33q-58 0 -116 20t-109 58t-83 103t-32 145zM399 295q0 -42 38 -61t91 -19q45 0 86.5 14t59.5 39v56q-18 25 -59.5 39t-86.5 14q-53 0 -91 -20t-38 -62z" />
<glyph unicode="b" horiz-adv-x="1220" d="M102 0v1366h369v-481q107 129 279 129q189 0 312.5 -139.5t123.5 -378.5q0 -124 -34 -224t-94 -164.5t-138.5 -98.5t-169.5 -34q-164 0 -279 129v-104h-369zM471 367q25 -30 69.5 -48t84.5 -18q78 0 131 52.5t53 142.5q0 89 -53 140.5t-131 51.5q-39 0 -84 -18t-70 -49 v-254z" />
<glyph unicode="c" horiz-adv-x="1028" d="M35 496q0 153 73.5 272t199.5 182.5t282 63.5q154 0 262.5 -56t157.5 -131l-238 -223q-25 38 -67.5 61t-98.5 23q-83 0 -138.5 -50.5t-55.5 -141.5t56 -143t138 -52q55 0 97.5 24.5t68.5 61.5l238 -225q-50 -74 -158.5 -130.5t-261.5 -56.5q-156 0 -282 64t-199.5 183.5 t-73.5 273.5z" />
<glyph unicode="d" horiz-adv-x="1220" d="M35 496q0 239 123.5 378.5t312.5 139.5q172 0 279 -129v481h368v-1366h-368v104q-115 -129 -279 -129q-91 0 -169.5 34t-138.5 98.5t-94 164.5t-34 224zM412 496q0 -89 53 -142t131 -53q39 0 84 18.5t70 49.5v254q-25 30 -69.5 47.5t-84.5 17.5q-78 0 -131 -51.5 t-53 -140.5z" />
<glyph unicode="e" horiz-adv-x="1112" d="M35 496q0 107 39.5 202t109.5 165t171 110.5t218 40.5q224 0 369 -151t145 -406v-76h-671q16 -52 72 -88.5t141 -36.5q48 0 120.5 20t106.5 50l152 -228q-70 -60 -187 -91.5t-235 -31.5q-155 0 -279.5 61.5t-198 181t-73.5 278.5zM412 614h325q-5 19 -14 37t-26.5 38 t-49.5 32t-74 12q-129 0 -161 -119z" />
<glyph unicode="f" horiz-adv-x="759" d="M14 670v319h164v45q0 155 106 253.5t271 98.5q92 0 175.5 -26.5t133.5 -79.5l-133 -205q-33 39 -92 39q-36 0 -64 -22.5t-28 -57.5v-45h201v-319h-201v-670h-369v670h-164z" />
<glyph unicode="g" horiz-adv-x="1218" d="M35 520q0 238 121 366t313 128q169 0 279 -129v104h368v-883q0 -123 -39.5 -216.5t-99.5 -147.5t-143 -87.5t-158 -44.5t-158 -11q-264 0 -450 147l155 262q54 -54 132.5 -81t162.5 -27q38 0 73.5 8.5t73 29t60.5 64t23 104.5v54q-116 -133 -279 -133q-91 0 -168.5 30 t-137.5 89t-94 155t-34 219zM412 520q0 -86 51.5 -127t132.5 -41q38 0 82.5 17.5t69.5 46.5v209q-25 29 -69.5 46t-82.5 17q-81 0 -132.5 -41t-51.5 -127z" />
<glyph unicode="h" horiz-adv-x="1245" d="M104 0v1366h369v-489q50 58 135.5 97.5t204.5 39.5q164 0 247 -85t83 -222v-707h-369v551q0 73 -36.5 105t-106.5 32q-56 0 -91.5 -21.5t-66.5 -56.5v-610h-369z" />
<glyph unicode="i" d="M80 1268q0 86 60.5 146.5t146.5 60.5t146.5 -60.5t60.5 -146.5t-60.5 -146.5t-146.5 -60.5t-146.5 60.5t-60.5 146.5zM102 0v989h369v-989h-369z" />
<glyph unicode="j" d="M-217 -334l88 273q31 -23 55.5 -31t67.5 -8q52 0 80 36.5t28 106.5v946h369v-946q0 -201 -103 -322.5t-309 -121.5q-107 0 -159.5 14t-116.5 53zM80 1268q0 86 60.5 146.5t146.5 60.5t146.5 -60.5t60.5 -146.5t-60.5 -146.5t-146.5 -60.5t-146.5 60.5t-60.5 146.5z" />
<glyph unicode="k" horiz-adv-x="1140" d="M102 0v1366h369v-729l227 352h445l-340 -450l362 -539h-452l-170 319l-72 -96v-223h-369z" />
<glyph unicode="l" d="M102 0v1366h369v-1366h-369z" />
<glyph unicode="m" horiz-adv-x="1837" d="M102 0v989h369v-112q39 50 129 93.5t199 43.5q220 0 284 -174q47 71 141 122.5t206 51.5q142 0 223.5 -74t81.5 -223v-717h-369v578q0 48 -27.5 79t-85.5 31q-84 0 -151 -78v-610h-369v578q0 49 -26.5 79.5t-85.5 30.5q-83 0 -150 -78v-610h-369z" />
<glyph unicode="n" horiz-adv-x="1243" d="M102 0v989h369v-112q50 58 135.5 97.5t204.5 39.5q164 0 247 -87t83 -225v-702h-369v547q0 141 -143 141q-56 0 -91.5 -21.5t-66.5 -56.5v-610h-369z" />
<glyph unicode="o" horiz-adv-x="1181" d="M35 496q0 104 38 197.5t107.5 165t175.5 113.5t234 42t235 -42t176.5 -113.5t107.5 -165t38 -197.5t-38 -198t-107.5 -166t-176.5 -114.5t-235 -42.5t-234 42.5t-175.5 114.5t-107.5 166t-38 198zM414 496q0 -86 46.5 -140.5t129.5 -54.5q84 0 131 54.5t47 140.5 q0 85 -47 138.5t-131 53.5q-82 0 -129 -54t-47 -138z" />
<glyph unicode="p" horiz-adv-x="1218" d="M102 -377v1366h369v-104q110 129 279 129q191 0 312.5 -136t121.5 -382q0 -247 -121.5 -384t-312.5 -137q-166 0 -279 129v-481h-369zM471 369q24 -29 69.5 -48.5t82.5 -19.5q77 0 130.5 52.5t53.5 142.5q0 89 -53.5 140.5t-130.5 51.5q-38 0 -82.5 -18.5t-69.5 -48.5 v-252z" />
<glyph unicode="q" horiz-adv-x="1218" d="M35 496q0 246 121.5 382t312.5 136q169 0 279 -129v104h368v-1366h-368v481q-113 -129 -279 -129q-191 0 -312.5 137t-121.5 384zM412 496q0 -90 53.5 -142.5t130.5 -52.5q37 0 82.5 19.5t69.5 48.5v252q-25 30 -69.5 48.5t-82.5 18.5q-77 0 -130.5 -51.5t-53.5 -140.5z " />
<glyph unicode="r" horiz-adv-x="798" d="M102 0v989h369v-108q47 56 134 96.5t169 40.5v-352q-30 10 -84 10q-65 0 -127.5 -18t-91.5 -52v-606h-369z" />
<glyph unicode="s" horiz-adv-x="1003" d="M18 127l148 248q61 -47 168 -86t188 -39q99 0 99 43q0 16 -24 26.5t-63.5 15t-90 13t-103.5 19t-103.5 34.5t-90 57t-63.5 90.5t-24 131.5q0 67 29.5 127t84 106.5t139.5 73.5t190 27q236 0 428 -127l-135 -240q-50 42 -130 72.5t-161 30.5q-41 0 -66.5 -11.5 t-25.5 -31.5q0 -14 24 -23.5t63.5 -14t90 -14t103 -20.5t103 -36.5t90 -60t63.5 -92t24 -131.5q0 -151 -126.5 -245.5t-342.5 -94.5q-135 0 -270.5 42.5t-215.5 109.5z" />
<glyph unicode="t" horiz-adv-x="782" d="M14 670v319h164v271h369v-271h201v-319h-201v-277q0 -39 23 -65.5t59 -26.5q23 0 44.5 5.5t28.5 12.5l66 -278q-32 -29 -97 -47.5t-153 -18.5q-165 0 -252.5 79t-87.5 233v383h-164z" />
<glyph unicode="u" horiz-adv-x="1241" d="M102 283v706h369v-549q0 -139 143 -139q38 0 70.5 13.5t49 27.5t36.5 37v610h369v-989h-369v111q-51 -57 -136 -96.5t-204 -39.5q-163 0 -245.5 86t-82.5 222z" />
<glyph unicode="v" horiz-adv-x="1095" d="M-31 989h389l189 -565l190 565h389l-383 -989h-391z" />
<glyph unicode="w" horiz-adv-x="1648" d="M-25 989h379l131 -545l174 545h330l172 -545l131 545h381l-287 -989h-401l-162 553l-159 -553h-402z" />
<glyph unicode="x" horiz-adv-x="1067" d="M-25 0l324 508l-303 481h403l133 -231l134 231h403l-303 -481l326 -508h-404l-153 262l-158 -262h-402z" />
<glyph unicode="y" horiz-adv-x="1095" d="M-31 989h389l189 -565l190 565h389l-430 -1112q-32 -83 -78 -138.5t-108 -84.5t-125 -41t-149 -14q-88 0 -144 16l51 328q36 -19 78 -19q112 0 129 39l8 21z" />
<glyph unicode="z" horiz-adv-x="995" d="M68 0v270l348 400h-348v319h852v-258l-357 -412h365v-319h-860z" />
<glyph unicode="{" horiz-adv-x="647" d="M4 403v193q52 0 79.5 36t27.5 95v283q0 172 111 275.5t267 103.5h123v-234h-123q-53 0 -87.5 -38.5t-34.5 -104.5v-326q0 -145 -95 -186q95 -41 95 -187v-323q0 -65 35 -105.5t87 -40.5h123v-233h-123q-156 0 -267 102.5t-111 274.5v284q0 59 -27.5 95t-79.5 36z" />
<glyph unicode="|" horiz-adv-x="454" d="M111 -41v1448h233v-1448h-233z" />
<glyph unicode="}" horiz-adv-x="647" d="M35 -156h123q52 0 87.5 40.5t35.5 105.5v323q0 147 94 187q-94 40 -94 186v326q0 66 -35 104.5t-88 38.5h-123v234h123q156 0 267.5 -103.5t111.5 -275.5v-283q0 -59 27 -95t79 -36v-193q-52 0 -79 -36t-27 -95v-284q0 -87 -31 -159t-84 -119t-121 -73t-143 -26h-123v233 z" />
<glyph unicode="~" horiz-adv-x="1060" d="M51 848q6 82 16.5 148t34 138t57.5 120.5t90.5 80t129.5 31.5q56 0 99 -18.5t67.5 -48t41.5 -65t27 -71t19 -65t21.5 -48t29.5 -18.5q68 0 88 334l238 -29q-5 -68 -13 -123t-22.5 -117.5t-38.5 -109t-57.5 -86t-83 -60t-111.5 -20.5q-56 0 -99 18.5t-67.5 47.5 t-41.5 64.5t-27 71t-19 64.5t-21.5 47.5t-29.5 18.5q-15 0 -27.5 -15t-21 -44t-15 -58.5t-11 -73t-6.5 -72t-5 -69.5z" />
<glyph unicode="&#xa2;" horiz-adv-x="1028" d="M35 496q0 199 120.5 335.5t313.5 172.5v153h258v-158q101 -22 174 -69.5t109 -102.5l-238 -223q-25 38 -67.5 61t-98.5 23q-83 0 -138.5 -50.5t-55.5 -141.5t56 -143t138 -52q55 0 97.5 24.5t68.5 61.5l238 -225q-37 -54 -110 -102.5t-173 -69.5v-195h-258v191 q-193 34 -313.5 171.5t-120.5 338.5z" />
<glyph unicode="&#xa3;" horiz-adv-x="1189" d="M53 553v223h78q-45 85 -45 166q0 85 33.5 159t88 125t124.5 88t144 54.5t145 17.5q204 0 334.5 -63.5t203.5 -202.5l-328 -188q-22 62 -63.5 92.5t-93.5 30.5q-60 0 -97.5 -35t-37.5 -86q0 -58 45 -158h274v-223h-223q-3 -48 -33 -99t-72 -75q37 12 88 12q57 0 125 -25.5 t109 -25.5q106 0 156 68l157 -326q-100 -107 -327 -107q-75 0 -148.5 21.5t-131.5 43t-95 21.5q-104 0 -234 -75l-135 270q174 95 174 197q0 41 -18 100h-197z" />
<glyph unicode="&#xa5;" horiz-adv-x="1359" d="M-37 1366h465l254 -461l250 461h465l-375 -608h291v-215h-424v-109h424v-215h-424v-219h-414v219h-424v215h424v109h-424v215h289z" />
<glyph unicode="&#xa8;" horiz-adv-x="651" d="M-78 1266q0 76 53 129t129 53q77 0 130 -53t53 -129t-53.5 -129.5t-129.5 -53.5t-129 53t-53 130zM365 1266q0 76 53.5 129t128.5 53q77 0 130.5 -53t53.5 -129t-53.5 -129.5t-130.5 -53.5q-75 0 -128.5 53.5t-53.5 129.5z" />
<glyph unicode="&#xa9;" horiz-adv-x="1593" d="M90 684q0 192 95 355t258 257.5t354 94.5q144 0 275 -56t225 -150.5t150 -225.5t56 -275q0 -143 -56 -274t-150 -226t-225 -151t-275 -56q-191 0 -354 95t-258 258t-95 354zM176 684q0 -125 49.5 -240t133 -198.5t198.5 -133t240 -49.5q168 0 311 84t226 227t83 310 q0 168 -83 311t-226 226.5t-311 83.5q-167 0 -310.5 -83.5t-227 -226.5t-83.5 -311zM387 686q0 185 123.5 305.5t302.5 120.5q93 0 172 -37t135 -102l-76 -76q-41 55 -101 87t-130 32q-132 0 -222.5 -93.5t-90.5 -236.5q0 -142 91 -238t222 -96q71 0 132 32.5t102 88.5 l77 -74q-57 -67 -137.5 -105t-173.5 -38q-179 0 -302.5 122.5t-123.5 307.5z" />
<glyph unicode="&#xab;" horiz-adv-x="1259" d="M61 498l328 362h328l-328 -362l328 -369h-328zM543 498l327 362h328l-328 -362l328 -369h-328z" />
<glyph unicode="&#xad;" horiz-adv-x="614" d="M61 342v307h492v-307h-492z" />
<glyph unicode="&#xae;" horiz-adv-x="1011" d="M72 952q0 181 127 307.5t307 126.5q119 0 219 -57.5t157.5 -157.5t57.5 -219q0 -180 -126.5 -307t-307.5 -127q-180 0 -307 127t-127 307zM143 952q0 -150 106.5 -256t256.5 -106t256 106t106 256q0 152 -105.5 257.5t-256.5 105.5t-257 -105.5t-106 -257.5zM338 702v498 h203q66 0 117 -42.5t51 -108.5q0 -72 -46 -110t-81 -38l133 -199h-92l-129 197h-80v-197h-76zM414 965h127q34 0 62 24t28 60q0 39 -27.5 63.5t-62.5 24.5h-127v-172z" />
<glyph unicode="&#xb4;" horiz-adv-x="563" d="M0 1139l246 295h317l-317 -295h-246z" />
<glyph unicode="&#xb8;" horiz-adv-x="485" d="M0 -340l63 131q87 -61 170 -61q36 0 61 12t25 37q0 35 -43 35q-32 0 -53 -25l-121 70l62 164h164l-52 -119q30 18 70 18q57 0 98 -42t41 -107q0 -85 -69.5 -134t-171.5 -49q-77 0 -142.5 20t-101.5 50z" />
<glyph unicode="&#xbb;" horiz-adv-x="1259" d="M61 129l328 369l-328 362h328l328 -362l-328 -369h-328zM543 129l327 369l-327 362h327l328 -362l-328 -369h-327z" />
<glyph unicode="&#xc1;" horiz-adv-x="1454" d="M-37 0l504 1366h520l504 -1366h-469l-49 160h-492l-49 -160h-469zM530 1491l246 295h318l-318 -295h-246zM592 520h270l-135 441z" />
<glyph unicode="&#xc4;" horiz-adv-x="1454" d="M-37 0l504 1366h520l504 -1366h-469l-49 160h-492l-49 -160h-469zM324 1628q0 76 53 129t129 53t129 -53t53 -129t-53 -129t-129 -53t-129 53t-53 129zM592 520h270l-135 441zM766 1628q0 76 53.5 129t128.5 53q77 0 131 -53t54 -129t-54 -129t-131 -53q-75 0 -128.5 53 t-53.5 129z" />
<glyph unicode="&#xc5;" horiz-adv-x="1454" d="M-37 0l504 1366h520l504 -1366h-469l-49 160h-492l-49 -160h-469zM500 1649q0 94 67.5 161.5t161.5 67.5q93 0 159 -67.5t66 -161.5t-66 -162t-159 -68q-94 0 -161.5 68t-67.5 162zM592 520h270l-135 441zM657 1649q0 -29 21.5 -50.5t50.5 -21.5t49.5 21.5t20.5 50.5 t-20.5 50t-49.5 21t-50.5 -21t-21.5 -50z" />
<glyph unicode="&#xc6;" horiz-adv-x="2025" d="M-51 0l809 1366h1206v-360h-623v-136h609v-360h-609v-150h623v-360h-1036v160h-424l-84 -160h-471zM696 520h232v441z" />
<glyph unicode="&#xc9;" horiz-adv-x="1220" d="M111 0v1366h1036v-360h-623v-136h609v-360h-609v-150h623v-360h-1036zM430 1491l246 295h317l-317 -295h-246z" />
<glyph unicode="&#xcd;" horiz-adv-x="634" d="M111 0v1366h413v-1366h-413zM125 1491l246 295h317l-317 -295h-246z" />
<glyph unicode="&#xd3;" horiz-adv-x="1568" d="M37 682q0 155 57.5 287.5t157.5 224t237.5 143.5t294.5 52t295 -52t237.5 -143.5t157.5 -224t58 -287.5t-58 -287.5t-157.5 -224t-237.5 -143.5t-295 -52t-294.5 52t-237.5 143.5t-157.5 224t-57.5 287.5zM457 682q0 -146 90.5 -244t236.5 -98t237 98t91 244t-91 244 t-237 98t-236.5 -98t-90.5 -244zM588 1491l246 295h317l-317 -295h-246z" />
<glyph unicode="&#xd5;" horiz-adv-x="1568" d="M37 682q0 155 57.5 287.5t157.5 224t237.5 143.5t294.5 52t295 -52t237.5 -143.5t157.5 -224t58 -287.5t-58 -287.5t-157.5 -224t-237.5 -143.5t-295 -52t-294.5 52t-237.5 143.5t-157.5 224t-57.5 287.5zM436 1499q0 275 242 275q43 0 80.5 -14t59 -30t44.5 -30t41 -14 q21 0 35 19t14 56h183q0 -274 -242 -274q-55 0 -99 22t-74.5 44t-51.5 22t-35.5 -19.5t-14.5 -56.5h-182zM457 682q0 -146 90.5 -244t236.5 -98t237 98t91 244t-91 244t-237 98t-236.5 -98t-90.5 -244z" />
<glyph unicode="&#xd6;" horiz-adv-x="1568" d="M37 682q0 155 57.5 287.5t157.5 224t237.5 143.5t294.5 52t295 -52t237.5 -143.5t157.5 -224t58 -287.5t-58 -287.5t-157.5 -224t-237.5 -143.5t-295 -52t-294.5 52t-237.5 143.5t-157.5 224t-57.5 287.5zM387 1628q0 76 52.5 129t129.5 53t130 -53t53 -129t-53 -129 t-130 -53t-129.5 53t-52.5 129zM457 682q0 -146 90.5 -244t236.5 -98t237 98t91 244t-91 244t-237 98t-236.5 -98t-90.5 -244zM829 1628q0 76 54 129t129 53q77 0 130.5 -53t53.5 -129t-53.5 -129t-130.5 -53q-75 0 -129 53t-54 129z" />
<glyph unicode="&#xd8;" horiz-adv-x="1568" d="M37 0l178 209q-178 191 -178 473q0 155 57.5 287.5t157.5 224t237.5 143.5t294.5 52q190 0 365 -82l51 59h283l-156 -184q205 -199 205 -500q0 -155 -58 -287.5t-157.5 -224t-237.5 -143.5t-295 -52q-225 0 -401 101l-64 -76h-282zM457 682q0 -86 30 -154l406 478 q-49 18 -109 18q-146 0 -236.5 -98t-90.5 -244zM637 373q71 -33 147 -33q146 0 237 98t91 244q0 106 -51 188z" />
<glyph unicode="&#xda;" horiz-adv-x="1570" d="M111 561v805h419v-791q0 -103 66.5 -169t189.5 -66q121 0 187.5 66t66.5 169v791h420v-803q0 -129 -41 -235.5t-122.5 -186t-211.5 -123t-299 -43.5t-299.5 43.5t-211.5 123t-122.5 185t-41.5 234.5zM592 1491l246 295h317l-317 -295h-246z" />
<glyph unicode="&#xdc;" horiz-adv-x="1570" d="M111 561v805h419v-791q0 -103 66.5 -169t189.5 -66q121 0 187.5 66t66.5 169v791h420v-803q0 -129 -41 -235.5t-122.5 -186t-211.5 -123t-299 -43.5t-299.5 43.5t-211.5 123t-122.5 185t-41.5 234.5zM389 1628q0 76 52.5 129t129.5 53t130 -53t53 -129t-53 -129t-130 -53 t-129.5 53t-52.5 129zM831 1628q0 76 54 129t129 53q77 0 130.5 -53t53.5 -129t-53.5 -129t-130.5 -53q-75 0 -129 53t-54 129z" />
<glyph unicode="&#xdd;" horiz-adv-x="1359" d="M-37 1366h465l254 -461l250 461h465l-508 -823v-543h-414v543zM485 1491l246 295h318l-318 -295h-246z" />
<glyph unicode="&#xdf;" horiz-adv-x="1409" d="M104 0v924q0 94 36.5 177t104.5 147t173 101t233 37q126 0 235.5 -39t180 -116.5t70.5 -177.5q0 -66 -24 -119.5t-58 -86.5t-68 -59t-58 -48.5t-24 -43.5q0 -12 20.5 -20t54.5 -12t77 -12.5t87.5 -19.5t87.5 -35.5t77 -59t54.5 -91.5t20.5 -131q0 -154 -124.5 -247 t-317.5 -93q-249 0 -424 148l141 252q40 -51 123.5 -88t159.5 -37q42 0 66 12.5t24 30.5t-26.5 29t-68.5 19.5t-93.5 19t-102.5 32.5t-93 55.5t-68.5 93t-26.5 138.5q0 57 21 105.5t51 79.5t60.5 55.5t51.5 43t21 31.5q0 32 -32.5 49t-82.5 17q-77 0 -123.5 -36t-46.5 -101 v-924h-369z" />
<glyph unicode="&#xe1;" horiz-adv-x="1144" d="M35 301q0 71 21.5 127t55.5 90.5t80 57t91 31.5t92 9q98 0 179 -29t120 -79v102q0 54 -48.5 88.5t-136.5 34.5q-69 0 -142 -26t-132 -70l-125 227q94 75 219.5 112.5t247.5 37.5q78 0 145 -11.5t131.5 -40.5t109 -74.5t72 -119.5t27.5 -170v-598h-368v94 q-41 -53 -124 -86t-175 -33q-58 0 -116 20t-109 58t-83 103t-32 145zM375 1139l246 295h317l-317 -295h-246zM399 295q0 -42 38 -61t91 -19q45 0 86.5 14t59.5 39v56q-18 25 -59.5 39t-86.5 14q-53 0 -91 -20t-38 -62z" />
<glyph unicode="&#xe4;" horiz-adv-x="1144" d="M35 301q0 71 21.5 127t55.5 90.5t80 57t91 31.5t92 9q98 0 179 -29t120 -79v102q0 54 -48.5 88.5t-136.5 34.5q-69 0 -142 -26t-132 -70l-125 227q94 75 219.5 112.5t247.5 37.5q78 0 145 -11.5t131.5 -40.5t109 -74.5t72 -119.5t27.5 -170v-598h-368v94 q-41 -53 -124 -86t-175 -33q-58 0 -116 20t-109 58t-83 103t-32 145zM156 1266q0 76 53 129t129 53t129 -53t53 -129q0 -77 -53 -130t-129 -53t-129 53t-53 130zM399 295q0 -42 38 -61t91 -19q45 0 86.5 14t59.5 39v56q-18 25 -59.5 39t-86.5 14q-53 0 -91 -20t-38 -62z M598 1266q0 76 53.5 129t128.5 53q77 0 131 -53t54 -129t-54 -129.5t-131 -53.5q-75 0 -128.5 53.5t-53.5 129.5z" />
<glyph unicode="&#xe5;" horiz-adv-x="1144" d="M35 301q0 71 21.5 127t55.5 90.5t80 57t91 31.5t92 9q98 0 179 -29t120 -79v102q0 54 -48.5 88.5t-136.5 34.5q-69 0 -142 -26t-132 -70l-125 227q94 75 219.5 112.5t247.5 37.5q78 0 145 -11.5t131.5 -40.5t109 -74.5t72 -119.5t27.5 -170v-598h-368v94 q-41 -53 -124 -86t-175 -33q-58 0 -116 20t-109 58t-83 103t-32 145zM338 1323q0 94 67.5 161.5t161.5 67.5q93 0 159.5 -67.5t66.5 -161.5t-66.5 -161.5t-159.5 -67.5q-94 0 -161.5 67.5t-67.5 161.5zM399 295q0 -42 38 -61t91 -19q45 0 86.5 14t59.5 39v56 q-18 25 -59.5 39t-86.5 14q-53 0 -91 -20t-38 -62zM496 1323q0 -29 21 -50.5t50 -21.5t49.5 21.5t20.5 50.5t-20.5 50.5t-49.5 21.5t-50 -21.5t-21 -50.5z" />
<glyph unicode="&#xe6;" horiz-adv-x="1742" d="M35 295q0 157 97.5 239t242.5 82q93 0 175 -28t124 -78v100q0 53 -48.5 87t-136.5 34q-70 0 -143 -25.5t-131 -70.5l-125 229q94 75 219.5 112.5t247.5 37.5q118 0 198.5 -26t141.5 -81q61 54 134 80.5t194 26.5q101 0 191 -38.5t157 -109t106 -176.5t39 -233v-76h-671 q24 -49 78.5 -83t144.5 -34q57 0 114.5 19.5t94.5 50.5l159 -236q-70 -60 -186.5 -91.5t-234.5 -31.5t-228.5 40.5t-179.5 113.5q-70 -70 -178 -112t-223 -42q-70 0 -134.5 19t-119 56t-87 100.5t-32.5 144.5zM399 295q0 -42 38 -61t91 -19q46 0 91 15.5t63 41.5 q-8 20 -8 50q-18 25 -59.5 40t-86.5 15q-52 0 -90.5 -20.5t-38.5 -61.5zM1042 614h326q-5 19 -14 37t-26.5 38t-49.5 32t-74 12q-74 0 -112 -36t-50 -83z" />
<glyph unicode="&#xe9;" horiz-adv-x="1112" d="M35 496q0 107 39.5 202t109.5 165t171 110.5t218 40.5q224 0 369 -151t145 -406v-76h-671q16 -52 72 -88.5t141 -36.5q48 0 120.5 20t106.5 50l152 -228q-70 -60 -187 -91.5t-235 -31.5q-155 0 -279.5 61.5t-198 181t-73.5 278.5zM379 1139l246 295h317l-317 -295h-246z M412 614h325q-5 19 -14 37t-26.5 38t-49.5 32t-74 12q-129 0 -161 -119z" />
<glyph unicode="&#xed;" d="M88 1139l246 295h317l-317 -295h-246zM102 0v989h369v-989h-369z" />
<glyph unicode="&#xf3;" horiz-adv-x="1181" d="M35 496q0 104 38 197.5t107.5 165t175.5 113.5t234 42t235 -42t176.5 -113.5t107.5 -165t38 -197.5t-38 -198t-107.5 -166t-176.5 -114.5t-235 -42.5t-234 42.5t-175.5 114.5t-107.5 166t-38 198zM391 1139l246 295h317l-317 -295h-246zM414 496q0 -86 46.5 -140.5 t129.5 -54.5q84 0 131 54.5t47 140.5q0 85 -47 138.5t-131 53.5q-82 0 -129 -54t-47 -138z" />
<glyph unicode="&#xf5;" horiz-adv-x="1181" d="M35 496q0 104 38 197.5t107.5 165t175.5 113.5t234 42t235 -42t176.5 -113.5t107.5 -165t38 -197.5t-38 -198t-107.5 -166t-176.5 -114.5t-235 -42.5t-234 42.5t-175.5 114.5t-107.5 166t-38 198zM242 1147q0 274 241 274q43 0 81 -13.5t59.5 -30.5t44.5 -30.5t41 -13.5 q21 0 35 19.5t14 56.5h182q0 -274 -242 -274q-43 0 -80.5 13.5t-59 30.5t-44.5 30.5t-41 13.5q-21 0 -35 -19.5t-14 -56.5h-182zM414 496q0 -86 46.5 -140.5t129.5 -54.5q84 0 131 54.5t47 140.5q0 85 -47 138.5t-131 53.5q-82 0 -129 -54t-47 -138z" />
<glyph unicode="&#xf6;" horiz-adv-x="1181" d="M35 496q0 104 38 197.5t107.5 165t175.5 113.5t234 42t235 -42t176.5 -113.5t107.5 -165t38 -197.5t-38 -198t-107.5 -166t-176.5 -114.5t-235 -42.5t-234 42.5t-175.5 114.5t-107.5 166t-38 198zM186 1266q0 76 53 129t130 53t129.5 -53t52.5 -129q0 -77 -53 -130 t-129 -53q-77 0 -130 53.5t-53 129.5zM414 496q0 -86 46.5 -140.5t129.5 -54.5q84 0 131 54.5t47 140.5q0 85 -47 138.5t-131 53.5q-82 0 -129 -54t-47 -138zM629 1266q0 76 53.5 129t128.5 53q77 0 130.5 -53t53.5 -129t-53.5 -129.5t-130.5 -53.5q-75 0 -128.5 53.5 t-53.5 129.5z" />
<glyph unicode="&#xf8;" horiz-adv-x="1181" d="M35 0l131 145q-131 143 -131 351q0 104 38 197.5t107.5 165t175.5 113.5t234 42q168 0 299 -72l43 47h215l-133 -145q133 -145 133 -348q0 -104 -38 -198t-107.5 -166t-176.5 -114.5t-235 -42.5q-172 0 -301 74l-45 -49h-209zM414 496q0 -41 8 -68l227 252q-24 8 -59 8 q-82 0 -129 -54t-47 -138zM526 311q30 -10 64 -10q84 0 131 54.5t47 140.5q0 34 -10 67z" />
<glyph unicode="&#xfa;" horiz-adv-x="1241" d="M102 283v706h369v-549q0 -139 143 -139q38 0 70.5 13.5t49 27.5t36.5 37v610h369v-989h-369v111q-51 -57 -136 -96.5t-204 -39.5q-163 0 -245.5 86t-82.5 222zM424 1139l246 295h317l-317 -295h-246z" />
<glyph unicode="&#xfc;" horiz-adv-x="1241" d="M102 283v706h369v-549q0 -139 143 -139q38 0 70.5 13.5t49 27.5t36.5 37v610h369v-989h-369v111q-51 -57 -136 -96.5t-204 -39.5q-163 0 -245.5 86t-82.5 222zM221 1266q0 76 52.5 129t129.5 53t130 -53t53 -129t-53 -129.5t-130 -53.5q-76 0 -129 53t-53 130zM664 1266 q0 76 53.5 129t128.5 53q77 0 130.5 -53t53.5 -129t-53.5 -129.5t-130.5 -53.5q-75 0 -128.5 53.5t-53.5 129.5z" />
<glyph unicode="&#xfd;" horiz-adv-x="1095" d="M-31 989h389l189 -565l190 565h389l-430 -1112q-32 -83 -78 -138.5t-108 -84.5t-125 -41t-149 -14q-88 0 -144 16l51 328q36 -19 78 -19q112 0 129 39l8 21zM348 1139l246 295h317l-317 -295h-246z" />
<glyph unicode="&#x100;" horiz-adv-x="1454" d="M-37 0l504 1366h520l504 -1366h-469l-49 160h-492l-49 -160h-469zM354 1526v198h744v-198h-744zM592 520h270l-135 441z" />
<glyph unicode="&#x101;" horiz-adv-x="1144" d="M35 301q0 71 21.5 127t55.5 90.5t80 57t91 31.5t92 9q98 0 179 -29t120 -79v102q0 54 -48.5 88.5t-136.5 34.5q-69 0 -142 -26t-132 -70l-125 227q94 75 219.5 112.5t247.5 37.5q78 0 145 -11.5t131.5 -40.5t109 -74.5t72 -119.5t27.5 -170v-598h-368v94 q-41 -53 -124 -86t-175 -33q-58 0 -116 20t-109 58t-83 103t-32 145zM193 1169v199h743v-199h-743zM399 295q0 -42 38 -61t91 -19q45 0 86.5 14t59.5 39v56q-18 25 -59.5 39t-86.5 14q-53 0 -91 -20t-38 -62z" />
<glyph unicode="&#x104;" horiz-adv-x="1454" d="M-37 0l504 1366h520l504 -1366q-133 -68 -133 -172q0 -37 18 -53.5t41 -16.5q50 0 72 58l135 -88q-72 -109 -207 -109q-96 0 -160.5 48t-64.5 145q0 108 80 188h-250l-49 160h-492l-49 -160h-469zM592 520h270l-135 441z" />
<glyph unicode="&#x105;" horiz-adv-x="1144" d="M35 301q0 71 21.5 127t55.5 90.5t80 57t91 31.5t92 9q98 0 179 -29t120 -79v102q0 54 -48.5 88.5t-136.5 34.5q-69 0 -142 -26t-132 -70l-125 227q94 75 219.5 112.5t247.5 37.5q78 0 145 -11.5t131.5 -40.5t109 -74.5t72 -119.5t27.5 -170v-598q-133 -68 -133 -172 q0 -37 18.5 -53.5t41.5 -16.5q49 0 71 58l136 -88q-72 -109 -207 -109q-96 0 -161 48.5t-65 144.5q0 108 80 188h-149v94q-41 -53 -124 -86t-175 -33q-58 0 -116 20t-109 58t-83 103t-32 145zM399 295q0 -42 38 -61t91 -19q45 0 86.5 14t59.5 39v56q-18 25 -59.5 39 t-86.5 14q-53 0 -91 -20t-38 -62z" />
<glyph unicode="&#x10c;" horiz-adv-x="1427" d="M37 682q0 207 98.5 369t269 250t383.5 88q103 0 193.5 -23.5t156 -62t120 -92t90 -107t61.5 -113.5l-356 -166q-27 83 -101.5 141t-163.5 58q-147 0 -239 -98.5t-92 -243.5t92 -243.5t239 -98.5q89 0 163.5 58t101.5 141l356 -164q-26 -59 -61 -112t-89.5 -107t-120 -93 t-156.5 -63.5t-194 -24.5q-213 0 -384 88.5t-269 250.5t-98 368zM442 1786h215l131 -150l125 150h215l-180 -295h-319z" />
<glyph unicode="&#x10d;" horiz-adv-x="1028" d="M35 496q0 153 73.5 272t199.5 182.5t282 63.5q154 0 262.5 -56t157.5 -131l-238 -223q-25 38 -67.5 61t-98.5 23q-83 0 -138.5 -50.5t-55.5 -141.5t56 -143t138 -52q55 0 97.5 24.5t68.5 61.5l238 -225q-50 -74 -158.5 -130.5t-261.5 -56.5q-156 0 -282 64t-199.5 183.5 t-73.5 273.5zM268 1434h215l131 -150l125 150h215l-180 -295h-319z" />
<glyph unicode="&#x112;" horiz-adv-x="1220" d="M111 0v1366h1036v-360h-623v-136h609v-360h-609v-150h623v-360h-1036zM250 1526v198h743v-198h-743z" />
<glyph unicode="&#x113;" horiz-adv-x="1112" d="M35 496q0 107 39.5 202t109.5 165t171 110.5t218 40.5q224 0 369 -151t145 -406v-76h-671q16 -52 72 -88.5t141 -36.5q48 0 120.5 20t106.5 50l152 -228q-70 -60 -187 -91.5t-235 -31.5q-155 0 -279.5 61.5t-198 181t-73.5 278.5zM188 1169v199h744v-199h-744zM412 614 h325q-5 19 -14 37t-26.5 38t-49.5 32t-74 12q-129 0 -161 -119z" />
<glyph unicode="&#x116;" horiz-adv-x="1220" d="M111 0v1366h1036v-360h-623v-136h609v-360h-609v-150h623v-360h-1036zM444 1628q0 75 54 128.5t129 53.5q74 0 127 -53.5t53 -128.5t-53 -128.5t-127 -53.5q-75 0 -129 53.5t-54 128.5z" />
<glyph unicode="&#x117;" horiz-adv-x="1112" d="M35 496q0 107 39.5 202t109.5 165t171 110.5t218 40.5q224 0 369 -151t145 -406v-76h-671q16 -52 72 -88.5t141 -36.5q48 0 120.5 20t106.5 50l152 -228q-70 -60 -187 -91.5t-235 -31.5q-155 0 -279.5 61.5t-198 181t-73.5 278.5zM395 1268q0 75 54 128.5t129 53.5 q74 0 127 -53.5t53 -128.5t-53 -129t-127 -54q-75 0 -129 54t-54 129zM412 614h325q-5 19 -14 37t-26.5 38t-49.5 32t-74 12q-129 0 -161 -119z" />
<glyph unicode="&#x118;" horiz-adv-x="1220" d="M111 0v1366h1036v-360h-623v-136h609v-360h-609v-150h623v-360q-133 -68 -133 -172q0 -37 18 -53.5t41 -16.5q50 0 72 58l135 -88q-72 -109 -207 -109q-96 0 -160.5 48t-64.5 145q0 108 80 188h-817z" />
<glyph unicode="&#x119;" horiz-adv-x="1112" d="M35 496q0 107 39.5 202t109.5 165t171 110.5t218 40.5q224 0 369 -151t145 -406v-76h-671q16 -52 72 -88.5t141 -36.5q48 0 120.5 20t106.5 50l152 -228q-83 -71 -222 -100q-129 -69 -129 -170q0 -37 18.5 -53.5t41.5 -16.5q49 0 71 58l136 -88q-72 -109 -207 -109 q-96 0 -160.5 48t-64.5 145q0 93 57 165q-147 7 -262.5 70t-183.5 179.5t-68 269.5zM412 614h325q-5 19 -14 37t-26.5 38t-49.5 32t-74 12q-129 0 -161 -119z" />
<glyph unicode="&#x122;" horiz-adv-x="1486" d="M37 682q0 160 59 294.5t161 224t239 139t292 49.5q95 0 179.5 -20.5t148.5 -54.5t118 -81t91 -96.5t64 -104.5l-349 -178q-33 70 -99.5 120t-152.5 50q-147 0 -239 -98.5t-92 -243.5t92 -243.5t239 -98.5q58 0 119 18t94 43v50h-253v360h665v-559q-251 -277 -625 -277 q-155 0 -292 50t-239 139.5t-161 223.5t-59 294zM629 -248q0 67 47 114.5t112 47.5q73 0 126 -54t53 -145q0 -99 -51 -186.5t-142 -151.5l-112 91q40 19 83 63t56 86q-9 -6 -39 -6q-57 0 -95 39t-38 102z" />
<glyph unicode="&#x123;" horiz-adv-x="1218" d="M35 520q0 238 121 366t313 128q169 0 279 -129v104h368v-883q0 -123 -39.5 -216.5t-99.5 -147.5t-143 -87.5t-158 -44.5t-158 -11q-264 0 -450 147l155 262q54 -54 132.5 -81t162.5 -27q38 0 73.5 8.5t73 29t60.5 64t23 104.5v54q-116 -133 -279 -133q-91 0 -168.5 30 t-137.5 89t-94 155t-34 219zM412 520q0 -86 51.5 -127t132.5 -41q38 0 82.5 17.5t69.5 46.5v209q-25 29 -69.5 46t-82.5 17q-81 0 -132.5 -41t-51.5 -127zM436 1315q0 219 185 348l112 -90q-36 -12 -82.5 -53.5t-54.5 -79.5q2 0 6.5 1t7.5 1q59 0 106.5 -44t47.5 -108 q0 -67 -48 -115.5t-116 -48.5q-25 0 -51 8.5t-52.5 27.5t-43.5 59t-17 94z" />
<glyph unicode="&#x12a;" horiz-adv-x="634" d="M-53 1526v198h743v-198h-743zM111 0v1366h413v-1366h-413z" />
<glyph unicode="&#x12b;" d="M-84 1169v199h743v-199h-743zM102 0v989h369v-989h-369z" />
<glyph unicode="&#x12e;" horiz-adv-x="634" d="M111 0v1366h413v-1366q-133 -68 -133 -172q0 -37 18.5 -53.5t41.5 -16.5q49 0 71 58l135 -88q-72 -109 -206 -109q-96 0 -161 48.5t-65 144.5q0 108 80 188h-194z" />
<glyph unicode="&#x12f;" d="M80 1268q0 86 60.5 146.5t146.5 60.5t146.5 -60.5t60.5 -146.5t-60.5 -146.5t-146.5 -60.5t-146.5 60.5t-60.5 146.5zM102 0v989h369v-989q-133 -68 -133 -172q0 -37 18 -53.5t41 -16.5q50 0 72 58l135 -88q-72 -109 -207 -109q-96 0 -160.5 48t-64.5 145q0 108 80 188 h-150z" />
<glyph unicode="&#x136;" horiz-adv-x="1411" d="M111 0v1366h413v-512l359 512h506l-517 -635l539 -731h-504l-307 481l-76 -102v-379h-413zM543 -248q0 67 47 114.5t112 47.5q73 0 126 -54t53 -145q0 -99 -51 -186.5t-142 -151.5l-113 91q40 19 83.5 63t56.5 86q-9 -6 -39 -6q-57 0 -95 39t-38 102z" />
<glyph unicode="&#x137;" horiz-adv-x="1140" d="M102 0v1366h369v-729l227 352h445l-340 -450l362 -539h-452l-170 319l-72 -96v-223h-369zM408 -248q0 67 47 114.5t112 47.5q73 0 125.5 -54t52.5 -145q0 -100 -50.5 -187t-141.5 -151l-113 91q40 19 83.5 63t56.5 86q-9 -6 -39 -6q-57 0 -95 39t-38 102z" />
<glyph unicode="&#x13b;" horiz-adv-x="1097" d="M111 0v1366h413v-1006h518v-360h-931zM377 -248q0 67 47.5 114.5t112.5 47.5q73 0 125.5 -54t52.5 -145q0 -99 -51 -186.5t-142 -151.5l-112 91q40 19 83 63t56 86q-9 -6 -39 -6q-57 0 -95 39t-38 102z" />
<glyph unicode="&#x13c;" d="M102 0v1366h369v-1366h-369zM125 -248q0 67 47.5 114.5t112.5 47.5q73 0 125.5 -54t52.5 -145q0 -99 -51 -186.5t-142 -151.5l-112 91q40 19 83 63t56 86q-9 -6 -39 -6q-57 0 -95 39t-38 102z" />
<glyph unicode="&#x145;" horiz-adv-x="1536" d="M111 0v1366h426l475 -647v647h413v-1366h-397l-504 692v-692h-413zM604 -248q0 67 47.5 114.5t112.5 47.5q73 0 125.5 -54t52.5 -145q0 -100 -50.5 -187t-141.5 -151l-113 91q40 19 83 63t56 86q-9 -6 -39 -6q-57 0 -95 39t-38 102z" />
<glyph unicode="&#x146;" horiz-adv-x="1243" d="M123 0v989h369v-112q50 58 135 97.5t204 39.5q164 0 247 -87t83 -225v-702h-368v547q0 141 -144 141q-39 0 -71.5 -13.5t-49 -27.5t-36.5 -37v-610h-369zM459 -248q0 67 47 114.5t112 47.5q73 0 126 -54t53 -145q0 -99 -51 -186.5t-142 -151.5l-112 91q40 19 83 63t56 86 q-9 -6 -39 -6q-57 0 -95 39t-38 102z" />
<glyph unicode="&#x14c;" horiz-adv-x="1568" d="M37 682q0 155 57.5 287.5t157.5 224t237.5 143.5t294.5 52t295 -52t237.5 -143.5t157.5 -224t58 -287.5t-58 -287.5t-157.5 -224t-237.5 -143.5t-295 -52t-294.5 52t-237.5 143.5t-157.5 224t-57.5 287.5zM412 1526v198h743v-198h-743zM457 682q0 -146 90.5 -244 t236.5 -98t237 98t91 244t-91 244t-237 98t-236.5 -98t-90.5 -244z" />
<glyph unicode="&#x14d;" horiz-adv-x="1181" d="M35 496q0 104 38 197.5t107.5 165t175.5 113.5t234 42t235 -42t176.5 -113.5t107.5 -165t38 -197.5t-38 -198t-107.5 -166t-176.5 -114.5t-235 -42.5t-234 42.5t-175.5 114.5t-107.5 166t-38 198zM219 1169v199h744v-199h-744zM414 496q0 -86 46.5 -140.5t129.5 -54.5 q84 0 131 54.5t47 140.5q0 85 -47 138.5t-131 53.5q-82 0 -129 -54t-47 -138z" />
<glyph unicode="&#x160;" horiz-adv-x="1255" d="M6 193l215 307q82 -79 196 -127.5t245 -48.5q65 0 108 18t43 55q0 21 -26 35t-70 23.5t-101.5 19t-120.5 23.5t-126 33.5t-120.5 53.5t-101.5 79t-70 114.5t-26 155.5q0 88 36.5 168.5t105.5 144t179 101.5t246 38q347 0 580 -190l-221 -293q-86 65 -193.5 100t-208.5 35 q-104 0 -104 -61q0 -20 26 -35t70 -25t101 -20.5t120 -25t126 -34.5t120 -53t101 -76.5t70 -109.5t26 -147q0 -225 -157 -350.5t-433 -125.5q-394 0 -635 218zM270 1786h215l131 -150l125 150h215l-180 -295h-319z" />
<glyph unicode="&#x161;" horiz-adv-x="1003" d="M18 127l148 248q61 -47 168 -86t188 -39q99 0 99 43q0 16 -24 26.5t-63.5 15t-90 13t-103.5 19t-103.5 34.5t-90 57t-63.5 90.5t-24 131.5q0 67 29.5 127t84 106.5t139.5 73.5t190 27q236 0 428 -127l-135 -240q-50 42 -130 72.5t-161 30.5q-41 0 -66.5 -11.5 t-25.5 -31.5q0 -14 24 -23.5t63.5 -14t90 -14t103 -20.5t103 -36.5t90 -60t63.5 -92t24 -131.5q0 -151 -126.5 -245.5t-342.5 -94.5q-135 0 -270.5 42.5t-215.5 109.5zM160 1434h215l131 -150l125 150h215l-180 -295h-320z" />
<glyph unicode="&#x16a;" horiz-adv-x="1570" d="M111 561v805h419v-791q0 -103 66.5 -169t189.5 -66q121 0 187.5 66t66.5 169v791h420v-803q0 -129 -41 -235.5t-122.5 -186t-211.5 -123t-299 -43.5t-299.5 43.5t-211.5 123t-122.5 185t-41.5 234.5zM420 1526v198h743v-198h-743z" />
<glyph unicode="&#x16b;" horiz-adv-x="1241" d="M102 283v706h369v-549q0 -139 143 -139q38 0 70.5 13.5t49 27.5t36.5 37v610h369v-989h-369v111q-51 -57 -136 -96.5t-204 -39.5q-163 0 -245.5 86t-82.5 222zM248 1169v199h743v-199h-743z" />
<glyph unicode="&#x172;" horiz-adv-x="1570" d="M111 561v805h419v-791q0 -103 66.5 -169t189.5 -66q121 0 187.5 66t66.5 169v791h420v-803q0 -214 -111.5 -363t-330.5 -200q-133 -68 -133 -172q0 -37 18 -53.5t41 -16.5q50 0 72 58l135 -88q-72 -109 -207 -109q-96 0 -160.5 48t-64.5 145q0 91 57 163 q-167 1 -295.5 45.5t-208.5 123.5t-120.5 184t-40.5 233z" />
<glyph unicode="&#x173;" horiz-adv-x="1241" d="M102 283v706h369v-549q0 -139 143 -139q38 0 70.5 13.5t49 27.5t36.5 37v610h369v-989q-133 -68 -133 -172q0 -37 18 -53.5t41 -16.5q50 0 72 58l135 -88q-72 -109 -207 -109q-96 0 -160.5 48t-64.5 145q0 108 80 188h-150v111q-51 -57 -136 -96.5t-204 -39.5 q-163 0 -245.5 86t-82.5 222z" />
<glyph unicode="&#x17d;" horiz-adv-x="1228" d="M74 0v328l520 678h-520v360h1067v-326l-523 -680h537v-360h-1081zM272 1786h215l131 -150l125 150h215l-180 -295h-319z" />
<glyph unicode="&#x17e;" horiz-adv-x="995" d="M68 0v270l348 400h-348v319h852v-258l-357 -412h365v-319h-860zM143 1434h215l131 -150l125 150h215l-180 -295h-319z" />
<glyph unicode="&#x2c6;" horiz-adv-x="686" d="M0 1139l180 295h320l186 -295h-215l-131 149l-125 -149h-215z" />
<glyph unicode="&#x2da;" horiz-adv-x="454" d="M0 1337q0 94 67.5 162t161.5 68q93 0 159.5 -68t66.5 -162t-66.5 -161.5t-159.5 -67.5q-94 0 -161.5 67.5t-67.5 161.5zM158 1337q0 -29 21 -50t50 -21t49.5 21t20.5 50t-20.5 50.5t-49.5 21.5t-50 -21.5t-21 -50.5z" />
<glyph unicode="&#x2dc;" horiz-adv-x="698" d="M0 1147q0 274 242 274q43 0 80.5 -13.5t59 -30.5t44.5 -30.5t41 -13.5q21 0 35 19.5t14 56.5h182q0 -274 -241 -274q-43 0 -81 13.5t-59.5 30.5t-44.5 30.5t-41 13.5q-21 0 -35 -19.5t-14 -56.5h-182z" />
<glyph unicode="&#x2000;" horiz-adv-x="939" />
<glyph unicode="&#x2001;" horiz-adv-x="1878" />
<glyph unicode="&#x2002;" horiz-adv-x="939" />
<glyph unicode="&#x2003;" horiz-adv-x="1878" />
<glyph unicode="&#x2004;" horiz-adv-x="626" />
<glyph unicode="&#x2005;" horiz-adv-x="469" />
<glyph unicode="&#x2006;" horiz-adv-x="313" />
<glyph unicode="&#x2007;" horiz-adv-x="313" />
<glyph unicode="&#x2008;" horiz-adv-x="234" />
<glyph unicode="&#x2009;" horiz-adv-x="375" />
<glyph unicode="&#x200a;" horiz-adv-x="104" />
<glyph unicode="&#x2010;" horiz-adv-x="614" d="M61 342v307h492v-307h-492z" />
<glyph unicode="&#x2011;" horiz-adv-x="614" d="M61 342v307h492v-307h-492z" />
<glyph unicode="&#x2012;" horiz-adv-x="614" d="M61 342v307h492v-307h-492z" />
<glyph unicode="&#x2013;" horiz-adv-x="1214" d="M61 342v307h1092v-307h-1092z" />
<glyph unicode="&#x2014;" horiz-adv-x="1705" d="M61 342v307h1584v-307h-1584z" />
<glyph unicode="&#x2018;" horiz-adv-x="575" d="M61 938q0 133 67 249t189 202l150 -121q-52 -23 -109.5 -82t-76.5 -115q20 8 53 8q75 0 126.5 -53t51.5 -137q0 -89 -63 -152t-150 -63q-99 0 -168.5 71.5t-69.5 192.5z" />
<glyph unicode="&#x2019;" horiz-adv-x="575" d="M70 1171q0 89 63 152t150 63q98 0 167.5 -71.5t69.5 -192.5q0 -133 -67 -248.5t-189 -201.5l-149 121q52 23 109.5 81.5t76.5 114.5q-20 -8 -53 -8q-75 0 -126.5 53t-51.5 137z" />
<glyph unicode="&#x201a;" horiz-adv-x="575" d="M70 199q0 89 63 152t150 63q98 0 167.5 -71.5t69.5 -192.5q0 -133 -67 -249t-189 -202l-149 121q52 23 109.5 81.5t76.5 114.5q-20 -8 -53 -8q-75 0 -126.5 53t-51.5 138z" />
<glyph unicode="&#x201c;" horiz-adv-x="1081" d="M53 938q0 133 67 249t189 202l150 -121q-52 -23 -110 -82t-77 -115q20 8 54 8q75 0 126.5 -53t51.5 -137q0 -89 -63 -152t-150 -63q-99 0 -168.5 71.5t-69.5 192.5zM559 938q0 133 67 249t189 202l150 -121q-52 -23 -110 -82t-77 -115q20 8 53 8q75 0 127 -53t52 -137 q0 -89 -63 -152t-150 -63q-99 0 -168.5 71.5t-69.5 192.5z" />
<glyph unicode="&#x201d;" horiz-adv-x="1081" d="M70 1171q0 89 63 152t150 63q98 0 167.5 -71.5t69.5 -192.5q0 -133 -67 -248.5t-189 -201.5l-149 121q52 23 109.5 81.5t76.5 114.5q-20 -8 -53 -8q-75 0 -126.5 53t-51.5 137zM575 1171q0 89 63 152t150 63q99 0 168.5 -71.5t69.5 -192.5q0 -133 -67 -248.5t-189 -201.5 l-149 121q52 23 109.5 81.5t76.5 114.5q-20 -8 -53 -8q-75 0 -127 53t-52 137z" />
<glyph unicode="&#x201e;" horiz-adv-x="1081" d="M70 199q0 89 63 152t150 63q98 0 167.5 -71.5t69.5 -192.5q0 -133 -67 -249t-189 -202l-149 121q52 23 109.5 81.5t76.5 114.5q-20 -8 -53 -8q-75 0 -126.5 53t-51.5 138zM575 199q0 89 63 152t150 63q99 0 168.5 -71.5t69.5 -192.5q0 -133 -67 -249t-189 -202l-149 121 q52 23 109.5 81.5t76.5 114.5q-20 -8 -53 -8q-75 0 -127 53.5t-52 137.5z" />
<glyph unicode="&#x2022;" horiz-adv-x="733" d="M102 496q0 110 78.5 188t188.5 78t188 -78t78 -188q0 -109 -78 -187t-188 -78t-188.5 78t-78.5 187z" />
<glyph unicode="&#x2026;" horiz-adv-x="1732" d="M72 195q0 89 64 154t153 65t153 -65t64 -154q0 -88 -64 -153t-153 -65t-153 65t-64 153zM649 195q0 89 64 154t153 65t153 -65t64 -154q0 -88 -64 -153t-153 -65t-153 65t-64 153zM1227 195q0 89 64 154t153 65t153 -65t64 -154q0 -88 -64 -153t-153 -65t-153 65t-64 153 z" />
<glyph unicode="&#x202f;" horiz-adv-x="375" />
<glyph unicode="&#x2039;" horiz-adv-x="778" d="M61 498l328 362h328l-328 -362l328 -369h-328z" />
<glyph unicode="&#x203a;" horiz-adv-x="778" d="M61 129l328 369l-328 362h328l328 -362l-328 -369h-328z" />
<glyph unicode="&#x205f;" horiz-adv-x="469" />
<glyph unicode="&#x20ac;" horiz-adv-x="1478" d="M25 446v195h63v41q0 31 2 47h-65v195h102q74 214 266 339.5t447 125.5q103 0 193.5 -23.5t156 -62t120 -92t89.5 -106.5t61 -114l-356 -166q-27 83 -101 141t-163 58q-149 0 -242 -100h365v-195h-453q-2 -16 -2 -47q0 -29 2 -41h453v-195h-371q95 -106 248 -106 q89 0 163 58t101 141l356 -164q-26 -59 -60.5 -112t-89.5 -107t-120 -93t-156 -63.5t-194 -24.5q-257 0 -450 127t-265 344h-100z" />
<glyph unicode="&#x2122;" horiz-adv-x="929" d="M35 1313v53h311v-53h-127v-398h-57v398h-127zM420 915v451h88l131 -328l131 328h88v-451h-57v373l-154 -373h-16l-154 373v-373h-57z" />
<glyph unicode="&#x25fc;" horiz-adv-x="993" d="M0 0v993h993v-993h-993z" />
<hkern g1="B" 	g2="T" 	k="20" />
<hkern g1="B" 	g2="V" 	k="41" />
<hkern g1="B" 	g2="W" 	k="20" />
<hkern g1="B" 	g2="Y,Yacute" 	k="61" />
<hkern g1="B" 	g2="quotedbl,quotesingle,registered,quoteleft,quoteright,quotedblleft,quotedblright,trademark" 	k="20" />
<hkern g1="C,Ccaron" 	g2="V" 	k="10" />
<hkern g1="C,Ccaron" 	g2="W" 	k="20" />
<hkern g1="C,Ccaron" 	g2="Y,Yacute" 	k="61" />
<hkern g1="C,Ccaron" 	g2="question" 	k="20" />
<hkern g1="C,Ccaron" 	g2="A,Aacute,Adieresis,Aring,AE,Amacron,Aogonek" 	k="20" />
<hkern g1="D,O,Q,Oacute,Otilde,Odieresis,Oslash,Omacron" 	g2="J" 	k="41" />
<hkern g1="D,O,Q,Oacute,Otilde,Odieresis,Oslash,Omacron" 	g2="T" 	k="41" />
<hkern g1="D,O,Q,Oacute,Otilde,Odieresis,Oslash,Omacron" 	g2="V" 	k="41" />
<hkern g1="D,O,Q,Oacute,Otilde,Odieresis,Oslash,Omacron" 	g2="W" 	k="41" />
<hkern g1="D,O,Q,Oacute,Otilde,Odieresis,Oslash,Omacron" 	g2="Y,Yacute" 	k="82" />
<hkern g1="D,O,Q,Oacute,Otilde,Odieresis,Oslash,Omacron" 	g2="question" 	k="61" />
<hkern g1="D,O,Q,Oacute,Otilde,Odieresis,Oslash,Omacron" 	g2="quotedbl,quotesingle,registered,quoteleft,quoteright,quotedblleft,quotedblright,trademark" 	k="20" />
<hkern g1="D,O,Q,Oacute,Otilde,Odieresis,Oslash,Omacron" 	g2="A,Aacute,Adieresis,Aring,AE,Amacron,Aogonek" 	k="61" />
<hkern g1="D,O,Q,Oacute,Otilde,Odieresis,Oslash,Omacron" 	g2="X" 	k="61" />
<hkern g1="D,O,Q,Oacute,Otilde,Odieresis,Oslash,Omacron" 	g2="Z,Zcaron" 	k="20" />
<hkern g1="D,O,Q,Oacute,Otilde,Odieresis,Oslash,Omacron" 	g2="comma,period,quotesinglbase,quotedblbase,ellipsis" 	k="41" />
<hkern g1="G,Gcommaaccent" 	g2="A,Aacute,Adieresis,Aring,AE,Amacron,Aogonek" 	k="20" />
<hkern g1="G,Gcommaaccent" 	g2="X" 	k="20" />
<hkern g1="G,Gcommaaccent" 	g2="T" 	k="20" />
<hkern g1="G,Gcommaaccent" 	g2="V" 	k="41" />
<hkern g1="G,Gcommaaccent" 	g2="W" 	k="20" />
<hkern g1="G,Gcommaaccent" 	g2="Y,Yacute" 	k="61" />
<hkern g1="G,Gcommaaccent" 	g2="question" 	k="41" />
<hkern g1="K,Kcommaaccent" 	g2="C,G,O,Q,Oacute,Otilde,Odieresis,Oslash,Ccaron,Gcommaaccent,Omacron" 	k="82" />
<hkern g1="K,Kcommaaccent" 	g2="a,ae,aogonek" 	k="20" />
<hkern g1="K,Kcommaaccent" 	g2="c,d,e,g,o,q,oslash,eogonek" 	k="41" />
<hkern g1="K,Kcommaaccent" 	g2="f" 	k="82" />
<hkern g1="K,Kcommaaccent" 	g2="t" 	k="123" />
<hkern g1="K,Kcommaaccent" 	g2="u,uogonek" 	k="41" />
<hkern g1="K,Kcommaaccent" 	g2="v" 	k="123" />
<hkern g1="K,Kcommaaccent" 	g2="w" 	k="82" />
<hkern g1="K,Kcommaaccent" 	g2="x" 	k="82" />
<hkern g1="K,Kcommaaccent" 	g2="y,yacute" 	k="123" />
<hkern g1="K,Kcommaaccent" 	g2="hyphen,endash,emdash" 	k="102" />
<hkern g1="L,Lcommaaccent" 	g2="T" 	k="205" />
<hkern g1="L,Lcommaaccent" 	g2="V" 	k="184" />
<hkern g1="L,Lcommaaccent" 	g2="W" 	k="164" />
<hkern g1="L,Lcommaaccent" 	g2="Y,Yacute" 	k="266" />
<hkern g1="L,Lcommaaccent" 	g2="question" 	k="205" />
<hkern g1="L,Lcommaaccent" 	g2="quotedbl,quotesingle,registered,quoteleft,quoteright,quotedblleft,quotedblright,trademark" 	k="307" />
<hkern g1="L,Lcommaaccent" 	g2="C,G,O,Q,Oacute,Otilde,Odieresis,Oslash,Ccaron,Gcommaaccent,Omacron" 	k="41" />
<hkern g1="L,Lcommaaccent" 	g2="t" 	k="82" />
<hkern g1="L,Lcommaaccent" 	g2="v" 	k="102" />
<hkern g1="L,Lcommaaccent" 	g2="w" 	k="61" />
<hkern g1="L,Lcommaaccent" 	g2="y,yacute" 	k="102" />
<hkern g1="L,Lcommaaccent" 	g2="U,Uacute,Udieresis,Umacron,Uogonek" 	k="41" />
<hkern g1="L,Lcommaaccent" 	g2="asterisk" 	k="328" />
<hkern g1="R" 	g2="Y,Yacute" 	k="41" />
<hkern g1="R" 	g2="ampersand" 	k="20" />
<hkern g1="R" 	g2="a,ae,aogonek" 	k="41" />
<hkern g1="R" 	g2="c,d,e,g,o,q,oslash,eogonek" 	k="61" />
<hkern g1="R" 	g2="T" 	k="20" />
<hkern g1="R" 	g2="V" 	k="20" />
<hkern g1="R" 	g2="quotedbl,quotesingle,registered,quoteleft,quoteright,quotedblleft,quotedblright,trademark" 	k="20" />
<hkern g1="R" 	g2="s" 	k="41" />
<hkern g1="S,Scaron" 	g2="A,Aacute,Adieresis,Aring,AE,Amacron,Aogonek" 	k="20" />
<hkern g1="S,Scaron" 	g2="Y,Yacute" 	k="20" />
<hkern g1="S,Scaron" 	g2="T" 	k="41" />
<hkern g1="S,Scaron" 	g2="t" 	k="20" />
<hkern g1="S,Scaron" 	g2="v" 	k="41" />
<hkern g1="S,Scaron" 	g2="w" 	k="20" />
<hkern g1="S,Scaron" 	g2="x" 	k="41" />
<hkern g1="S,Scaron" 	g2="y,yacute" 	k="41" />
<hkern g1="T" 	g2="A,Aacute,Adieresis,Aring,AE,Amacron,Aogonek" 	k="123" />
<hkern g1="T" 	g2="J" 	k="184" />
<hkern g1="T" 	g2="ampersand" 	k="102" />
<hkern g1="T" 	g2="comma,period,quotesinglbase,quotedblbase,ellipsis" 	k="205" />
<hkern g1="T" 	g2="a,ae,aogonek" 	k="123" />
<hkern g1="T" 	g2="c,d,e,g,o,q,oslash,eogonek" 	k="164" />
<hkern g1="T" 	g2="hyphen,endash,emdash" 	k="123" />
<hkern g1="T" 	g2="s" 	k="143" />
<hkern g1="T" 	g2="x" 	k="20" />
<hkern g1="T" 	g2="C,G,O,Q,Oacute,Otilde,Odieresis,Oslash,Ccaron,Gcommaaccent,Omacron" 	k="41" />
<hkern g1="T" 	g2="S,Scaron" 	k="20" />
<hkern g1="T" 	g2="colon,semicolon" 	k="102" />
<hkern g1="T" 	g2="f" 	k="20" />
<hkern g1="T" 	g2="m,n,p,r,z,ncommaaccent" 	k="102" />
<hkern g1="T" 	g2="u,uogonek" 	k="102" />
<hkern g1="J,U,Uacute,Udieresis,Umacron,Uogonek" 	g2="A,Aacute,Adieresis,Aring,AE,Amacron,Aogonek" 	k="82" />
<hkern g1="J,U,Uacute,Udieresis,Umacron,Uogonek" 	g2="J" 	k="82" />
<hkern g1="J,U,Uacute,Udieresis,Umacron,Uogonek" 	g2="comma,period,quotesinglbase,quotedblbase,ellipsis" 	k="61" />
<hkern g1="V" 	g2="A,Aacute,Adieresis,Aring,AE,Amacron,Aogonek" 	k="82" />
<hkern g1="V" 	g2="J" 	k="205" />
<hkern g1="V" 	g2="ampersand" 	k="102" />
<hkern g1="V" 	g2="comma,period,quotesinglbase,quotedblbase,ellipsis" 	k="184" />
<hkern g1="V" 	g2="a,ae,aogonek" 	k="143" />
<hkern g1="V" 	g2="c,d,e,g,o,q,oslash,eogonek" 	k="123" />
<hkern g1="V" 	g2="s" 	k="123" />
<hkern g1="V" 	g2="t" 	k="41" />
<hkern g1="V" 	g2="v" 	k="41" />
<hkern g1="V" 	g2="w" 	k="41" />
<hkern g1="V" 	g2="x" 	k="61" />
<hkern g1="V" 	g2="y,yacute" 	k="41" />
<hkern g1="V" 	g2="C,G,O,Q,Oacute,Otilde,Odieresis,Oslash,Ccaron,Gcommaaccent,Omacron" 	k="41" />
<hkern g1="V" 	g2="f" 	k="61" />
<hkern g1="V" 	g2="m,n,p,r,z,ncommaaccent" 	k="143" />
<hkern g1="V" 	g2="u,uogonek" 	k="143" />
<hkern g1="W" 	g2="hyphen,endash,emdash" 	k="82" />
<hkern g1="W" 	g2="A,Aacute,Adieresis,Aring,AE,Amacron,Aogonek" 	k="82" />
<hkern g1="W" 	g2="ampersand" 	k="41" />
<hkern g1="W" 	g2="C,G,O,Q,Oacute,Otilde,Odieresis,Oslash,Ccaron,Gcommaaccent,Omacron" 	k="41" />
<hkern g1="W" 	g2="J" 	k="164" />
<hkern g1="W" 	g2="comma,period,quotesinglbase,quotedblbase,ellipsis" 	k="123" />
<hkern g1="W" 	g2="a,ae,aogonek" 	k="82" />
<hkern g1="W" 	g2="c,d,e,g,o,q,oslash,eogonek" 	k="82" />
<hkern g1="W" 	g2="f" 	k="41" />
<hkern g1="W" 	g2="m,n,p,r,z,ncommaaccent" 	k="61" />
<hkern g1="W" 	g2="s" 	k="82" />
<hkern g1="W" 	g2="t" 	k="41" />
<hkern g1="W" 	g2="u,uogonek" 	k="61" />
<hkern g1="W" 	g2="x" 	k="61" />
<hkern g1="W" 	g2="v" 	k="20" />
<hkern g1="W" 	g2="y,yacute" 	k="20" />
<hkern g1="Y,Yacute" 	g2="hyphen,endash,emdash" 	k="266" />
<hkern g1="Y,Yacute" 	g2="A,Aacute,Adieresis,Aring,AE,Amacron,Aogonek" 	k="143" />
<hkern g1="Y,Yacute" 	g2="ampersand" 	k="123" />
<hkern g1="Y,Yacute" 	g2="C,G,O,Q,Oacute,Otilde,Odieresis,Oslash,Ccaron,Gcommaaccent,Omacron" 	k="82" />
<hkern g1="Y,Yacute" 	g2="J" 	k="246" />
<hkern g1="Y,Yacute" 	g2="comma,period,quotesinglbase,quotedblbase,ellipsis" 	k="184" />
<hkern g1="Y,Yacute" 	g2="a,ae,aogonek" 	k="205" />
<hkern g1="Y,Yacute" 	g2="c,d,e,g,o,q,oslash,eogonek" 	k="246" />
<hkern g1="Y,Yacute" 	g2="f" 	k="143" />
<hkern g1="Y,Yacute" 	g2="m,n,p,r,z,ncommaaccent" 	k="184" />
<hkern g1="Y,Yacute" 	g2="s" 	k="205" />
<hkern g1="Y,Yacute" 	g2="t" 	k="82" />
<hkern g1="Y,Yacute" 	g2="u,uogonek" 	k="184" />
<hkern g1="Y,Yacute" 	g2="x" 	k="164" />
<hkern g1="Y,Yacute" 	g2="v" 	k="123" />
<hkern g1="Y,Yacute" 	g2="y,yacute" 	k="123" />
<hkern g1="Y,Yacute" 	g2="S,Scaron" 	k="41" />
<hkern g1="Y,Yacute" 	g2="colon,semicolon" 	k="164" />
<hkern g1="Y,Yacute" 	g2="w" 	k="123" />
<hkern g1="Z,Zcaron" 	g2="C,G,O,Q,Oacute,Otilde,Odieresis,Oslash,Ccaron,Gcommaaccent,Omacron" 	k="20" />
<hkern g1="a,h,m,n,aogonek,ncommaaccent" 	g2="question" 	k="102" />
<hkern g1="a,h,m,n,aogonek,ncommaaccent" 	g2="quotedbl,quotesingle,registered,quoteleft,quoteright,quotedblleft,quotedblright,trademark" 	k="41" />
<hkern g1="a,h,m,n,aogonek,ncommaaccent" 	g2="Y,Yacute" 	k="225" />
<hkern g1="a,h,m,n,aogonek,ncommaaccent" 	g2="T" 	k="164" />
<hkern g1="a,h,m,n,aogonek,ncommaaccent" 	g2="V" 	k="164" />
<hkern g1="a,h,m,n,aogonek,ncommaaccent" 	g2="W" 	k="102" />
<hkern g1="ampersand" 	g2="Y,Yacute" 	k="143" />
<hkern g1="ampersand" 	g2="T" 	k="123" />
<hkern g1="ampersand" 	g2="V" 	k="102" />
<hkern g1="ampersand" 	g2="W" 	k="41" />
<hkern g1="asterisk" 	g2="A,Aacute,Adieresis,Aring,AE,Amacron,Aogonek" 	k="164" />
<hkern g1="asterisk" 	g2="J" 	k="266" />
<hkern g1="b,o,p,oslash" 	g2="x" 	k="61" />
<hkern g1="b,o,p,oslash" 	g2="question" 	k="123" />
<hkern g1="b,o,p,oslash" 	g2="quotedbl,quotesingle,registered,quoteleft,quoteright,quotedblleft,quotedblright,trademark" 	k="20" />
<hkern g1="b,o,p,oslash" 	g2="Y,Yacute" 	k="225" />
<hkern g1="b,o,p,oslash" 	g2="T" 	k="164" />
<hkern g1="b,o,p,oslash" 	g2="V" 	k="123" />
<hkern g1="b,o,p,oslash" 	g2="W" 	k="82" />
<hkern g1="c,cent" 	g2="T" 	k="123" />
<hkern g1="c,cent" 	g2="V" 	k="102" />
<hkern g1="c,cent" 	g2="W" 	k="61" />
<hkern g1="c,cent" 	g2="Y,Yacute" 	k="143" />
<hkern g1="c,cent" 	g2="question" 	k="61" />
<hkern g1="c,cent" 	g2="quotedbl,quotesingle,registered,quoteleft,quoteright,quotedblleft,quotedblright,trademark" 	k="20" />
<hkern g1="colon,semicolon" 	g2="T" 	k="102" />
<hkern g1="colon,semicolon" 	g2="Y,Yacute" 	k="164" />
<hkern g1="e,ae,eogonek" 	g2="T" 	k="164" />
<hkern g1="e,ae,eogonek" 	g2="V" 	k="123" />
<hkern g1="e,ae,eogonek" 	g2="W" 	k="82" />
<hkern g1="e,ae,eogonek" 	g2="Y,Yacute" 	k="225" />
<hkern g1="e,ae,eogonek" 	g2="question" 	k="102" />
<hkern g1="e,ae,eogonek" 	g2="quotedbl,quotesingle,registered,quoteleft,quoteright,quotedblleft,quotedblright,trademark" 	k="20" />
<hkern g1="e,ae,eogonek" 	g2="asterisk" 	k="20" />
<hkern g1="f" 	g2="T" 	k="-82" />
<hkern g1="f" 	g2="V" 	k="-143" />
<hkern g1="f" 	g2="W" 	k="-143" />
<hkern g1="f" 	g2="X" 	k="-82" />
<hkern g1="f" 	g2="Y,Yacute" 	k="-143" />
<hkern g1="f" 	g2="Z,Zcaron" 	k="-82" />
<hkern g1="f" 	g2="question" 	k="-102" />
<hkern g1="f" 	g2="quotedbl,quotesingle,registered,quoteleft,quoteright,quotedblleft,quotedblright,trademark" 	k="-123" />
<hkern g1="f" 	g2="asterisk" 	k="-123" />
<hkern g1="f" 	g2="ampersand" 	k="20" />
<hkern g1="f" 	g2="comma,period,quotesinglbase,quotedblbase,ellipsis" 	k="102" />
<hkern g1="f" 	g2="parenright,bracketright,braceright" 	k="-123" />
<hkern g1="f" 	g2="exclam,B,D,E,F,H,I,K,L,M,N,P,R,Eacute,Iacute,Emacron,Edotaccent,Eogonek,Imacron,Iogonek,Kcommaaccent,Lcommaaccent,Ncommaaccent" 	k="-82" />
<hkern g1="f" 	g2="S,Scaron" 	k="-61" />
<hkern g1="f" 	g2="U,Uacute,Udieresis,Umacron,Uogonek" 	k="-82" />
<hkern g1="g,q" 	g2="T" 	k="102" />
<hkern g1="g,q" 	g2="V" 	k="143" />
<hkern g1="g,q" 	g2="W" 	k="61" />
<hkern g1="g,q" 	g2="Y,Yacute" 	k="184" />
<hkern g1="g,q" 	g2="question" 	k="61" />
<hkern g1="g,q" 	g2="j" 	k="-123" />
<hkern g1="hyphen,endash,emdash" 	g2="V" 	k="123" />
<hkern g1="hyphen,endash,emdash" 	g2="W" 	k="82" />
<hkern g1="hyphen,endash,emdash" 	g2="X" 	k="102" />
<hkern g1="hyphen,endash,emdash" 	g2="Y,Yacute" 	k="266" />
<hkern g1="k,kcommaaccent" 	g2="T" 	k="41" />
<hkern g1="k,kcommaaccent" 	g2="V" 	k="61" />
<hkern g1="k,kcommaaccent" 	g2="W" 	k="61" />
<hkern g1="k,kcommaaccent" 	g2="Y,Yacute" 	k="164" />
<hkern g1="k,kcommaaccent" 	g2="c,d,e,g,o,q,oslash,eogonek" 	k="20" />
<hkern g1="k,kcommaaccent" 	g2="bullet" 	k="41" />
<hkern g1="k,kcommaaccent" 	g2="hyphen,endash,emdash" 	k="41" />
<hkern g1="comma,period,quotesinglbase,quotedblbase,ellipsis" 	g2="T" 	k="205" />
<hkern g1="comma,period,quotesinglbase,quotedblbase,ellipsis" 	g2="V" 	k="164" />
<hkern g1="comma,period,quotesinglbase,quotedblbase,ellipsis" 	g2="W" 	k="123" />
<hkern g1="comma,period,quotesinglbase,quotedblbase,ellipsis" 	g2="Y,Yacute" 	k="184" />
<hkern g1="comma,period,quotesinglbase,quotedblbase,ellipsis" 	g2="quotedbl,quotesingle,registered,quoteleft,quoteright,quotedblleft,quotedblright,trademark" 	k="184" />
<hkern g1="comma,period,quotesinglbase,quotedblbase,ellipsis" 	g2="U,Uacute,Udieresis,Umacron,Uogonek" 	k="61" />
<hkern g1="comma,period,quotesinglbase,quotedblbase,ellipsis" 	g2="j" 	k="-82" />
<hkern g1="comma,period,quotesinglbase,quotedblbase,ellipsis" 	g2="f" 	k="61" />
<hkern g1="comma,period,quotesinglbase,quotedblbase,ellipsis" 	g2="t" 	k="61" />
<hkern g1="comma,period,quotesinglbase,quotedblbase,ellipsis" 	g2="v" 	k="123" />
<hkern g1="comma,period,quotesinglbase,quotedblbase,ellipsis" 	g2="w" 	k="61" />
<hkern g1="comma,period,quotesinglbase,quotedblbase,ellipsis" 	g2="y,yacute" 	k="102" />
<hkern g1="comma,period,quotesinglbase,quotedblbase,ellipsis" 	g2="one" 	k="246" />
<hkern g1="comma,period,quotesinglbase,quotedblbase,ellipsis" 	g2="zero,six" 	k="20" />
<hkern g1="comma,period,quotesinglbase,quotedblbase,ellipsis" 	g2="seven" 	k="164" />
<hkern g1="quotedbl,quotesingle,quoteleft,quoteright,quotedblleft,quotedblright" 	g2="A,Aacute,Adieresis,Aring,AE,Amacron,Aogonek" 	k="184" />
<hkern g1="quotedbl,quotesingle,quoteleft,quoteright,quotedblleft,quotedblright" 	g2="J" 	k="246" />
<hkern g1="quotedbl,quotesingle,quoteleft,quoteright,quotedblleft,quotedblright" 	g2="comma,period,quotesinglbase,quotedblbase,ellipsis" 	k="184" />
<hkern g1="quotedbl,quotesingle,quoteleft,quoteright,quotedblleft,quotedblright" 	g2="C,G,O,Q,Oacute,Otilde,Odieresis,Oslash,Ccaron,Gcommaaccent,Omacron" 	k="20" />
<hkern g1="quotedbl,quotesingle,quoteleft,quoteright,quotedblleft,quotedblright" 	g2="s" 	k="61" />
<hkern g1="s" 	g2="Y,Yacute" 	k="205" />
<hkern g1="s" 	g2="T" 	k="123" />
<hkern g1="s" 	g2="V" 	k="102" />
<hkern g1="s" 	g2="W" 	k="123" />
<hkern g1="s" 	g2="X" 	k="20" />
<hkern g1="s" 	g2="question" 	k="102" />
<hkern g1="s" 	g2="quotedbl,quotesingle,registered,quoteleft,quoteright,quotedblleft,quotedblright,trademark" 	k="41" />
<hkern g1="t" 	g2="Y,Yacute" 	k="82" />
<hkern g1="t" 	g2="T" 	k="20" />
<hkern g1="t" 	g2="V" 	k="82" />
<hkern g1="t" 	g2="W" 	k="41" />
<hkern g1="u,z,uogonek" 	g2="Y,Yacute" 	k="184" />
<hkern g1="u,z,uogonek" 	g2="T" 	k="102" />
<hkern g1="u,z,uogonek" 	g2="V" 	k="143" />
<hkern g1="u,z,uogonek" 	g2="W" 	k="61" />
<hkern g1="u,z,uogonek" 	g2="question" 	k="61" />
<hkern g1="v" 	g2="comma,period,quotesinglbase,quotedblbase,ellipsis" 	k="123" />
<hkern g1="v" 	g2="Y,Yacute" 	k="123" />
<hkern g1="v" 	g2="V" 	k="41" />
<hkern g1="v" 	g2="W" 	k="20" />
<hkern g1="v" 	g2="X" 	k="61" />
<hkern g1="v" 	g2="A,Aacute,Adieresis,Aring,AE,Amacron,Aogonek" 	k="41" />
<hkern g1="w" 	g2="comma,period,quotesinglbase,quotedblbase,ellipsis" 	k="61" />
<hkern g1="w" 	g2="Y,Yacute" 	k="123" />
<hkern g1="w" 	g2="V" 	k="41" />
<hkern g1="w" 	g2="X" 	k="61" />
<hkern g1="w" 	g2="A,Aacute,Adieresis,Aring,AE,Amacron,Aogonek" 	k="20" />
<hkern g1="y,yacute" 	g2="comma,period,quotesinglbase,quotedblbase,ellipsis" 	k="102" />
<hkern g1="y,yacute" 	g2="Y,Yacute" 	k="123" />
<hkern g1="y,yacute" 	g2="V" 	k="41" />
<hkern g1="y,yacute" 	g2="W" 	k="20" />
<hkern g1="y,yacute" 	g2="X" 	k="61" />
<hkern g1="y,yacute" 	g2="question" 	k="20" />
<hkern g1="y,yacute" 	g2="A,Aacute,Adieresis,Aring,AE,Amacron,Aogonek" 	k="41" />
<hkern g1="X" 	g2="y,yacute" 	k="61" />
<hkern g1="X" 	g2="w" 	k="61" />
<hkern g1="X" 	g2="v" 	k="61" />
<hkern g1="X" 	g2="f" 	k="61" />
<hkern g1="X" 	g2="t" 	k="61" />
<hkern g1="X" 	g2="hyphen,endash,emdash" 	k="102" />
<hkern g1="X" 	g2="C,G,O,Q,Oacute,Otilde,Odieresis,Oslash,Ccaron,Gcommaaccent,Omacron" 	k="61" />
<hkern g1="zero,nine" 	g2="comma,period,quotesinglbase,quotedblbase,ellipsis" 	k="20" />
<hkern g1="seven" 	g2="comma,period,quotesinglbase,quotedblbase,ellipsis" 	k="184" />
<hkern g1="x" 	g2="Y,Yacute" 	k="164" />
<hkern g1="x" 	g2="T" 	k="20" />
<hkern g1="x" 	g2="V" 	k="61" />
<hkern g1="x" 	g2="W" 	k="61" />
<hkern g1="x" 	g2="c,d,e,g,o,q,oslash,eogonek" 	k="61" />
<hkern g1="parenleft,bracketleft,braceleft" 	g2="j" 	k="-225" />
</font>
</defs></svg> 